funcName,chiral caphiL
poType,chiral
kappa0,0.01
sigmaIMeVPion,2.0
sigmaIMeVChi,5.0
lMin,1.0
lMax,10.0
qChar,2.236
mambdaMeV,3200.0
nGauPion,600.0
nGauChi,200.0
bGauR,300.0
bGauRPion,10000.0
fileName,resTemp.csv
writeMethod,w
fileNameCaphi,caphiTemp.csv
writeMethodCaphi,w
checkOpt,on
sigmaRMeshMax,200.0
nMax,10.0
aGauR,0.0
kappa1,None
eloMeV,-100.0
checkN,30.0
aGau,0.0
bGau,3.0
NsigmaR,50.0
e1,20.0
e0Inversion,-2.22
c0Method,scattering length
base0,base2
base2,base2
baseL,base2
basePion,base1
elo,-0.011232973831466904
enlo,0
eShift,-0.011232973831466904
x,-0.008412363945216255,0.012443762354172851,0.033299888653561954,0.05415601495295107,0.07501214125234017,0.09586826755172927,0.1167243938511184,0.1375805201505075,0.1584366464498966,0.1792927727492857,0.2001488990486748,0.22100502534806393,0.24186115164745306,0.26271727794684213,0.28357340424623123,0.30442953054562033,0.32528565684500943,0.34614178314439853,0.36699790944378763,0.38785403574317673,0.4087101620425658,0.429566288341955,0.4504224146413441,0.4712785409407332,0.49213466724012234,0.5129907935395114,0.5338469198389005,0.5547030461382896,0.5755591724376787,0.5964152987370678,0.6172714250364569,0.638127551335846,0.6589836776352351,0.6798398039346243,0.7006959302340133,0.7215520565334025,0.7424081828327915,0.7632643091321807,0.7841204354315697,0.8049765617309589,0.8258326880303479,0.8466888143297371,0.8675449406291262,0.8884010669285153,0.9092571932279044,0.9301133195272935,0.9509694458266826,0.9718255721260717,0.992681698425461,1.0135378247248499
y,11.075954489777729,14.061882812036705,18.801860701416548,25.786401744131293,36.495890471851794,49.68758273467128,70.00221551816482,95.69318203836976,123.2762603084153,172.13103888941623,213.53965174996372,248.02865102534372,289.80643037049634,339.8437339838814,306.6531785422687,296.5474791128645,275.8638925914314,277.2038167162087,205.71285863011627,175.09548461652983,145.4261917467529,138.65436846997838,121.21583624148624,85.33282649952909,76.75331542281731,64.10029369441605,62.46648747243217,59.99489256326435,40.88319362844121,35.523832262461795,33.24732122368236,28.90934782070296,31.353685958901092,26.341911569242264,18.339134991137698,17.27386888092372,16.888320076281992,14.810169189565348,15.820221676641664,14.95275736600512,10.462120274351518,8.964127971920865,9.27560657020355,9.280595749414326,8.331902540387647,9.060063545186198,7.566436953126969,5.504863395476163,4.954863321143851,5.29513766818846
funcName,chiral caphiL
poType,chiral
kappa0,0.01
sigmaIMeVPion,2.0
sigmaIMeVChi,5.0
lMin,1.0
lMax,10.0
qChar,2.236
mambdaMeV,3200.0
nGauPion,600.0
nGauChi,200.0
bGauR,300.0
bGauRPion,10000.0
fileName,resTemp.csv
writeMethod,w
fileNameCaphi,caphiTemp.csv
writeMethodCaphi,w
checkOpt,on
sigmaRMeshMax,200.0
nMax,10.0
aGauR,0.0
kappa1,None
eloMeV,-100.0
checkN,30.0
aGau,0.0
bGau,3.0
NsigmaR,50.0
e1,20.0
e0Inversion,-2.22
c0Method,scattering length
base0,base2
base2,base2
baseL,base2
basePion,base1
elo,-0.011232973831466904
enlo,0
eShift,-0.011232973831466904
x,-0.008412363945216255,0.012443762354172851,0.033299888653561954,0.05415601495295107,0.07501214125234017,0.09586826755172927,0.1167243938511184,0.1375805201505075,0.1584366464498966,0.1792927727492857,0.2001488990486748,0.22100502534806393,0.24186115164745306,0.26271727794684213,0.28357340424623123,0.30442953054562033,0.32528565684500943,0.34614178314439853,0.36699790944378763,0.38785403574317673,0.4087101620425658,0.429566288341955,0.4504224146413441,0.4712785409407332,0.49213466724012234,0.5129907935395114,0.5338469198389005,0.5547030461382896,0.5755591724376787,0.5964152987370678,0.6172714250364569,0.638127551335846,0.6589836776352351,0.6798398039346243,0.7006959302340133,0.7215520565334025,0.7424081828327915,0.7632643091321807,0.7841204354315697,0.8049765617309589,0.8258326880303479,0.8466888143297371,0.8675449406291262,0.8884010669285153,0.9092571932279044,0.9301133195272935,0.9509694458266826,0.9718255721260717,0.992681698425461,1.0135378247248499
y,11.569223240373251,14.895248905932599,20.13237071079462,27.70405001937152,38.82023339835399,52.94382173531417,73.60965588733328,100.06255607008801,129.94408314551498,177.34965017501716,220.18196077829546,258.0746840125217,295.51582701643065,345.10808102868634,315.9635441497457,306.3935499785489,278.95416367141394,280.4568764318648,211.0410682774177,182.07970043550986,144.92141830950285,138.24522727700636,122.40192967130596,88.01584313816389,79.90966218280927,62.51433875004182,61.57520683592755,59.83419497733653,41.27481909112794,36.99125073003649,31.709443235858483,26.331750191104742,30.150350235002524,25.60693215590161,18.206638085109574,17.72511717978787,15.271885555888426,12.692696430996998,14.78773367953279,14.226100713350466,9.707804396347015,8.644151019225275,8.672484601224328,6.7665129642057895,6.545780003086021,8.097173629098448,6.737770049214462,4.815997158240316,4.578924912086854,4.650886772743015
funcName,chiral caphiL
poType,chiral
kappa0,0.01
sigmaIMeVPion,2.0
sigmaIMeVChi,5.0
lMin,1.0
lMax,10.0
qChar,2.236
mambdaMeV,400.0
nGauPion,600.0
nGauChi,200.0
bGauR,300.0
bGauRPion,10000.0
fileName,resTemp.csv
writeMethod,w
fileNameCaphi,caphiTemp.csv
writeMethodCaphi,w
checkOpt,on
sigmaRMeshMax,200.0
nMax,10.0
aGauR,0.0
kappa1,None
eloMeV,-100.0
checkN,30.0
aGau,0.0
bGau,3.0
NsigmaR,50.0
e1,20.0
e0Inversion,-2.22
c0Method,scattering length
base0,base2
base2,base2
baseL,base2
basePion,base1
elo,-0.011232973831466904
enlo,0
eShift,-0.011232973831466904
x,-0.008412363945216255,0.012443762354172851,0.033299888653561954,0.05415601495295107,0.07501214125234017,0.09586826755172927,0.1167243938511184,0.1375805201505075,0.1584366464498966,0.1792927727492857,0.2001488990486748,0.22100502534806393,0.24186115164745306,0.26271727794684213,0.28357340424623123,0.30442953054562033,0.32528565684500943,0.34614178314439853,0.36699790944378763,0.38785403574317673,0.4087101620425658,0.429566288341955,0.4504224146413441,0.4712785409407332,0.49213466724012234,0.5129907935395114,0.5338469198389005,0.5547030461382896,0.5755591724376787,0.5964152987370678,0.6172714250364569,0.638127551335846,0.6589836776352351,0.6798398039346243,0.7006959302340133,0.7215520565334025,0.7424081828327915,0.7632643091321807,0.7841204354315697,0.8049765617309589,0.8258326880303479,0.8466888143297371,0.8675449406291262,0.8884010669285153,0.9092571932279044,0.9301133195272935,0.9509694458266826,0.9718255721260717,0.992681698425461,1.0135378247248499
y,10.8609328981726,13.690341858812953,18.222693161386037,25.148428591476854,35.157192322041055,49.136556411760345,68.21552743069216,93.71193151671982,126.90600613732158,168.3851197218732,216.40567702341974,264.3633694131101,301.3914640790785,318.72679611802073,314.9954970992206,295.1179391911365,266.06171683185806,233.8656865348384,202.32302178184347,173.42267742584113,148.40296308073718,127.67641687714894,108.79681723531657,92.50737063046822,81.58163192628534,67.97073672227512,61.96452945397523,51.16101193615363,48.7428891331723,39.219693838251146,36.78396599838149,32.913998253372434,26.285870830070625,27.25598334258097,23.530893775170643,18.702142474804834,19.873300575915046,19.36150118357288,14.61993535717223,12.800509067464558,15.146764859754247,14.03869157041794,9.721547013919492,8.121806317826014,9.667221405899044,11.005021158912289,8.060856530141118,5.553852291876416,4.920669258061966,5.90328568590475
funcName,chiral caphiL
poType,zPot
kappa0,0.01
sigmaIMeVPion,2.0
sigmaIMeVChi,5.0
lMin,1.0
lMax,10.0
qChar,2.236
mambdaMeV,400.0
nGauPion,600.0
nGauChi,200.0
bGauR,300.0
bGauRPion,10000.0
fileName,resTemp.csv
writeMethod,w
fileNameCaphi,caphiTemp.csv
writeMethodCaphi,w
checkOpt,on
sigmaRMeshMax,200.0
nMax,10.0
aGauR,0.0
kappa1,None
eloMeV,-100.0
checkN,30.0
aGau,0.0
bGau,3.0
NsigmaR,50.0
e1,20.0
e0Inversion,-2.22
c0Method,scattering length
base0,base2
base2,base2
baseL,base2
basePion,base1
elo,-0.011232973831466904
enlo,0
eShift,-0.011232973831466904
x,-0.008412363945216255,0.012443762354172851,0.033299888653561954,0.05415601495295107,0.07501214125234017,0.09586826755172927,0.1167243938511184,0.1375805201505075,0.1584366464498966,0.1792927727492857,0.2001488990486748,0.22100502534806393,0.24186115164745306,0.26271727794684213,0.28357340424623123,0.30442953054562033,0.32528565684500943,0.34614178314439853,0.36699790944378763,0.38785403574317673,0.4087101620425658,0.429566288341955,0.4504224146413441,0.4712785409407332,0.49213466724012234,0.5129907935395114,0.5338469198389005,0.5547030461382896,0.5755591724376787,0.5964152987370678,0.6172714250364569,0.638127551335846,0.6589836776352351,0.6798398039346243,0.7006959302340133,0.7215520565334025,0.7424081828327915,0.7632643091321807,0.7841204354315697,0.8049765617309589,0.8258326880303479,0.8466888143297371,0.8675449406291262,0.8884010669285153,0.9092571932279044,0.9301133195272935,0.9509694458266826,0.9718255721260717,0.992681698425461,1.0135378247248499
y,11.051709364069845,14.031976145615886,18.770537911547805,25.980107221642697,36.37113394379334,50.84441358422152,70.52725313157012,96.716056375479,130.64332198223164,172.813074118908,221.35485030200152,269.51204695917835,306.31823956431145,323.0418642067965,318.44314190219774,297.59513991693757,267.6101662670248,234.5660757895269,202.32297667781023,172.86532137316513,147.32954587650354,126.24926145467532,107.26895569462464,90.78552651979442,80.04777154771577,66.38984838558312,60.39064795516062,49.26559858360354,46.74975510084357,37.27586531214231,35.48004200461341,31.08175935866818,24.858908555278422,26.291710905559146,21.633154132364446,17.029586823266694,18.768796744043605,17.29838206669536,12.34436720490606,11.479891139136068,13.904587472752938,11.820460220022978,8.21822015497479,7.28232723066069,8.975088197263966,9.81343217470656,6.955382539214655,4.984610897695749,4.571453998055827,5.626181547349416
funcName,chiral caphiL
poType,zeroPot
kappa0,0.01
sigmaIMeVPion,2.0
sigmaIMeVChi,0.5
lMin,1.0
lMax,10.0
qChar,2.236
mambdaMeV,600.0
nGauPion,600.0
nGauChi,400.0
bGauR,1000.0
bGauRPion,10000.0
fileName,resTemp.csv
writeMethod,w
fileNameCaphi,caphiTemp.csv
writeMethodCaphi,w
checkOpt,on
sigmaRMeshMax,200.0
nMax,10.0
aGauR,0.0
kappa1,None
eloMeV,-100.0
checkN,30.0
aGau,0.0
bGau,3.0
NsigmaR,50.0
e1,20.0
e0Inversion,-2.22
c0Method,scattering length
base0,base2
base2,base2
baseL,base2
basePion,base1
elo,-0.011232973831466904
enlo,0
eShift,-0.011232973831466904
x,0.014392237111092866,0.03478296338892464,0.05517368966675642,0.0755644159445882,0.09595514222241996,0.11634586850025175,0.13673659477808353,0.1571273210559153,0.17751804733374707,0.19790877361157885,0.21829949988941064,0.2386902261672424,0.2590809524450742,0.27947167872290596,0.29986240500073774,0.3202531312785695,0.3406438575564013,0.3610345838342331,0.3814253101120649,0.40181603638989666,0.42220676266772844,0.44259748894556017,0.46298821522339195,0.48337894150122374,0.5037696677790555,0.5241603940568872,0.544551120334719,0.5649418466125508,0.5853325728903825,0.6057232991682143,0.6261140254460461,0.6465047517238779,0.6668954780017097,0.6872862042795415,0.7076769305573732,0.728067656835205,0.7484583831130368,0.7688491093908686,0.7892398356687004,0.8096305619465322,0.8300212882243639,0.8504120145021956,0.8708027407800274,0.8911934670578592,0.911584193335691,0.9319749196135227,0.9523656458913545,0.9727563721691863,0.9931470984470181,1.0135378247248499
y,29.27283732974979,65.03209761102362,123.10063225726871,212.9888987488266,345.6579277799238,538.6103451817364,811.7537130503289,1186.447547924807,1680.168747787687,2271.134041985361,3218.8192234403537,3972.6372027973525,4484.687323483963,4606.170606981678,3409.93085593507,2508.0244926338187,2185.1509954143216,2965.3145417224764,1386.5244515757317,2138.6562358355814,790.1202491106419,600.7817924919198,696.5671585505053,703.7381838708408,484.0466649359375,262.5251766248679,175.2059333280404,216.91173520906,629.0884492148564,226.99551110011876,82.91092995398174,353.23338473433506,82.75423889284438,83.34198238763837,181.42641087067256,42.70664546331251,214.24189974756285,32.52740853531843,78.65081626231958,38.86949511236537,22.03344780566311,103.82086549514004,12.056792522039322,103.07930097876981,22.704767943785654,8.804323227621875,144.1929908263199,12.635565941651974,6.1754667041733935,101.46581806413819
funcName,chiral caphiL
poType,chiral
kappa0,0.01
sigmaIMeVPion,2.0
sigmaIMeVChi,0.5
lMin,1.0
lMax,10.0
qChar,2.236
mambdaMeV,600.0
nGauPion,600.0
nGauChi,500.0
bGauR,1500.0
bGauRPion,10000.0
fileName,resTemp.csv
writeMethod,w
fileNameCaphi,caphiTemp.csv
writeMethodCaphi,w
checkOpt,on
sigmaRMeshMax,200.0
nMax,10.0
aGauR,0.0
kappa1,None
eloMeV,-100.0
checkN,30.0
aGau,0.0
bGau,3.0
NsigmaR,50.0
e1,20.0
e0Inversion,-2.22
c0Method,scattering length
base0,base2
base2,base2
baseL,base2
basePion,base1
elo,-0.011232973831466904
enlo,0
eShift,-0.011232973831466904
x,0.014392237111092866,0.03478296338892464,0.05517368966675642,0.0755644159445882,0.09595514222241996,0.11634586850025175,0.13673659477808353,0.1571273210559153,0.17751804733374707,0.19790877361157885,0.21829949988941064,0.2386902261672424,0.2590809524450742,0.27947167872290596,0.29986240500073774,0.3202531312785695,0.3406438575564013,0.3610345838342331,0.3814253101120649,0.40181603638989666,0.42220676266772844,0.44259748894556017,0.46298821522339195,0.48337894150122374,0.5037696677790555,0.5241603940568872,0.544551120334719,0.5649418466125508,0.5853325728903825,0.6057232991682143,0.6261140254460461,0.6465047517238779,0.6668954780017097,0.6872862042795415,0.7076769305573732,0.728067656835205,0.7484583831130368,0.7688491093908686,0.7892398356687004,0.8096305619465322,0.8300212882243639,0.8504120145021956,0.8708027407800274,0.8911934670578592,0.911584193335691,0.9319749196135227,0.9523656458913545,0.9727563721691863,0.9931470984470181,1.0135378247248499
y,23.519230666829753,49.029764330624005,106.38887051146384,213.87259858356109,341.97395444609054,538.3780103339386,805.5885864847814,1185.9626910720979,1739.5206258720468,2360.822442901043,2885.293120690797,4094.8437408298105,4439.353613109902,3930.814037423282,4164.535181226002,3309.5795258835374,3425.7921320387227,2429.8600915714587,1429.4188369871806,1538.7960034749628,1868.5659739334124,834.5494141265174,466.0658068700014,352.75002671259404,290.8299221741001,275.98869774961355,441.3474859369506,814.1360715295195,305.3093824112276,97.43019827133648,218.45819157833978,345.78631168009815,81.93510783946225,374.3917983168475,53.276129367712755,166.15678650767205,47.6889296482104,84.41932315579518,32.2587491621362,176.433404599219,21.90671364590863,203.4306734287914,104.22816957879785,29.84616272755141,65.1630321828165,46.744187692700805,56.094057734771894,27.97863559890642,7.82373517242418,39.5315241094008
