funcName,PionLO caphi0
poType,pion
sigmaIMeVPion,1.0
sigmaIMeVChi,0.5
lMin,0.0
lMax,0.0
qChar,2.19
mambdaMeV,400.0
nGauPion,1000.0
nGauChi,2500.0
bGauR,2500.0
bGauRPion,10000.0
fileName,varQCharTemp.csv
writeMethod,w
fileNameCaphi,varQSigmaISeeConverge.csv
writeMethodCaphi,a
checkOpt,on
sigmaRMeshMax,200.0
nMax,10.0
aGauR,0.0
checkN,30.0
aGau,0.0
bGau,3.0
NsigmaR,50.0
e1,10.0
e0MeV,-2.22
c0Method,scattering length
base0,base1
base2,base1
baseL,base2
basePion,base1
x,0.011858392549280741,0.032300829940618885,0.05274326733195703,0.07318570472329516,0.09362814211463331,0.11407057950597145,0.1345130168973096,0.15495545428864776,0.17539789167998587,0.19584032907132404,0.21628276646266215,0.2367252038540003,0.2571676412453385,0.2776100786366766,0.29805251602801475,0.31849495341935286,0.338937390810691,0.3593798282020292,0.3798222655933673,0.40026470298470546,0.42070714037604356,0.44114957776738173,0.4615920151587199,0.482034452550058,0.5024768899413962,0.5229193273327344,0.5433617647240725,0.5638042021154106,0.5842466395067488,0.6046890768980869,0.625131514289425,0.6455739516807633,0.6660163890721014,0.6864588264634395,0.7069012638547777,0.7273437012461158,0.7477861386374539,0.7682285760287921,0.7886710134201302,0.8091134508114683,0.8295558882028065,0.8499983255941447,0.8704407629854828,0.8908832003768209,0.9113256377681591,0.9317680751594972,0.9522105125508353,0.9726529499421736,0.9930953873335117,1.0135378247248499
y,566.3927557933549,372.211449309383,321.7664971916778,296.87315632517635,283.2230366396412,273.4946828571551,264.9643790182376,282.65591769016805,294.6803139264793,239.43147578980975,250.46829768231987,137.5303470828065,92.89766972151392,75.13713131950409,93.77031854417072,89.15792918683822,23.72991569464986,37.447264316064484,19.98950267667503,16.257985118885127,11.950277620829285,15.386058666334405,5.576148791178,36.45066907943326,4.584472842088885,3.6812464856542912,29.33340732783919,3.1653434961300904,2.0567642643684665,4.3718368120900335,7.056527269507562,1.6276561339647757,1.257498984472982,1.8519005199064529,17.46000457170896,1.5900883649544004,0.8821257346885899,0.7714751022142922,0.9517657511135745,4.263235256741837,2.34089150330123,0.7358649617933478,0.5317214637228715,0.4766518713932958,0.4971568056007682,0.7427066266734949,5.90104644086488,1.2486209808817936,0.4804329938055085,0.35431166046445267
funcName,PionNLO caphi0
poType,pion
sigmaIMeVPion,1.0
sigmaIMeVChi,0.5
lMin,0.0
lMax,0.0
qChar,2.19
mambdaMeV,400.0
nGauPion,1000.0
nGauChi,2500.0
bGauR,2500.0
bGauRPion,10000.0
fileName,varQCharTemp.csv
writeMethod,w
fileNameCaphi,varQSigmaISeeConverge.csv
writeMethodCaphi,a
checkOpt,on
sigmaRMeshMax,200.0
nMax,10.0
aGauR,0.0
checkN,30.0
aGau,0.0
bGau,3.0
NsigmaR,50.0
e1,10.0
e0MeV,-2.22
c0Method,scattering length
base0,base1
base2,base1
baseL,base2
basePion,base1
x,0.011858392549280741,0.032300829940618885,0.05274326733195703,0.07318570472329516,0.09362814211463331,0.11407057950597145,0.1345130168973096,0.15495545428864776,0.17539789167998587,0.19584032907132404,0.21628276646266215,0.2367252038540003,0.2571676412453385,0.2776100786366766,0.29805251602801475,0.31849495341935286,0.338937390810691,0.3593798282020292,0.3798222655933673,0.40026470298470546,0.42070714037604356,0.44114957776738173,0.4615920151587199,0.482034452550058,0.5024768899413962,0.5229193273327344,0.5433617647240725,0.5638042021154106,0.5842466395067488,0.6046890768980869,0.625131514289425,0.6455739516807633,0.6660163890721014,0.6864588264634395,0.7069012638547777,0.7273437012461158,0.7477861386374539,0.7682285760287921,0.7886710134201302,0.8091134508114683,0.8295558882028065,0.8499983255941447,0.8704407629854828,0.8908832003768209,0.9113256377681591,0.9317680751594972,0.9522105125508353,0.9726529499421736,0.9930953873335117,1.0135378247248499
y,600.7894878301415,392.5477609024511,342.2117789343476,317.81865446697935,304.9164504230214,295.9808673561557,282.3642167515282,310.09172852000194,320.6739357942125,226.98404128134814,307.16593982654064,177.58664759551635,123.94302436145115,109.6612894865626,153.87714204440047,104.16452543631308,33.008204852045196,68.04156426195773,25.594209784243738,28.69850926492031,15.752020974235716,29.962700476926614,8.111008131773266,50.68996564143683,7.66087838474602,5.160481129535928,45.914921331948996,5.430566807716146,2.966978165376972,5.170431116655626,16.463068678976683,2.590445793550007,1.7757824534406847,2.37357401559205,34.131789626414985,2.892885472083878,1.295964777453509,1.0547343240708071,1.239336466905281,3.0738343233326106,5.448220556437201,1.175879710194713,0.7429837854165782,0.632751283151531,0.6452460445500632,0.8922723443014388,2.136799202765344,2.776290716617724,0.7559848096039723,0.4886968879550895
funcName,PionLO caphi0
poType,pion
sigmaIMeVPion,2.0
sigmaIMeVChi,0.5
lMin,0.0
lMax,0.0
qChar,2.19
mambdaMeV,400.0
nGauPion,1000.0
nGauChi,2500.0
bGauR,2500.0
bGauRPion,10000.0
fileName,varQCharTemp.csv
writeMethod,w
fileNameCaphi,varQSigmaISeeConverge.csv
writeMethodCaphi,a
checkOpt,on
sigmaRMeshMax,200.0
nMax,10.0
aGauR,0.0
checkN,30.0
aGau,0.0
bGau,3.0
NsigmaR,50.0
e1,10.0
e0MeV,-2.22
c0Method,scattering length
base0,base1
base2,base1
baseL,base2
basePion,base1
x,0.006790703425656493,0.027336563044007382,0.047882422662358266,0.06842828228070916,0.08897414189906004,0.10952000151741093,0.13006586113576182,0.1506117207541127,0.1711575803724636,0.1917034399908145,0.21224929960916536,0.23279515922751626,0.2533410188458672,0.27388687846421805,0.2944327380825689,0.31497859770091985,0.3355244573192707,0.3560703169376216,0.3766161765559725,0.3971620361743234,0.41770789579267426,0.4382537554110252,0.45879961502937605,0.4793454746477269,0.49989133426607785,0.5204371938844287,0.5409830535027795,0.5615289131211304,0.5820747727394813,0.6026206323578323,0.6231664919761831,0.643712351594534,0.6642582112128849,0.6848040708312357,0.7053499304495866,0.7258957900679375,0.7464416496862885,0.7669875093046393,0.7875333689229902,0.8080792285413411,0.8286250881596919,0.8491709477780428,0.8697168073963938,0.8902626670147447,0.9108085266330955,0.9313543862514464,0.9519002458697973,0.9724461054881481,0.9929919651064991,1.0135378247248499
y,500.66080504262953,214.35748387369944,170.51090815624764,152.6429130458792,143.25742190234513,137.83604325013442,134.48975305537792,131.83194800700664,129.60696046056552,120.86260566906121,110.69639558670761,92.4717793439367,71.69365838556891,57.741461398137204,49.080356742303,32.76820527461507,20.75811599321541,25.67079564464835,13.409017895994594,14.801841945539099,8.68859858608132,12.298183955257702,5.215553032071664,10.391046812983443,4.660224279185657,3.303163414317016,8.14115499407852,3.200561007650504,2.0091327952013356,3.0258463902657082,4.991166305289284,1.6479067004770318,1.2410701321244133,1.5923651048834653,4.927435916658342,1.5574337843263992,0.8861394040228368,0.7651929835617697,0.8951180444509931,2.3317004258225427,1.901993184398044,0.7300745266207654,0.5315686930913543,0.4752852684179358,0.49064951161916426,0.690725230538963,2.3831955070759636,1.0557313309113199,0.47076772570349906,0.35231829550349203
funcName,PionNLO caphi0
poType,pion
sigmaIMeVPion,2.0
sigmaIMeVChi,0.5
lMin,0.0
lMax,0.0
qChar,2.19
mambdaMeV,400.0
nGauPion,1000.0
nGauChi,2500.0
bGauR,2500.0
bGauRPion,10000.0
fileName,varQCharTemp.csv
writeMethod,w
fileNameCaphi,varQSigmaISeeConverge.csv
writeMethodCaphi,a
checkOpt,on
sigmaRMeshMax,200.0
nMax,10.0
aGauR,0.0
checkN,30.0
aGau,0.0
bGau,3.0
NsigmaR,50.0
e1,10.0
e0MeV,-2.22
c0Method,scattering length
base0,base1
base2,base1
baseL,base2
basePion,base1
x,0.006790703425656493,0.027336563044007382,0.047882422662358266,0.06842828228070916,0.08897414189906004,0.10952000151741093,0.13006586113576182,0.1506117207541127,0.1711575803724636,0.1917034399908145,0.21224929960916536,0.23279515922751626,0.2533410188458672,0.27388687846421805,0.2944327380825689,0.31497859770091985,0.3355244573192707,0.3560703169376216,0.3766161765559725,0.3971620361743234,0.41770789579267426,0.4382537554110252,0.45879961502937605,0.4793454746477269,0.49989133426607785,0.5204371938844287,0.5409830535027795,0.5615289131211304,0.5820747727394813,0.6026206323578323,0.6231664919761831,0.643712351594534,0.6642582112128849,0.6848040708312357,0.7053499304495866,0.7258957900679375,0.7464416496862885,0.7669875093046393,0.7875333689229902,0.8080792285413411,0.8286250881596919,0.8491709477780428,0.8697168073963938,0.8902626670147447,0.9108085266330955,0.9313543862514464,0.9519002458697973,0.9724461054881481,0.9929919651064991,1.0135378247248499
y,543.7839941282524,226.65566340861312,181.14013351270006,163.1446172648117,153.87311693573798,148.51889027336728,145.002730230014,141.60111315427508,136.6753816433561,128.4745088378202,119.95953185075831,108.69059825057882,90.36620762796699,77.06986438470923,66.68058877807641,43.18571881281262,29.84268052140811,39.930188097263866,18.790807001125348,24.51251263821281,12.307541283342868,21.246745170402768,7.732944556242078,15.010849810426464,7.748496535782148,4.735920924937174,12.093891994107253,5.444765200350487,2.919242444443278,4.033516206233563,9.735552109271907,2.624304010976889,1.7589803039235554,2.1239350829390085,7.86825170349834,2.7753107844414826,1.303164471983136,1.047547515066063,1.1809196147142245,2.7205683750439764,3.9543677659867176,1.1581877520233679,0.7422665325669263,0.6308852223244088,0.6376855897087675,0.8536365136145007,2.7957815568740005,2.1528510437548656,0.731853756120073,0.48436610783918943
funcName,PionLO caphi0
poType,pion
sigmaIMeVPion,3.0
sigmaIMeVChi,0.5
lMin,0.0
lMax,0.0
qChar,2.19
mambdaMeV,400.0
nGauPion,1000.0
nGauChi,2500.0
bGauR,2500.0
bGauRPion,10000.0
fileName,varQCharTemp.csv
writeMethod,w
fileNameCaphi,varQSigmaISeeConverge.csv
writeMethodCaphi,a
checkOpt,on
sigmaRMeshMax,200.0
nMax,10.0
aGauR,0.0
checkN,30.0
aGau,0.0
bGau,3.0
NsigmaR,50.0
e1,10.0
e0MeV,-2.22
c0Method,scattering length
base0,base1
base2,base1
baseL,base2
basePion,base1
x,0.0017230143020322431,0.022372296147395873,0.0430215779927595,0.06367085983812312,0.08432014168348675,0.10496942352885039,0.12561870537421402,0.14626798721957765,0.16691726906494128,0.1875665509103049,0.20821583275566855,0.22886511460103218,0.24951439644639578,0.2701636782917594,0.29081296013712304,0.3114622419824867,0.3321115238278503,0.35276080567321394,0.37341008751857757,0.3940593693639412,0.41470865120930483,0.43535793305466847,0.4560072149000321,0.47665649674539573,0.4973057785907593,0.5179550604361229,0.5386043422814866,0.5592536241268502,0.5799029059722138,0.6005521878175775,0.6212014696629411,0.6418507515083047,0.6625000333536684,0.683149315199032,0.7037985970443956,0.7244478788897593,0.7450971607351229,0.7657464425804865,0.7863957244258502,0.8070450062712138,0.8276942881165774,0.848343569961941,0.8689928518073047,0.8896421336526683,0.9102914154980319,0.9309406973433956,0.9515899791887592,0.9722392610341228,0.9928885428794864,1.0135378247248499
y,327.6261510698612,167.1260948157447,121.46722686935794,105.09771277072319,96.93237489919478,92.2524631646236,89.28913279451874,87.0722464767469,84.95010584881761,80.81233202753029,72.20418842043873,61.40215424632293,49.9446581881966,39.80290304260526,31.162687150837694,23.000918992173467,18.10132552402466,16.683201636373155,11.03191489907627,11.29703610476233,7.296389437556865,8.517418434083575,4.917025305328109,5.981667826189247,4.364562200892949,3.0399544505012197,4.467899779163077,3.00499521333166,1.9562002373578176,2.3429716187943326,3.2904056098801235,1.6207470834679594,1.2199446245224286,1.3953905944165377,2.5614286196049263,1.4412270777055836,0.8816513419483628,0.7564028100858863,0.8391211690817759,1.5151857397879143,1.4477809603105554,0.7114735983008736,0.5290427027327537,0.47279472185066806,0.4821909358392705,0.6329490848124838,1.3325714428111077,0.8590703700836734,0.4560032514726533,0.34918406874527774
funcName,PionNLO caphi0
poType,pion
sigmaIMeVPion,3.0
sigmaIMeVChi,0.5
lMin,0.0
lMax,0.0
qChar,2.19
mambdaMeV,400.0
nGauPion,1000.0
nGauChi,2500.0
bGauR,2500.0
bGauRPion,10000.0
fileName,varQCharTemp.csv
writeMethod,w
fileNameCaphi,varQSigmaISeeConverge.csv
writeMethodCaphi,a
checkOpt,on
sigmaRMeshMax,200.0
nMax,10.0
aGauR,0.0
checkN,30.0
aGau,0.0
bGau,3.0
NsigmaR,50.0
e1,10.0
e0MeV,-2.22
c0Method,scattering length
base0,base1
base2,base1
baseL,base2
basePion,base1
x,0.0017230143020322431,0.022372296147395873,0.0430215779927595,0.06367085983812312,0.08432014168348675,0.10496942352885039,0.12561870537421402,0.14626798721957765,0.16691726906494128,0.1875665509103049,0.20821583275566855,0.22886511460103218,0.24951439644639578,0.2701636782917594,0.29081296013712304,0.3114622419824867,0.3321115238278503,0.35276080567321394,0.37341008751857757,0.3940593693639412,0.41470865120930483,0.43535793305466847,0.4560072149000321,0.47665649674539573,0.4973057785907593,0.5179550604361229,0.5386043422814866,0.5592536241268502,0.5799029059722138,0.6005521878175775,0.6212014696629411,0.6418507515083047,0.6625000333536684,0.683149315199032,0.7037985970443956,0.7244478788897593,0.7450971607351229,0.7657464425804865,0.7863957244258502,0.8070450062712138,0.8276942881165774,0.848343569961941,0.8689928518073047,0.8896421336526683,0.9102914154980319,0.9309406973433956,0.9515899791887592,0.9722392610341228,0.9928885428794864,1.0135378247248499
y,349.47790713376344,177.5522820238085,128.9938054394034,112.17821856851182,103.96783017405744,99.29148739967724,96.22522796140076,93.68488161723195,90.54006427592809,85.98946199614011,78.61880059284319,69.91387513223367,60.04423588838593,50.22453820295814,40.64516852913058,30.85049954039029,25.630175224550317,23.971598765425703,15.741877380233024,17.244186388438493,10.53467328798921,13.289931795587584,7.314869079889391,8.723850358567645,7.021445540966214,4.40099670471797,6.612780959059824,4.935872151605023,2.848669095939832,3.2638911508965585,5.592133015411173,2.549632568881047,1.7308505693855405,1.9047828832599105,3.9351590098252003,2.458427516475475,1.291712667415608,1.035628082347598,1.1185719198598576,2.021778205832711,2.6686263739549583,1.1103117880099047,0.7365472443769947,0.627066848382581,0.6275043970276712,0.8037434631587551,1.8404389920480564,1.5896704100906427,0.6959152521035509,0.47760762437146587
funcName,PionLO caphi0
poType,pion
sigmaIMeVPion,4.0
sigmaIMeVChi,0.5
lMin,0.0
lMax,0.0
qChar,2.19
mambdaMeV,400.0
nGauPion,1000.0
nGauChi,2500.0
bGauR,2500.0
bGauRPion,10000.0
fileName,varQCharTemp.csv
writeMethod,w
fileNameCaphi,varQSigmaISeeConverge.csv
writeMethodCaphi,a
checkOpt,on
sigmaRMeshMax,200.0
nMax,10.0
aGauR,0.0
checkN,30.0
aGau,0.0
bGau,3.0
NsigmaR,50.0
e1,10.0
e0MeV,-2.22
c0Method,scattering length
base0,base1
base2,base1
baseL,base2
basePion,base1
x,-0.003344674821592005,0.01740802925078436,0.03816073332316072,0.05891343739553709,0.07966614146791345,0.10041884554028982,0.12117154961266619,0.14192425368504255,0.16267695775741892,0.18342966182979528,0.20418236590217165,0.224935069974548,0.24568777404692438,0.26644047811930077,0.2871931821916771,0.30794588626405345,0.32869859033642984,0.34945129440880623,0.3702039984811826,0.3909567025535589,0.4117094066259353,0.4324621106983117,0.45321481477068803,0.4739675188430644,0.49472022291544077,0.5154729269878172,0.5362256310601936,0.5569783351325699,0.5777310392049463,0.5984837432773227,0.619236447349699,0.6399891514220754,0.6607418554944517,0.6814945595668281,0.7022472636392045,0.7229999677115808,0.7437526717839572,0.7645053758563336,0.7852580799287099,0.8060107840010863,0.8267634880734627,0.8475161921458391,0.8682688962182155,0.8890216002905917,0.9097743043629681,0.9305270084353445,0.9512797125077208,0.9720324165800972,0.9927851206524736,1.0135378247248499
y,189.1549163841868,141.2666160674226,97.63919652519535,81.66090860972537,73.9633199416601,69.60345822133357,66.83563632220586,64.783023461774,62.847700549231675,59.845480916939415,54.33776243751237,46.676612452384504,38.44604549842933,30.853355765708308,24.35829098790263,19.042679237099968,15.472562808016367,12.775752526610564,9.722365966463006,8.882493323013232,6.525430398214623,6.4546654486514345,4.615352239467452,4.511294948580817,3.89964633714431,2.848668611115711,3.2401505192065816,2.703638961617854,1.8977248407927139,1.9789329478743558,2.397352959078788,1.5560355935498855,1.195322101404464,1.2567082406739316,1.748634280251315,1.2966940816428592,0.8694018040661167,0.7458181465134419,0.7898133411776574,1.1317041654290594,1.1319135637295639,0.6844832905577928,0.5244012877157898,0.46934388530880383,0.47263886612524014,0.5798339082803456,0.9121454619450726,0.7080064811540319,0.43853911667481804,0.3451494118964494
funcName,PionNLO caphi0
poType,pion
sigmaIMeVPion,4.0
sigmaIMeVChi,0.5
lMin,0.0
lMax,0.0
qChar,2.19
mambdaMeV,400.0
nGauPion,1000.0
nGauChi,2500.0
bGauR,2500.0
bGauRPion,10000.0
fileName,varQCharTemp.csv
writeMethod,w
fileNameCaphi,varQSigmaISeeConverge.csv
writeMethodCaphi,a
checkOpt,on
sigmaRMeshMax,200.0
nMax,10.0
aGauR,0.0
checkN,30.0
aGau,0.0
bGau,3.0
NsigmaR,50.0
e1,10.0
e0MeV,-2.22
c0Method,scattering length
base0,base1
base2,base1
baseL,base2
basePion,base1
x,-0.003344674821592005,0.01740802925078436,0.03816073332316072,0.05891343739553709,0.07966614146791345,0.10041884554028982,0.12117154961266619,0.14192425368504255,0.16267695775741892,0.18342966182979528,0.20418236590217165,0.224935069974548,0.24568777404692438,0.26644047811930077,0.2871931821916771,0.30794588626405345,0.32869859033642984,0.34945129440880623,0.3702039984811826,0.3909567025535589,0.4117094066259353,0.4324621106983117,0.45321481477068803,0.4739675188430644,0.49472022291544077,0.5154729269878172,0.5362256310601936,0.5569783351325699,0.5777310392049463,0.5984837432773227,0.619236447349699,0.6399891514220754,0.6607418554944517,0.6814945595668281,0.7022472636392045,0.7229999677115808,0.7437526717839572,0.7645053758563336,0.7852580799287099,0.8060107840010863,0.8267634880734627,0.8475161921458391,0.8682688962182155,0.8890216002905917,0.9097743043629681,0.9305270084353445,0.9512797125077208,0.9720324165800972,0.9927851206524736,1.0135378247248499
y,199.86809049928536,150.53487560144038,103.72667663887059,87.07625469839448,79.23244700260717,74.83547023962956,71.99419214336457,69.73974955865359,67.27813648611854,63.914729675245,59.07727087193366,52.65242339160564,45.3907967815594,38.090857410435774,31.249439307828627,25.29085124588957,21.293474137512053,17.790988634516637,13.773842975369936,12.91089170407322,9.396800215799665,9.557741474950173,6.802431502980779,6.531343985873484,6.015435072303005,4.12379792073924,4.735037657687664,4.248349247375133,2.7548988487689585,2.7893472210087866,3.7679792469253517,2.3956218318426368,1.692702529066828,1.731823587199639,2.6145127655008005,2.102413729538765,1.2636191768525444,1.019808345709777,1.0590862044558234,1.569331179934763,1.9011043414063458,1.0446212722125918,0.7264405800808038,0.6215181774876227,0.6155433439301077,0.7506292474344964,1.3039770970800402,1.2044949394997304,0.6546382885163342,0.468999286994801
funcName,PionLO caphi0
poType,pion
sigmaIMeVPion,5.0
sigmaIMeVChi,0.5
lMin,0.0
lMax,0.0
qChar,2.19
mambdaMeV,400.0
nGauPion,1000.0
nGauChi,2500.0
bGauR,2500.0
bGauRPion,10000.0
fileName,varQCharTemp.csv
writeMethod,w
fileNameCaphi,varQSigmaISeeConverge.csv
writeMethodCaphi,a
checkOpt,on
sigmaRMeshMax,200.0
nMax,10.0
aGauR,0.0
checkN,30.0
aGau,0.0
bGau,3.0
NsigmaR,50.0
e1,10.0
e0MeV,-2.22
c0Method,scattering length
base0,base1
base2,base1
baseL,base2
basePion,base1
x,-0.008412363945216255,0.012443762354172851,0.033299888653561954,0.05415601495295107,0.07501214125234017,0.09586826755172927,0.1167243938511184,0.1375805201505075,0.1584366464498966,0.1792927727492857,0.2001488990486748,0.22100502534806393,0.24186115164745306,0.26271727794684213,0.28357340424623123,0.30442953054562033,0.32528565684500943,0.34614178314439853,0.36699790944378763,0.38785403574317673,0.4087101620425658,0.429566288341955,0.4504224146413441,0.4712785409407332,0.49213466724012234,0.5129907935395114,0.5338469198389005,0.5547030461382896,0.5755591724376787,0.5964152987370678,0.6172714250364569,0.638127551335846,0.6589836776352351,0.6798398039346243,0.7006959302340133,0.7215520565334025,0.7424081828327915,0.7632643091321807,0.7841204354315697,0.8049765617309589,0.8258326880303479,0.8466888143297371,0.8675449406291262,0.8884010669285153,0.9092571932279044,0.9301133195272935,0.9509694458266826,0.9718255721260717,0.992681698425461,1.0135378247248499
y,115.94267119724086,117.08118768967987,83.174158130394,67.74894558433904,60.300133558274425,56.11049459581011,53.45575416525124,51.50968149165375,49.725847957685886,47.3565449408967,43.44594551816436,37.930995084271146,31.731586259393513,25.814024097470465,20.693413987330835,16.54426517548815,13.422940201140914,10.863040842107754,8.7556799923066,7.512554859489654,5.9741866696427905,5.3919772416572815,4.307475068197908,3.8449817183458235,3.468322709650999,2.6953945072628933,2.688314480877189,2.4175429469177265,1.8343066448796146,1.767490963765776,1.9293748281216243,1.4733028932477148,1.1681727921925873,1.159727324128338,1.3784374770597114,1.1640617851857162,0.8513040294310287,0.7340468247110352,0.7487497047852452,0.9274123802001938,0.9314321453780738,0.6540487681334629,0.51806855048396,0.4651210552565626,0.4627093370722414,0.5353235472280353,0.7060938904860399,0.6020135491218639,0.42046721718128793,0.3404835875302783
funcName,PionNLO caphi0
poType,pion
sigmaIMeVPion,5.0
sigmaIMeVChi,0.5
lMin,0.0
lMax,0.0
qChar,2.19
mambdaMeV,400.0
nGauPion,1000.0
nGauChi,2500.0
bGauR,2500.0
bGauRPion,10000.0
fileName,varQCharTemp.csv
writeMethod,w
fileNameCaphi,varQSigmaISeeConverge.csv
writeMethodCaphi,a
checkOpt,on
sigmaRMeshMax,200.0
nMax,10.0
aGauR,0.0
checkN,30.0
aGau,0.0
bGau,3.0
NsigmaR,50.0
e1,10.0
e0MeV,-2.22
c0Method,scattering length
base0,base1
base2,base1
baseL,base2
basePion,base1
x,-0.008412363945216255,0.012443762354172851,0.033299888653561954,0.05415601495295107,0.07501214125234017,0.09586826755172927,0.1167243938511184,0.1375805201505075,0.1584366464498966,0.1792927727492857,0.2001488990486748,0.22100502534806393,0.24186115164745306,0.26271727794684213,0.28357340424623123,0.30442953054562033,0.32528565684500943,0.34614178314439853,0.36699790944378763,0.38785403574317673,0.4087101620425658,0.429566288341955,0.4504224146413441,0.4712785409407332,0.49213466724012234,0.5129907935395114,0.5338469198389005,0.5547030461382896,0.5755591724376787,0.5964152987370678,0.6172714250364569,0.638127551335846,0.6589836776352351,0.6798398039346243,0.7006959302340133,0.7215520565334025,0.7424081828327915,0.7632643091321807,0.7841204354315697,0.8049765617309589,0.8258326880303479,0.8466888143297371,0.8675449406291262,0.8884010669285153,0.9092571932279044,0.9301133195272935,0.9509694458266826,0.9718255721260717,0.992681698425461,1.0135378247248499
y,122.20818219358753,124.70366190746935,88.42287844532588,72.19528252258961,64.52693381245547,60.268973673709304,57.55164774439878,55.47079147717925,53.389417318635374,50.76183647112834,47.172186894880205,42.46152175829493,36.984301172926884,31.366512363080684,26.11791531963605,21.591157454762435,18.022411098791306,14.833569600752783,12.20178613431752,10.610704296666903,8.497177160769619,7.750595946181527,6.2457243168029475,5.5014157113109645,5.1560527514572145,3.8761044464010257,3.86979651557418,3.649281802511374,2.6425687496277153,2.488643884569406,2.8917155364132086,2.211147955138223,1.6465685059385837,1.6001298958805719,2.010874204286605,1.801204192542829,1.22362141556833,1.0009930896681647,1.0058617152129847,1.2933188890245906,1.4633787896660344,0.973816021293342,0.7129377098992425,0.6145256917102744,0.6025903505047461,0.7005104910420207,1.0078513198969627,0.9583797926213422,0.6132736957530066,0.4591733589700013
funcName,PionLO caphi0
poType,pion
sigmaIMeVPion,0.6
sigmaIMeVChi,0.5
lMin,0.0
lMax,0.0
qChar,2.19
mambdaMeV,400.0
nGauPion,2000.0
nGauChi,2500.0
bGauR,2500.0
bGauRPion,15000.0
fileName,varQCharTemp.csv
writeMethod,w
fileNameCaphi,varQSigmaISeeConverge.csv
writeMethodCaphi,a
checkOpt,on
sigmaRMeshMax,200.0
nMax,10.0
aGauR,0.0
checkN,30.0
aGau,0.0
bGau,3.0
NsigmaR,50.0
e1,10.0
e0MeV,-2.22
c0Method,scattering length
base0,base1
base2,base1
baseL,base2
basePion,base1
x,0.013885468198730442,0.034286536699263494,0.05468760519979654,0.0750886737003296,0.09548974220086265,0.1158908107013957,0.13629187920192873,0.15669294770246178,0.17709401620299484,0.1974950847035279,0.21789615320406094,0.238297221704594,0.258698290205127,0.2790993587056601,0.29950042720619313,0.3199014957067262,0.34030256420725924,0.36070363270779227,0.38110470120832535,0.4015057697088584,0.42190683820939145,0.4423079067099245,0.46270897521045756,0.4831100437109906,0.5035111122115237,0.5239121807120567,0.5443132492125898,0.5647143177131229,0.5851153862136559,0.6055164547141889,0.625917523214722,0.6463185917152551,0.6667196602157881,0.6871207287163211,0.7075217972168542,0.7279228657173873,0.7483239342179203,0.7687250027184533,0.7891260712189864,0.8095271397195195,0.8299282082200525,0.8503292767205856,0.8707303452211186,0.8911314137216516,0.9115324822221847,0.9319335507227178,0.9523346192232508,0.9727356877237838,0.9931367562243169,1.0135378247248499
y,730.6199859936536,590.3532410316114,521.9914511680629,485.1659921362532,463.643481060285,450.309924546649,440.31918660728013,433.55894121109895,424.7992880512546,380.3450380874764,355.41036280062826,270.5360040787879,230.31190651025395,190.36946315773113,189.56955114668142,152.89532035086253,84.02102408286592,44.61250740716582,79.96465523468856,31.677631462145385,20.173830922788586,25.249309447556158,34.085626645018536,34.71117591669204,24.938839347497833,12.669399301077416,6.547496172822457,4.984640385034926,8.094500538542906,21.0928854047528,3.4363089924017745,3.914948688501442,11.599265502068647,2.1017325304915118,12.207874884874993,1.7922777213416758,5.032074158821614,1.492284797415512,4.921089788039193,1.130691782028528,13.328107470445087,0.9265452294793354,2.7562628174147585,1.122837601011425,0.789747896460102,10.785399570485264,0.6559280454038027,0.7553911140472754,4.163723039900371,0.5159652670436758
funcName,PionNLO caphi0
poType,pion
sigmaIMeVPion,0.6
sigmaIMeVChi,0.5
lMin,0.0
lMax,0.0
qChar,2.19
mambdaMeV,400.0
nGauPion,2000.0
nGauChi,2500.0
bGauR,2500.0
bGauRPion,15000.0
fileName,varQCharTemp.csv
writeMethod,w
fileNameCaphi,varQSigmaISeeConverge.csv
writeMethodCaphi,a
checkOpt,on
sigmaRMeshMax,200.0
nMax,10.0
aGauR,0.0
checkN,30.0
aGau,0.0
bGau,3.0
NsigmaR,50.0
e1,10.0
e0MeV,-2.22
c0Method,scattering length
base0,base1
base2,base1
baseL,base2
basePion,base1
x,0.013885468198730442,0.034286536699263494,0.05468760519979654,0.0750886737003296,0.09548974220086265,0.1158908107013957,0.13629187920192873,0.15669294770246178,0.17709401620299484,0.1974950847035279,0.21789615320406094,0.238297221704594,0.258698290205127,0.2790993587056601,0.29950042720619313,0.3199014957067262,0.34030256420725924,0.36070363270779227,0.38110470120832535,0.4015057697088584,0.42190683820939145,0.4423079067099245,0.46270897521045756,0.4831100437109906,0.5035111122115237,0.5239121807120567,0.5443132492125898,0.5647143177131229,0.5851153862136559,0.6055164547141889,0.625917523214722,0.6463185917152551,0.6667196602157881,0.6871207287163211,0.7075217972168542,0.7279228657173873,0.7483239342179203,0.7687250027184533,0.7891260712189864,0.8095271397195195,0.8299282082200525,0.8503292767205856,0.8707303452211186,0.8911314137216516,0.9115324822221847,0.9319335507227178,0.9523346192232508,0.9727356877237838,0.9931367562243169,1.0135378247248499
y,749.5549999554732,621.3506786271525,554.7005156049875,519.088890782395,498.4712010939991,485.36777106908863,476.6188583508076,461.33175261006676,464.75532554091853,399.51509357761483,411.7134853272999,306.73487680575954,306.5274221247006,209.29711328822012,253.67061320025786,210.8604745268432,101.82987630608653,71.30818467882247,106.18381851257557,56.82967470525203,29.954080523905894,32.30934591879848,41.47379820369578,42.92201166622365,29.607779905970272,16.139782615654433,9.590425292859555,8.272618135304748,16.462814090183983,24.63538897008892,5.076821917355651,7.329282056549653,12.050800856954933,3.2960166338653147,29.336459183536345,2.629368580550305,11.290609978424179,2.148774638069516,11.390713805740639,1.6551370858025687,30.332455082764195,1.4180542481283658,2.9550417952191483,1.9767568183298065,1.0981610688155912,25.19175211696522,1.0092009085696,1.0008818724245956,10.636165744101934,0.7688425359425832
funcName,PionLO caphi0
poType,pion
sigmaIMeVPion,0.7
sigmaIMeVChi,0.5
lMin,0.0
lMax,0.0
qChar,2.19
mambdaMeV,400.0
nGauPion,2000.0
nGauChi,2500.0
bGauR,2500.0
bGauRPion,15000.0
fileName,varQCharTemp.csv
writeMethod,w
fileNameCaphi,varQSigmaISeeConverge.csv
writeMethodCaphi,a
checkOpt,on
sigmaRMeshMax,200.0
nMax,10.0
aGauR,0.0
checkN,30.0
aGau,0.0
bGau,3.0
NsigmaR,50.0
e1,10.0
e0MeV,-2.22
c0Method,scattering length
base0,base1
base2,base1
baseL,base2
basePion,base1
x,0.013378699286368017,0.033790110009602345,0.05420152073283667,0.074612931456071,0.09502434217930532,0.11543575290253964,0.13584716362577395,0.15625857434900828,0.1766699850722426,0.19708139579547693,0.21749280651871125,0.23790421724194558,0.25831562796517993,0.27872703868841425,0.2991384494116486,0.3195498601348829,0.3399612708581172,0.36037268158135155,0.3807840923045859,0.4011955030278202,0.4216069137510545,0.44201832447428885,0.4624297351975232,0.4828411459207575,0.5032525566439918,0.5236639673672261,0.5440753780904605,0.5644867888136949,0.5848981995369291,0.6053096102601634,0.6257210209833978,0.6461324317066321,0.6665438424298664,0.6869552531531007,0.7073666638763351,0.7277780745995694,0.7481894853228037,0.768600896046038,0.7890123067692724,0.8094237174925067,0.829835128215741,0.8502465389389753,0.8706579496622097,0.891069360385444,0.9114807711086783,0.9318921818319126,0.952303592555147,0.9727150032783813,0.9931264140016156,1.0135378247248499
y,664.8811199692097,511.7879179104113,449.6658291759928,416.86919862382837,397.81074569815337,385.9199994029705,377.5997229718937,369.27514762748604,362.23950108285493,332.55744209570287,312.63824138002803,244.97126358869465,209.80300990985026,158.04925534064043,149.74710136859537,119.37448176562708,70.17766357837557,43.50909664544668,61.24600229268554,31.07210756769527,19.277992099279892,22.04090526579598,27.204783838190075,26.947002087553525,20.19927329807613,11.329990735549497,6.312139108476156,4.96338736448504,7.972994175423508,16.26821800627168,3.3631384068984636,3.9081440007046124,9.639022225636191,2.0921960924628067,10.668435965301391,1.7722108626709998,4.838191432129568,1.476144848125342,4.674448286879062,1.1247547539479619,10.430118635238161,0.9251081797000421,2.5937429110163457,1.1173054193154575,0.7857039178480587,8.378307937272046,0.6546705164531464,0.7500570411777931,3.743084219984058,0.5149375657140344
funcName,PionNLO caphi0
poType,pion
sigmaIMeVPion,0.7
sigmaIMeVChi,0.5
lMin,0.0
lMax,0.0
qChar,2.19
mambdaMeV,400.0
nGauPion,2000.0
nGauChi,2500.0
bGauR,2500.0
bGauRPion,15000.0
fileName,varQCharTemp.csv
writeMethod,w
fileNameCaphi,varQSigmaISeeConverge.csv
writeMethodCaphi,a
checkOpt,on
sigmaRMeshMax,200.0
nMax,10.0
aGauR,0.0
checkN,30.0
aGau,0.0
bGau,3.0
NsigmaR,50.0
e1,10.0
e0MeV,-2.22
c0Method,scattering length
base0,base1
base2,base1
baseL,base2
basePion,base1
x,0.013378699286368017,0.033790110009602345,0.05420152073283667,0.074612931456071,0.09502434217930532,0.11543575290253964,0.13584716362577395,0.15625857434900828,0.1766699850722426,0.19708139579547693,0.21749280651871125,0.23790421724194558,0.25831562796517993,0.27872703868841425,0.2991384494116486,0.3195498601348829,0.3399612708581172,0.36037268158135155,0.3807840923045859,0.4011955030278202,0.4216069137510545,0.44201832447428885,0.4624297351975232,0.4828411459207575,0.5032525566439918,0.5236639673672261,0.5440753780904605,0.5644867888136949,0.5848981995369291,0.6053096102601634,0.6257210209833978,0.6461324317066321,0.6665438424298664,0.6869552531531007,0.7073666638763351,0.7277780745995694,0.7481894853228037,0.768600896046038,0.7890123067692724,0.8094237174925067,0.829835128215741,0.8502465389389753,0.8706579496622097,0.891069360385444,0.9114807711086783,0.9318921818319126,0.952303592555147,0.9727150032783813,0.9931264140016156,1.0135378247248499
y,686.7206976193825,538.6566136258776,477.7630045758257,445.93614832965767,427.6369732284822,415.9821381864893,407.6014398085758,395.27823360188614,389.00049515987473,356.28155433925764,350.96768077381455,282.1818508347277,270.8494504670393,182.8683422862219,194.47227446477496,160.54385258494057,89.7257011221834,69.78628338111204,82.9573291444732,55.18029055372216,29.114967605267143,29.52499587704163,35.239542224889895,35.30110847686585,25.6840077692377,15.017014118778988,9.352437755205383,8.26124090786416,16.025926779098295,20.49605532055125,4.9992937677451135,7.296932055116718,11.006856967188632,3.286826532870016,24.100076825450916,2.607067355546073,10.62951789961839,2.1307991336874315,10.543697113568552,1.648173981978784,21.902101546466504,1.4159678036660819,2.8832715911139237,1.9620623680577571,1.0934999066549,18.074556296390213,1.0065340241157599,0.9956077114776275,9.13699306642794,0.7667051233036735
funcName,PionLO caphi0
poType,pion
sigmaIMeVPion,0.8
sigmaIMeVChi,0.5
lMin,0.0
lMax,0.0
qChar,2.19
mambdaMeV,400.0
nGauPion,2000.0
nGauChi,2500.0
bGauR,2500.0
bGauRPion,15000.0
fileName,varQCharTemp.csv
writeMethod,w
fileNameCaphi,varQSigmaISeeConverge.csv
writeMethodCaphi,a
checkOpt,on
sigmaRMeshMax,200.0
nMax,10.0
aGauR,0.0
checkN,30.0
aGau,0.0
bGau,3.0
NsigmaR,50.0
e1,10.0
e0MeV,-2.22
c0Method,scattering length
base0,base1
base2,base1
baseL,base2
basePion,base1
x,0.01287193037400559,0.03329368331994119,0.053715436265876784,0.07413718921181238,0.09455894215774797,0.11498069510368357,0.13540244804961915,0.15582420099555475,0.17624595394149034,0.19666770688742594,0.21708945983336153,0.23751121277929713,0.2579329657252327,0.27835471867116834,0.2987764716171039,0.3191982245630395,0.3396199775089751,0.3600417304549107,0.3804634834008463,0.40088523634678186,0.4213069892927175,0.4417287422386531,0.46215049518458867,0.48257224813052424,0.5029940010764599,0.5234157540223955,0.5438375069683311,0.5642592599142666,0.5846810128602022,0.6051027658061379,0.6255245187520734,0.645946271698009,0.6663680246439446,0.6867897775898802,0.7072115305358159,0.7276332834817514,0.748055036427687,0.7684767893736226,0.7888985423195581,0.8093202952654938,0.8297420482114294,0.850163801157365,0.8705855541033006,0.8910073070492361,0.9114290599951718,0.9318508129411074,0.9522725658870429,0.9726943188329785,0.9931160717789141,1.0135378247248499
y,621.408111750851,453.07721166094916,395.47090765445955,365.66644447410346,348.4468105793661,337.71466631955593,330.1567023017933,322.61479334561034,314.8412643375992,294.81051023436976,274.94063895342003,222.601146944559,188.99457721960235,137.13784971905403,123.34999091578926,97.49356169781639,60.88018540333252,42.1752957002158,49.46022809112397,30.093312740952356,18.496910749163945,19.614275032441807,22.55400866653448,21.847882464921796,16.887884650095053,10.24284541386672,6.095292108614544,4.935049260754241,7.779283356097004,13.047933863546332,3.2919670407266977,3.885550356212476,8.16367832547644,2.0814522674117293,9.281502105913395,1.7517221421305518,4.612922777799592,1.4595581873627639,4.404682075084254,1.11841431439081,8.362655684435408,0.9232719848968642,2.4375446972178216,1.1102175374877157,0.7813397358671192,6.689779391936022,0.6531447486867136,0.7442057167516153,3.3587115611163103,0.5137643916511984
funcName,PionNLO caphi0
poType,pion
sigmaIMeVPion,0.8
sigmaIMeVChi,0.5
lMin,0.0
lMax,0.0
qChar,2.19
mambdaMeV,400.0
nGauPion,2000.0
nGauChi,2500.0
bGauR,2500.0
bGauRPion,15000.0
fileName,varQCharTemp.csv
writeMethod,w
fileNameCaphi,varQSigmaISeeConverge.csv
writeMethodCaphi,a
checkOpt,on
sigmaRMeshMax,200.0
nMax,10.0
aGauR,0.0
checkN,30.0
aGau,0.0
bGau,3.0
NsigmaR,50.0
e1,10.0
e0MeV,-2.22
c0Method,scattering length
base0,base1
base2,base1
baseL,base2
basePion,base1
x,0.01287193037400559,0.03329368331994119,0.053715436265876784,0.07413718921181238,0.09455894215774797,0.11498069510368357,0.13540244804961915,0.15582420099555475,0.17624595394149034,0.19666770688742594,0.21708945983336153,0.23751121277929713,0.2579329657252327,0.27835471867116834,0.2987764716171039,0.3191982245630395,0.3396199775089751,0.3600417304549107,0.3804634834008463,0.40088523634678186,0.4213069892927175,0.4417287422386531,0.46215049518458867,0.48257224813052424,0.5029940010764599,0.5234157540223955,0.5438375069683311,0.5642592599142666,0.5846810128602022,0.6051027658061379,0.6255245187520734,0.645946271698009,0.6663680246439446,0.6867897775898802,0.7072115305358159,0.7276332834817514,0.748055036427687,0.7684767893736226,0.7888985423195581,0.8093202952654938,0.8297420482114294,0.850163801157365,0.8705855541033006,0.8910073070492361,0.9114290599951718,0.9318508129411074,0.9522725658870429,0.9726943188329785,0.9931160717789141,1.0135378247248499
y,646.7478247958475,476.8741105933076,420.11415503113085,391.0934221456456,374.5130259545005,364.0272776526981,356.0408582103842,346.6840799917622,336.26800007661257,316.9604075066495,301.5392766113269,256.49728325685976,236.85928694734247,164.23872447657016,158.74022326719916,130.2497914051473,80.7726942470057,67.52960696755385,68.26188824360042,52.677014640251386,28.31483430338253,27.191331468820845,30.505753010825263,29.787115174993442,22.521418618128656,14.010815889908544,9.124016131521318,8.231115213052263,15.408503321754143,17.295091342010057,4.921591188333525,7.224461463683952,9.969456835951782,3.2748897932732577,19.825388050520097,2.5837550376651586,9.901616452766461,2.1119874772115166,9.66436855350036,1.6405261688759567,16.541913467557833,1.4130677259597828,2.80217205305347,1.9435957059659121,1.0884180034433875,13.599602104845967,1.0032946614010334,0.9897703563602899,7.849502417048412,0.7642688344247262
funcName,PionLO caphi0
poType,pion
sigmaIMeVPion,0.9
sigmaIMeVChi,0.5
lMin,0.0
lMax,0.0
qChar,2.19
mambdaMeV,400.0
nGauPion,2000.0
nGauChi,2500.0
bGauR,2500.0
bGauRPion,15000.0
fileName,varQCharTemp.csv
writeMethod,w
fileNameCaphi,varQSigmaISeeConverge.csv
writeMethodCaphi,a
checkOpt,on
sigmaRMeshMax,200.0
nMax,10.0
aGauR,0.0
checkN,30.0
aGau,0.0
bGau,3.0
NsigmaR,50.0
e1,10.0
e0MeV,-2.22
c0Method,scattering length
base0,base1
base2,base1
baseL,base2
basePion,base1
x,0.012365161461643168,0.03279725663028004,0.05322935179891691,0.07366144696755378,0.09409354213619066,0.11452563730482752,0.1349577324734644,0.1553898276421013,0.17582192281073816,0.19625401797937503,0.2166861131480119,0.23711820831664876,0.2575503034852856,0.27798239865392255,0.2984144938225594,0.3188465889911963,0.33927868415983314,0.35971077932847,0.3801428744971069,0.40057496966574374,0.4210070648343806,0.44143916000301753,0.4618712551716544,0.48230335034029126,0.5027354455089281,0.523167540677565,0.5435996358462019,0.5640317310148387,0.5844638261834756,0.6048959213521125,0.6253280165207493,0.6457601116893862,0.666192206858023,0.6866243020266599,0.7070563971952968,0.7274884923639336,0.7479205875325705,0.7683526827012074,0.7887847778698442,0.8092168730384811,0.829648968207118,0.850081063375755,0.8705131585443918,0.8909452537130287,0.9113773488816655,0.9318094440503024,0.9522415392189393,0.9726736343875761,0.993105729556213,1.0135378247248499
y,592.8578050368604,407.60953491240934,353.3636845141921,325.8597860200615,310.0623026000525,300.2328928857059,293.26912353586033,286.62516263053396,278.59846172148093,263.6702961623421,243.57954145825263,202.51703741892652,169.78531073144984,122.52931770662153,105.26812677635036,82.64180453479001,54.30354248883917,40.6191613853147,41.580261241719086,28.825212941697977,17.80360769865555,17.741974175428535,19.267528542639784,18.321079405802365,14.48910835532368,9.354547651152432,5.895956741077202,4.899327620148604,7.527047835666433,10.793812069260085,3.223109066918532,3.847840191293968,7.033026536785885,2.0695356121824346,8.082953976617485,1.730954642313393,4.369223779045178,1.442650499894854,4.126180211921436,1.111708484835956,6.855913076948598,0.9210439516668836,2.2898746239549213,1.1016766806568026,0.7766846179322545,5.470552305225279,0.6513590696745205,0.7378917044787678,3.0154619790640966,0.5124508656790729
funcName,PionNLO caphi0
poType,pion
sigmaIMeVPion,0.9
sigmaIMeVChi,0.5
lMin,0.0
lMax,0.0
qChar,2.19
mambdaMeV,400.0
nGauPion,2000.0
nGauChi,2500.0
bGauR,2500.0
bGauRPion,15000.0
fileName,varQCharTemp.csv
writeMethod,w
fileNameCaphi,varQSigmaISeeConverge.csv
writeMethodCaphi,a
checkOpt,on
sigmaRMeshMax,200.0
nMax,10.0
aGauR,0.0
checkN,30.0
aGau,0.0
bGau,3.0
NsigmaR,50.0
e1,10.0
e0MeV,-2.22
c0Method,scattering length
base0,base1
base2,base1
baseL,base2
basePion,base1
x,0.012365161461643168,0.03279725663028004,0.05322935179891691,0.07366144696755378,0.09409354213619066,0.11452563730482752,0.1349577324734644,0.1553898276421013,0.17582192281073816,0.19625401797937503,0.2166861131480119,0.23711820831664876,0.2575503034852856,0.27798239865392255,0.2984144938225594,0.3188465889911963,0.33927868415983314,0.35971077932847,0.3801428744971069,0.40057496966574374,0.4210070648343806,0.44143916000301753,0.4618712551716544,0.48230335034029126,0.5027354455089281,0.523167540677565,0.5435996358462019,0.5640317310148387,0.5844638261834756,0.6048959213521125,0.6253280165207493,0.6457601116893862,0.666192206858023,0.6866243020266599,0.7070563971952968,0.7274884923639336,0.7479205875325705,0.7683526827012074,0.7887847778698442,0.8092168730384811,0.829648968207118,0.850081063375755,0.8705131585443918,0.8909452537130287,0.9113773488816655,0.9318094440503024,0.9522415392189393,0.9726736343875761,0.993105729556213,1.0135378247248499
y,621.9596559947177,429.0406286047616,375.32509960175946,348.4574539109774,333.20546853847486,323.5933495473123,316.23102442655846,308.4287791149099,297.5778141167143,282.86944307000255,263.56762072374306,231.82802238093106,207.79401731822438,150.11530225557038,135.53513540545958,110.58787608218651,73.95432330076679,64.65966064581647,58.32327100690181,49.601065387063784,27.536367605323413,25.2457634311259,26.88533102748547,25.709972257297043,19.999119335891503,13.121798262264326,8.905294922598575,8.181554871111693,14.65982901939122,14.828653742861205,4.844083992289946,7.114642152918124,9.021882022515156,3.260207220385519,16.442896454675385,2.5595671330715866,9.151682359394943,2.0924568077750614,8.800667469845134,1.6322307039967976,12.96692491532598,1.4093658918400365,2.7141397383509753,1.9216651007533023,1.082941682856385,10.629716330977747,0.9995032620075373,0.9834065528685427,6.765970187613812,0.7615457285617093
