funcName,PionLO caphi0
poType,pion
sigmaIMeVPion,0.6
sigmaIMeVChi,0.5
lMin,0.0
lMax,0.0
qChar,2.19
mambdaMeV,1600.0
nGauPion,2000.0
nGauChi,2500.0
bGauR,2500.0
bGauRPion,15000.0
fileName,varQCharTemp.csv
writeMethod,w
fileNameCaphi,varQSigmaISeeConverge_1600.csv
writeMethodCaphi,w
checkOpt,on
sigmaRMeshMax,200.0
nMax,10.0
aGauR,0.0
checkN,30.0
aGau,0.0
bGau,3.0
NsigmaR,50.0
e1,10.0
e0MeV,-2.22
c0Method,scattering length
base0,base1
base2,base1
baseL,base2
basePion,base1
x,0.013885468198730442,0.034286536699263494,0.05468760519979654,0.0750886737003296,0.09548974220086265,0.1158908107013957,0.13629187920192873,0.15669294770246178,0.17709401620299484,0.1974950847035279,0.21789615320406094,0.238297221704594,0.258698290205127,0.2790993587056601,0.29950042720619313,0.3199014957067262,0.34030256420725924,0.36070363270779227,0.38110470120832535,0.4015057697088584,0.42190683820939145,0.4423079067099245,0.46270897521045756,0.4831100437109906,0.5035111122115237,0.5239121807120567,0.5443132492125898,0.5647143177131229,0.5851153862136559,0.6055164547141889,0.625917523214722,0.6463185917152551,0.6667196602157881,0.6871207287163211,0.7075217972168542,0.7279228657173873,0.7483239342179203,0.7687250027184533,0.7891260712189864,0.8095271397195195,0.8299282082200525,0.8503292767205856,0.8707303452211186,0.8911314137216516,0.9115324822221847,0.9319335507227178,0.9523346192232508,0.9727356877237838,0.9931367562243169,1.0135378247248499
y,1905.3023673039324,1328.411227379227,1071.6574997496512,912.7444128183264,797.5198642268673,704.6001725775543,623.1300482504141,546.5413752709953,470.4016518764913,392.0968684409597,311.6954790736463,233.49300240968108,165.20408867635098,112.67811911898892,76.13755911936389,52.05345645595278,36.44971361171359,26.3407871915791,19.406341056511074,14.761688325515761,11.625822166965152,9.169824632091672,7.609120842016579,6.0580359275850135,5.148110657976854,4.282669789846962,3.778659983707767,3.230963153092449,3.043641947194696,2.7132883232032,2.42198380733483,1.9745146963185354,1.7249460731931805,1.7414395747598377,1.476260383741576,1.2399129394226007,1.2244388314118604,1.2147448333026278,1.13710310578081,0.9950495730922012,0.8376095339362004,0.7580720916699899,0.8487229818010815,0.7768451107087966,0.6179299962053749,0.7971843163365685,0.5409128619680231,0.68736854785869,0.5041419204325838,0.4760186394829484
funcName,PionNLO caphi0
poType,pion
sigmaIMeVPion,0.6
sigmaIMeVChi,0.5
lMin,0.0
lMax,0.0
qChar,2.19
mambdaMeV,1600.0
nGauPion,2000.0
nGauChi,2500.0
bGauR,2500.0
bGauRPion,15000.0
fileName,varQCharTemp.csv
writeMethod,w
fileNameCaphi,varQSigmaISeeConverge_1600.csv
writeMethodCaphi,w
checkOpt,on
sigmaRMeshMax,200.0
nMax,10.0
aGauR,0.0
checkN,30.0
aGau,0.0
bGau,3.0
NsigmaR,50.0
e1,10.0
e0MeV,-2.22
c0Method,scattering length
base0,base1
base2,base1
baseL,base2
basePion,base1
x,0.013885468198730442,0.034286536699263494,0.05468760519979654,0.0750886737003296,0.09548974220086265,0.1158908107013957,0.13629187920192873,0.15669294770246178,0.17709401620299484,0.1974950847035279,0.21789615320406094,0.238297221704594,0.258698290205127,0.2790993587056601,0.29950042720619313,0.3199014957067262,0.34030256420725924,0.36070363270779227,0.38110470120832535,0.4015057697088584,0.42190683820939145,0.4423079067099245,0.46270897521045756,0.4831100437109906,0.5035111122115237,0.5239121807120567,0.5443132492125898,0.5647143177131229,0.5851153862136559,0.6055164547141889,0.625917523214722,0.6463185917152551,0.6667196602157881,0.6871207287163211,0.7075217972168542,0.7279228657173873,0.7483239342179203,0.7687250027184533,0.7891260712189864,0.8095271397195195,0.8299282082200525,0.8503292767205856,0.8707303452211186,0.8911314137216516,0.9115324822221847,0.9319335507227178,0.9523346192232508,0.9727356877237838,0.9931367562243169,1.0135378247248499
y,884.6514904064666,679.9933899840212,626.7619977266908,609.3909851023191,604.9149557613194,604.396428019691,602.747689182473,595.7734797677549,579.5207842166649,549.7354213890261,503.03448043296385,438.67166083679325,361.62076414751465,282.96442202330513,214.13709117578694,159.97670524826498,119.67994993757382,91.17697164299358,69.6430295728587,54.074123476610396,44.86488361603255,35.933237982250105,30.171959312290504,22.94300968515143,18.841302714314885,15.758582173142631,15.602381867631783,11.2964382508158,11.563573758390469,10.873029055348866,9.03571469614789,6.334244460600184,6.626697441242041,5.742525168905254,6.008100954967316,3.8215296806950487,3.488041531152534,3.6107774381995412,3.3706973087233165,2.6922882368922014,2.166569136837289,2.2264444027013957,3.69091378312305,1.9799868896557578,1.7077944787100412,2.9235533312708037,1.345510155075884,2.0347259919036054,1.5132345787943748,0.9888959633662311
funcName,PionLO caphi0
poType,pion
sigmaIMeVPion,0.7
sigmaIMeVChi,0.5
lMin,0.0
lMax,0.0
qChar,2.19
mambdaMeV,1600.0
nGauPion,2000.0
nGauChi,2500.0
bGauR,2500.0
bGauRPion,15000.0
fileName,varQCharTemp.csv
writeMethod,w
fileNameCaphi,varQSigmaISeeConverge_1600.csv
writeMethodCaphi,w
checkOpt,on
sigmaRMeshMax,200.0
nMax,10.0
aGauR,0.0
checkN,30.0
aGau,0.0
bGau,3.0
NsigmaR,50.0
e1,10.0
e0MeV,-2.22
c0Method,scattering length
base0,base1
base2,base1
baseL,base2
basePion,base1
x,0.013378699286368017,0.033790110009602345,0.05420152073283667,0.074612931456071,0.09502434217930532,0.11543575290253964,0.13584716362577395,0.15625857434900828,0.1766699850722426,0.19708139579547693,0.21749280651871125,0.23790421724194558,0.25831562796517993,0.27872703868841425,0.2991384494116486,0.3195498601348829,0.3399612708581172,0.36037268158135155,0.3807840923045859,0.4011955030278202,0.4216069137510545,0.44201832447428885,0.4624297351975232,0.4828411459207575,0.5032525566439918,0.5236639673672261,0.5440753780904605,0.5644867888136949,0.5848981995369291,0.6053096102601634,0.6257210209833978,0.6461324317066321,0.6665438424298664,0.6869552531531007,0.7073666638763351,0.7277780745995694,0.7481894853228037,0.768600896046038,0.7890123067692724,0.8094237174925067,0.829835128215741,0.8502465389389753,0.8706579496622097,0.891069360385444,0.9114807711086783,0.9318921818319126,0.952303592555147,0.9727150032783813,0.9931264140016156,1.0135378247248499
y,1717.9359080600968,1153.962982745645,925.418029069986,786.3249452126026,686.227675470152,605.8783479503317,535.6712067607406,469.85243750971506,404.5874380551993,337.60367390164583,268.91149567511,202.0688856590312,143.54285145009612,98.33367765122686,66.73020267875063,45.82034404829404,32.21476183164235,23.321698441509007,17.327780981504695,13.233396499923238,10.425730848275098,8.313441524178902,6.837685394568355,5.559371785199689,4.690427578063183,3.9602979023982945,3.4903650953691825,2.9787167239307406,2.7314997973032726,2.4419768506101516,2.1748015987411433,1.8422743450930914,1.6511391721974307,1.5834469208524318,1.4016856712644667,1.2015087033776706,1.1558863096971672,1.119446479605735,1.0458689507408039,0.9360450109859824,0.8142539047371011,0.7457001667479054,0.797107701404886,0.7307256218056869,0.6099895460272546,0.7153012732667312,0.5355321460539963,0.6269310897585518,0.4960688742600326,0.4688639404096415
funcName,PionNLO caphi0
poType,pion
sigmaIMeVPion,0.7
sigmaIMeVChi,0.5
lMin,0.0
lMax,0.0
qChar,2.19
mambdaMeV,1600.0
nGauPion,2000.0
nGauChi,2500.0
bGauR,2500.0
bGauRPion,15000.0
fileName,varQCharTemp.csv
writeMethod,w
fileNameCaphi,varQSigmaISeeConverge_1600.csv
writeMethodCaphi,w
checkOpt,on
sigmaRMeshMax,200.0
nMax,10.0
aGauR,0.0
checkN,30.0
aGau,0.0
bGau,3.0
NsigmaR,50.0
e1,10.0
e0MeV,-2.22
c0Method,scattering length
base0,base1
base2,base1
baseL,base2
basePion,base1
x,0.013378699286368017,0.033790110009602345,0.05420152073283667,0.074612931456071,0.09502434217930532,0.11543575290253964,0.13584716362577395,0.15625857434900828,0.1766699850722426,0.19708139579547693,0.21749280651871125,0.23790421724194558,0.25831562796517993,0.27872703868841425,0.2991384494116486,0.3195498601348829,0.3399612708581172,0.36037268158135155,0.3807840923045859,0.4011955030278202,0.4216069137510545,0.44201832447428885,0.4624297351975232,0.4828411459207575,0.5032525566439918,0.5236639673672261,0.5440753780904605,0.5644867888136949,0.5848981995369291,0.6053096102601634,0.6257210209833978,0.6461324317066321,0.6665438424298664,0.6869552531531007,0.7073666638763351,0.7277780745995694,0.7481894853228037,0.768600896046038,0.7890123067692724,0.8094237174925067,0.829835128215741,0.8502465389389753,0.8706579496622097,0.891069360385444,0.9114807711086783,0.9318921818319126,0.952303592555147,0.9727150032783813,0.9931264140016156,1.0135378247248499
y,836.5461305255649,589.244225991324,538.7938325211696,522.5176084202933,518.0631066704777,517.3084509008354,515.720396487898,509.7137106584495,495.8397377671802,470.53690650819567,430.9146705685578,376.29927936802017,310.8057964548308,243.93114972304016,185.14137653853442,138.72161399970616,104.11350978871994,78.97940670034512,60.957690139842406,47.59527016495618,38.42272745023389,31.14448836190681,25.59877818479648,20.589387652319473,16.926586203075924,14.329070274311672,13.364741299309564,10.296523321065024,9.731020506663416,8.940259040476121,7.580488111532469,5.859010329880743,5.952913814763207,5.040589487183612,5.203725775426571,3.6298920566961774,3.2761632074676954,3.2633393111288016,3.032363334064082,2.5234665383150374,2.0893258566131494,2.1146262239641653,3.0299379602146557,1.8659324987728074,1.6284840907529838,2.3777334060275694,1.2987602239927702,1.7992781459014935,1.404551207660894,0.971239207433945
funcName,PionLO caphi0
poType,pion
sigmaIMeVPion,0.8
sigmaIMeVChi,0.5
lMin,0.0
lMax,0.0
qChar,2.19
mambdaMeV,1600.0
nGauPion,2000.0
nGauChi,2500.0
bGauR,2500.0
bGauRPion,15000.0
fileName,varQCharTemp.csv
writeMethod,w
fileNameCaphi,varQSigmaISeeConverge_1600.csv
writeMethodCaphi,w
checkOpt,on
sigmaRMeshMax,200.0
nMax,10.0
aGauR,0.0
checkN,30.0
aGau,0.0
bGau,3.0
NsigmaR,50.0
e1,10.0
e0MeV,-2.22
c0Method,scattering length
base0,base1
base2,base1
baseL,base2
basePion,base1
x,0.01287193037400559,0.03329368331994119,0.053715436265876784,0.07413718921181238,0.09455894215774797,0.11498069510368357,0.13540244804961915,0.15582420099555475,0.17624595394149034,0.19666770688742594,0.21708945983336153,0.23751121277929713,0.2579329657252327,0.27835471867116834,0.2987764716171039,0.3191982245630395,0.3396199775089751,0.3600417304549107,0.3804634834008463,0.40088523634678186,0.4213069892927175,0.4417287422386531,0.46215049518458867,0.48257224813052424,0.5029940010764599,0.5234157540223955,0.5438375069683311,0.5642592599142666,0.5846810128602022,0.6051027658061379,0.6255245187520734,0.645946271698009,0.6663680246439446,0.6867897775898802,0.7072115305358159,0.7276332834817514,0.748055036427687,0.7684767893736226,0.7888985423195581,0.8093202952654938,0.8297420482114294,0.850163801157365,0.8705855541033006,0.8910073070492361,0.9114290599951718,0.9318508129411074,0.9522725658870429,0.9726943188329785,0.9931160717789141,1.0135378247248499
y,1586.9107177577348,1023.5562626594119,815.8363632059857,691.5468296485226,602.7761992638302,531.8473917260412,470.0813035213956,412.3385876256775,355.22478433800376,296.7276311003974,236.81300092520127,178.48889356219325,127.28743191375789,87.56897339975839,59.674864141484605,41.14293409599618,29.041524992921783,21.08848955706157,15.751006619942748,12.079306161276659,9.519465048291213,7.639381904375409,6.268937987529558,5.167954835002561,4.357464899425405,3.709954965650197,3.255974990238647,2.7947674191354404,2.521864557405354,2.2554172773133243,2.010729680641144,1.7452059856010966,1.5833459041944795,1.477597386282571,1.3370628569694154,1.1670147157881414,1.1042746077288532,1.0534191129097008,0.9829620251399128,0.8922536450726055,0.7938998567342823,0.7332460284298215,0.7568335737836918,0.6962484924603524,0.6018981799306863,0.6618413333472031,0.5299847141279237,0.5855836839077342,0.4883017264697088,0.4619826032133041
funcName,PionNLO caphi0
poType,pion
sigmaIMeVPion,0.8
sigmaIMeVChi,0.5
lMin,0.0
lMax,0.0
qChar,2.19
mambdaMeV,1600.0
nGauPion,2000.0
nGauChi,2500.0
bGauR,2500.0
bGauRPion,15000.0
fileName,varQCharTemp.csv
writeMethod,w
fileNameCaphi,varQSigmaISeeConverge_1600.csv
writeMethodCaphi,w
checkOpt,on
sigmaRMeshMax,200.0
nMax,10.0
aGauR,0.0
checkN,30.0
aGau,0.0
bGau,3.0
NsigmaR,50.0
e1,10.0
e0MeV,-2.22
c0Method,scattering length
base0,base1
base2,base1
baseL,base2
basePion,base1
x,0.01287193037400559,0.03329368331994119,0.053715436265876784,0.07413718921181238,0.09455894215774797,0.11498069510368357,0.13540244804961915,0.15582420099555475,0.17624595394149034,0.19666770688742594,0.21708945983336153,0.23751121277929713,0.2579329657252327,0.27835471867116834,0.2987764716171039,0.3191982245630395,0.3396199775089751,0.3600417304549107,0.3804634834008463,0.40088523634678186,0.4213069892927175,0.4417287422386531,0.46215049518458867,0.48257224813052424,0.5029940010764599,0.5234157540223955,0.5438375069683311,0.5642592599142666,0.5846810128602022,0.6051027658061379,0.6255245187520734,0.645946271698009,0.6663680246439446,0.6867897775898802,0.7072115305358159,0.7276332834817514,0.748055036427687,0.7684767893736226,0.7888985423195581,0.8093202952654938,0.8297420482114294,0.850163801157365,0.8705855541033006,0.8910073070492361,0.9114290599951718,0.9318508129411074,0.9522725658870429,0.9726943188329785,0.9931160717789141,1.0135378247248499
y,813.6820985541156,521.5004207019185,472.8837348951754,457.38188613933187,452.93897675219677,451.9967791324444,450.45728258428466,445.1672558271374,433.0833971988711,411.1393189283509,376.81897588641027,329.5185842541104,272.71907066786076,214.54571638045053,163.22359462210966,122.5418230296678,92.1642970031864,69.99955385508696,54.103492296099745,42.387253028598614,33.86835568579173,27.50551648766429,22.49548295987457,18.538803945634353,15.33846692129314,13.040953412565106,11.701032000782346,9.433858254438308,8.538841454514317,7.713528718506906,6.633454373001466,5.432846235119612,5.362424230211923,4.5246716419068544,4.5683298354212685,3.4314597955991575,3.0731317270032203,2.976041417608271,2.7546291575407538,2.3599791117151288,2.0058133263967552,2.0020996019080224,2.561994692827982,1.7467721904756814,1.5490133532207082,2.01100147094886,1.2505296980319378,1.6005585201638945,1.305072441716944,0.9497424838791081
funcName,PionLO caphi0
poType,pion
sigmaIMeVPion,0.9
sigmaIMeVChi,0.5
lMin,0.0
lMax,0.0
qChar,2.19
mambdaMeV,1600.0
nGauPion,2000.0
nGauChi,2500.0
bGauR,2500.0
bGauRPion,15000.0
fileName,varQCharTemp.csv
writeMethod,w
fileNameCaphi,varQSigmaISeeConverge_1600.csv
writeMethodCaphi,w
checkOpt,on
sigmaRMeshMax,200.0
nMax,10.0
aGauR,0.0
checkN,30.0
aGau,0.0
bGau,3.0
NsigmaR,50.0
e1,10.0
e0MeV,-2.22
c0Method,scattering length
base0,base1
base2,base1
baseL,base2
basePion,base1
x,0.012365161461643168,0.03279725663028004,0.05322935179891691,0.07366144696755378,0.09409354213619066,0.11452563730482752,0.1349577324734644,0.1553898276421013,0.17582192281073816,0.19625401797937503,0.2166861131480119,0.23711820831664876,0.2575503034852856,0.27798239865392255,0.2984144938225594,0.3188465889911963,0.33927868415983314,0.35971077932847,0.3801428744971069,0.40057496966574374,0.4210070648343806,0.44143916000301753,0.4618712551716544,0.48230335034029126,0.5027354455089281,0.523167540677565,0.5435996358462019,0.5640317310148387,0.5844638261834756,0.6048959213521125,0.6253280165207493,0.6457601116893862,0.666192206858023,0.6866243020266599,0.7070563971952968,0.7274884923639336,0.7479205875325705,0.7683526827012074,0.7887847778698442,0.8092168730384811,0.829648968207118,0.850081063375755,0.8705131585443918,0.8909452537130287,0.9113773488816655,0.9318094440503024,0.9522415392189393,0.9726736343875761,0.993105729556213,1.0135378247248499
y,1493.7504080387457,922.5189359248812,730.6940523144519,617.8630012671567,537.8849444773882,474.27574202686526,419.0707550331144,367.60721568011235,316.82988262477585,264.9297856948078,211.83827896028492,160.1381405141833,114.63645020112115,79.1917123576032,54.18507702490826,37.50239399739195,26.57077944859005,19.361015920776047,14.51580535565065,11.173771510037419,8.819771335866985,7.106455362844393,5.836730033032886,4.852057831929571,4.099437257624045,3.507815111137824,3.0678941840904628,2.6522867255465936,2.3718541851044384,2.120908175951251,1.894619103057824,1.670306980486889,1.5232555529912195,1.4021405506002629,1.2825014694089336,1.1360924054552834,1.0641550000899844,1.0054498751789716,0.9374962281132657,0.8588061770580746,0.776158331374341,0.7210992851970659,0.7253145324601287,0.6699122317158697,0.5939034559157802,0.6249126767663788,0.5244213193512516,0.5560995543250248,0.4810074925639596,0.4555129183990119
funcName,PionNLO caphi0
poType,pion
sigmaIMeVPion,0.9
sigmaIMeVChi,0.5
lMin,0.0
lMax,0.0
qChar,2.19
mambdaMeV,1600.0
nGauPion,2000.0
nGauChi,2500.0
bGauR,2500.0
bGauRPion,15000.0
fileName,varQCharTemp.csv
writeMethod,w
fileNameCaphi,varQSigmaISeeConverge_1600.csv
writeMethodCaphi,w
checkOpt,on
sigmaRMeshMax,200.0
nMax,10.0
aGauR,0.0
checkN,30.0
aGau,0.0
bGau,3.0
NsigmaR,50.0
e1,10.0
e0MeV,-2.22
c0Method,scattering length
base0,base1
base2,base1
baseL,base2
basePion,base1
x,0.012365161461643168,0.03279725663028004,0.05322935179891691,0.07366144696755378,0.09409354213619066,0.11452563730482752,0.1349577324734644,0.1553898276421013,0.17582192281073816,0.19625401797937503,0.2166861131480119,0.23711820831664876,0.2575503034852856,0.27798239865392255,0.2984144938225594,0.3188465889911963,0.33927868415983314,0.35971077932847,0.3801428744971069,0.40057496966574374,0.4210070648343806,0.44143916000301753,0.4618712551716544,0.48230335034029126,0.5027354455089281,0.523167540677565,0.5435996358462019,0.5640317310148387,0.5844638261834756,0.6048959213521125,0.6253280165207493,0.6457601116893862,0.666192206858023,0.6866243020266599,0.7070563971952968,0.7274884923639336,0.7479205875325705,0.7683526827012074,0.7887847778698442,0.8092168730384811,0.829648968207118,0.850081063375755,0.8705131585443918,0.8909452537130287,0.9113773488816655,0.9318094440503024,0.9522415392189393,0.9726736343875761,0.993105729556213,1.0135378247248499
y,807.537616751086,469.1038908434084,421.67787974671387,406.7412008629756,402.29870767353094,401.2048676877364,399.7052359560214,394.965481214441,384.277308040317,364.94246674928934,334.7408489044326,293.12270713325574,243.08324157718334,191.6739108206818,146.1438007376625,109.9173602625616,82.79830933441842,62.99830868948009,48.69601341515694,38.2169958473624,30.462519365811783,24.720971028784856,20.22661026123828,16.816296635220816,14.003591691905923,11.919751647022817,10.455069375636121,8.688329750949443,7.689561696877402,6.8678395697150005,5.96274690645821,5.05618168744225,4.864329212214352,4.129718702878813,4.072914941519039,3.236639894759449,2.8877298658667,2.7412606461879827,2.529494126145784,2.211949426498199,1.9208511573856115,1.8933169925489601,2.2241304109616835,1.635611287900189,1.4720680152058785,1.752400643725817,1.2023042314952326,1.4399347168614263,1.216121030775026,0.925544732429606
funcName,PionLO caphi0
poType,pion
sigmaIMeVPion,0.2
sigmaIMeVChi,0.5
lMin,0.0
lMax,0.0
qChar,2.19
mambdaMeV,1600.0
nGauPion,2000.0
nGauChi,2500.0
bGauR,2500.0
bGauRPion,15000.0
fileName,varQCharTemp.csv
writeMethod,w
fileNameCaphi,varQSigmaISeeConverge_1600.csv
writeMethodCaphi,a
checkOpt,on
sigmaRMeshMax,200.0
nMax,10.0
aGauR,0.0
checkN,30.0
aGau,0.0
bGau,3.0
NsigmaR,50.0
e1,10.0
e0MeV,-2.22
c0Method,scattering length
base0,base1
base2,base1
baseL,base2
basePion,base1
x,0.015912543848180142,0.036272243457908096,0.056631943067636054,0.076991642677364,0.09735134228709195,0.11771104189681991,0.13807074150654786,0.15843044111627583,0.17879014072600377,0.19914984033573171,0.2195095399454597,0.23986923955518763,0.2602289391649156,0.2805886387746435,0.3009483383843715,0.32130803799409946,0.3416677376038274,0.36202743721355535,0.3823871368232833,0.4027468364330113,0.42310653604273923,0.4434662356524672,0.4638259352621951,0.48418563487192307,0.5045453344816511,0.524905034091379,0.545264733701107,0.565624433310835,0.585984132920563,0.6063438325302909,0.6267035321400188,0.6470632317497468,0.6674229313594747,0.6877826309692027,0.7081423305789306,0.7285020301886586,0.7488617297983865,0.7692214294081144,0.7895811290178425,0.8099408286275704,0.8303005282372984,0.8506602278470263,0.8710199274567543,0.8913796270664822,0.9117393266762102,0.9320990262859381,0.952458725895666,0.972818425505394,0.9931781251151219,1.0135378247248499
y,4842.350344392506,3787.0930855551237,3123.0600509779224,2683.556924356513,2355.670165392691,2086.65345815359,1847.9407373150093,1620.099407087931,1390.3013906741737,1155.8400557262976,919.0840299167917,680.5166312822255,483.53710868269064,295.43398963793845,194.9221470008506,142.49834960175764,102.24623235789741,57.16519746141319,63.11274400520357,49.458818763263366,20.194918822486343,16.065510145959408,12.986181406350711,13.630419656290579,16.938851073180583,9.172333110823098,5.058087839741293,8.288834918401072,9.430193521316728,6.1256978568232405,8.435466868730588,3.8841189617056706,1.9728835495270634,6.028987718631736,1.7466999670209662,1.4350449623932398,1.9195277716409072,2.8514914579623687,2.7320618380345763,1.5944854471753807,0.9594758836831261,0.7955324027401529,1.1645694658418004,1.1957195742651794,0.6413549874935449,3.2141883255551438,0.5569271482365825,1.6562015586945624,0.532069821371984,0.5011807542456668
funcName,PionNLO caphi0
poType,pion
sigmaIMeVPion,0.2
sigmaIMeVChi,0.5
lMin,0.0
lMax,0.0
qChar,2.19
mambdaMeV,1600.0
nGauPion,2000.0
nGauChi,2500.0
bGauR,2500.0
bGauRPion,15000.0
fileName,varQCharTemp.csv
writeMethod,w
fileNameCaphi,varQSigmaISeeConverge_1600.csv
writeMethodCaphi,a
checkOpt,on
sigmaRMeshMax,200.0
nMax,10.0
aGauR,0.0
checkN,30.0
aGau,0.0
bGau,3.0
NsigmaR,50.0
e1,10.0
e0MeV,-2.22
c0Method,scattering length
base0,base1
base2,base1
baseL,base2
basePion,base1
x,0.015912543848180142,0.036272243457908096,0.056631943067636054,0.076991642677364,0.09735134228709195,0.11771104189681991,0.13807074150654786,0.15843044111627583,0.17879014072600377,0.19914984033573171,0.2195095399454597,0.23986923955518763,0.2602289391649156,0.2805886387746435,0.3009483383843715,0.32130803799409946,0.3416677376038274,0.36202743721355535,0.3823871368232833,0.4027468364330113,0.42310653604273923,0.4434662356524672,0.4638259352621951,0.48418563487192307,0.5045453344816511,0.524905034091379,0.545264733701107,0.565624433310835,0.585984132920563,0.6063438325302909,0.6267035321400188,0.6470632317497468,0.6674229313594747,0.6877826309692027,0.7081423305789306,0.7285020301886586,0.7488617297983865,0.7692214294081144,0.7895811290178425,0.8099408286275704,0.8303005282372984,0.8506602278470263,0.8710199274567543,0.8913796270664822,0.9117393266762102,0.9320990262859381,0.952458725895666,0.972818425505394,0.9931781251151219,1.0135378247248499
y,1987.9092535563977,1959.0312200213828,1864.677382824403,1828.085584611446,1822.636423987195,1821.2373209581874,1820.2029843814146,1808.6151523828062,1758.0049552903479,1786.6375710801071,1669.169363080494,1621.041974350225,1365.603999897658,953.8441362346815,785.7840995332688,713.4581672392048,565.6418192951656,288.15343036942653,191.35324017479695,165.12678386167474,87.12914648612028,48.22277707774038,80.68780809021219,18.026731089773328,29.214227110883254,11.796069691444872,26.539729624303234,6.4600844816730785,90.58145273816521,59.71691207166266,78.76963592583617,3.8626896369446797,8.711154200360777,7.17712867971688,9.672128991728991,4.197199367281383,2.6131433937805544,-0.4197113985925709,-0.8648531641464374,1.5124197906856849,2.2662733609055823,2.5310699824518035,9.40092940476528,0.8254390205325317,1.9394066086416202,12.764164745066639,1.4793157674851503,-2.814025128610416,1.9318475303130533,1.0124463624837619
funcName,PionLO caphi0
poType,pion
sigmaIMeVPion,0.3
sigmaIMeVChi,0.5
lMin,0.0
lMax,0.0
qChar,2.19
mambdaMeV,1600.0
nGauPion,2000.0
nGauChi,2500.0
bGauR,2500.0
bGauRPion,15000.0
fileName,varQCharTemp.csv
writeMethod,w
fileNameCaphi,varQSigmaISeeConverge_1600.csv
writeMethodCaphi,a
checkOpt,on
sigmaRMeshMax,200.0
nMax,10.0
aGauR,0.0
checkN,30.0
aGau,0.0
bGau,3.0
NsigmaR,50.0
e1,10.0
e0MeV,-2.22
c0Method,scattering length
base0,base1
base2,base1
baseL,base2
basePion,base1
x,0.015405774935817716,0.03577581676824694,0.05614585860067617,0.0765159004331054,0.09688594226553462,0.11725598409796385,0.13762602593039308,0.1579960677628223,0.17836610959525154,0.19873615142768078,0.21910619326011,0.2394762350925392,0.2598462769249685,0.2802163187573977,0.3005863605898269,0.32095640242225615,0.3413264442546854,0.36169648608711463,0.3820665279195439,0.40243656975197306,0.4228066115844023,0.44317665341683155,0.46354669524926073,0.48391673708169,0.5042867789141192,0.5246568207465484,0.5450268625789777,0.5653969044114069,0.5857669462438361,0.6061369880762654,0.6265070299086946,0.6468770717411239,0.667247113573553,0.6876171554059822,0.7079871972384115,0.7283572390708407,0.74872728090327,0.7690973227356992,0.7894673645681284,0.8098374064005577,0.8302074482329869,0.850577490065416,0.8709475318978454,0.8913175737302745,0.9116876155627037,0.932057657395133,0.9524276992275622,0.9727977410599915,0.9931677828924207,1.0135378247248499
y,3347.5091137722643,2556.0703471123097,2096.927001028017,1798.2350260660642,1576.7850599433032,1395.7642907097616,1235.4588881567088,1083.3639937049052,931.0916842832241,773.5131667532551,611.1097455540124,454.3327667110309,318.37636697704903,213.7838136242928,143.3084736557663,99.01734363389772,69.60316461874591,46.47238229033363,36.246724500608735,27.926086286438917,17.620253339957564,13.349496350354112,11.697858548325467,9.55666200647831,9.599173613568162,6.617749546608384,4.81967664117533,5.442324369718996,6.120285458698148,4.806898524370864,5.033823096259753,2.9664879015958565,1.9319934220096424,3.417658268156087,1.7071472693559098,1.3810949719680685,1.6444695064879125,2.023134708595397,1.9203402762609745,1.3603522640785717,0.9265408316779475,0.7891848346354259,1.0828972321917356,1.0442471490701415,0.6374819851683011,1.7118144803064557,0.554154283549766,1.1912782098426122,0.5267632278302737,0.4962688942807465
funcName,PionNLO caphi0
poType,pion
sigmaIMeVPion,0.3
sigmaIMeVChi,0.5
lMin,0.0
lMax,0.0
qChar,2.19
mambdaMeV,1600.0
nGauPion,2000.0
nGauChi,2500.0
bGauR,2500.0
bGauRPion,15000.0
fileName,varQCharTemp.csv
writeMethod,w
fileNameCaphi,varQSigmaISeeConverge_1600.csv
writeMethodCaphi,a
checkOpt,on
sigmaRMeshMax,200.0
nMax,10.0
aGauR,0.0
checkN,30.0
aGau,0.0
bGau,3.0
NsigmaR,50.0
e1,10.0
e0MeV,-2.22
c0Method,scattering length
base0,base1
base2,base1
baseL,base2
basePion,base1
x,0.015405774935817716,0.03577581676824694,0.05614585860067617,0.0765159004331054,0.09688594226553462,0.11725598409796385,0.13762602593039308,0.1579960677628223,0.17836610959525154,0.19873615142768078,0.21910619326011,0.2394762350925392,0.2598462769249685,0.2802163187573977,0.3005863605898269,0.32095640242225615,0.3413264442546854,0.36169648608711463,0.3820665279195439,0.40243656975197306,0.4228066115844023,0.44317665341683155,0.46354669524926073,0.48391673708169,0.5042867789141192,0.5246568207465484,0.5450268625789777,0.5653969044114069,0.5857669462438361,0.6061369880762654,0.6265070299086946,0.6468770717411239,0.667247113573553,0.6876171554059822,0.7079871972384115,0.7283572390708407,0.74872728090327,0.7690973227356992,0.7894673645681284,0.8098374064005577,0.8302074482329869,0.850577490065416,0.8709475318978454,0.8913175737302745,0.9116876155627037,0.932057657395133,0.9524276992275622,0.9727977410599915,0.9931677828924207,1.0135378247248499
y,1402.0675021845686,1319.7756421862227,1243.552685981098,1219.1333117327608,1213.9159837968944,1214.5593549583893,1211.8019478561457,1199.2131938324642,1165.2876024325533,1100.680648345428,996.0329807195881,863.6522845346051,698.229256027277,599.9267934092322,463.8792167228743,341.53691390872996,258.7639608731293,206.97913047382883,114.3101639235559,91.09468702273557,82.07583583911457,52.66459662038473,65.99363668837582,28.200584937925072,28.551618746704307,18.62736307562874,25.058912096919524,13.984401011913768,38.06835319304854,34.37652393034702,29.978469323206976,6.959231655827847,8.505218135623304,9.832178391577134,9.051549359486259,4.196095882633401,3.5574324814295117,3.833701055273426,3.5534463485373946,2.5591203931304793,2.2860682803577292,2.4906586845745697,7.6200624100269625,1.6783484763272714,1.903769003175652,7.969664866131851,1.4578175227977925,1.5155455994927625,1.847102532713544,1.0125943551749965
funcName,PionLO caphi0
poType,pion
sigmaIMeVPion,0.4
sigmaIMeVChi,0.5
lMin,0.0
lMax,0.0
qChar,2.19
mambdaMeV,1600.0
nGauPion,2000.0
nGauChi,2500.0
bGauR,2500.0
bGauRPion,15000.0
fileName,varQCharTemp.csv
writeMethod,w
fileNameCaphi,varQSigmaISeeConverge_1600.csv
writeMethodCaphi,a
checkOpt,on
sigmaRMeshMax,200.0
nMax,10.0
aGauR,0.0
checkN,30.0
aGau,0.0
bGau,3.0
NsigmaR,50.0
e1,10.0
e0MeV,-2.22
c0Method,scattering length
base0,base1
base2,base1
baseL,base2
basePion,base1
x,0.014899006023455291,0.03527939007858579,0.0556597741337163,0.0760401581888468,0.0964205422439773,0.1168009262991078,0.1371813103542383,0.1575616944093688,0.1779420784644993,0.19832246251962982,0.2187028465747603,0.2390832306298908,0.2594636146850213,0.2798439987401518,0.3002243827952823,0.32060476685041284,0.3409851509055433,0.3613655349606738,0.38174591901580435,0.40212630307093483,0.4225066871260653,0.44288707118119586,0.46326745523632634,0.4836478392914568,0.5040282233465874,0.5244086074017178,0.5447889914568483,0.5651693755119789,0.5855497595671093,0.6059301436222398,0.6263105276773704,0.6466909117325008,0.6670712957876314,0.6874516798427619,0.7078320638978923,0.7282124479530229,0.7485928320081534,0.7689732160632838,0.7893536001184144,0.8097339841735449,0.8301143682286753,0.8504947522838059,0.8708751363389364,0.8912555203940669,0.9116359044491974,0.9320162885043279,0.9523966725594584,0.9727770566145889,0.9931574406697194,1.0135378247248499
y,2611.9650761659864,1941.461309612052,1584.080439437962,1355.440425925513,1187.1440412079276,1050.194605396495,929.2709531420949,814.9735117500131,700.7395357800071,582.7808240613488,461.34433951913434,343.33288685959474,240.84587466275104,163.28786175927115,109.64717865352779,74.5741486363653,52.057429354367116,37.12565036203588,26.941575191351387,20.518565675074022,15.254274241339255,11.595798087883452,10.078440293103885,7.744748414258416,7.047852353700859,5.409276553155241,4.484531597016613,4.234296335895783,4.426177972748009,3.7832585266656347,3.5517495708106064,2.4640675045824714,1.872446016549588,2.4553369666891367,1.639207898302341,1.32973154953918,1.4518929617471814,1.598744883405796,1.507610315938863,1.193178875215113,0.8941436905840022,0.7804328128287782,0.9939565202869425,0.9262858172825736,0.632049338133731,1.1799619562720958,0.5504292457925266,0.9309917504905885,0.5199571912416698,0.4901124961703924
funcName,PionNLO caphi0
poType,pion
sigmaIMeVPion,0.4
sigmaIMeVChi,0.5
lMin,0.0
lMax,0.0
qChar,2.19
mambdaMeV,1600.0
nGauPion,2000.0
nGauChi,2500.0
bGauR,2500.0
bGauRPion,15000.0
fileName,varQCharTemp.csv
writeMethod,w
fileNameCaphi,varQSigmaISeeConverge_1600.csv
writeMethodCaphi,a
checkOpt,on
sigmaRMeshMax,200.0
nMax,10.0
aGauR,0.0
checkN,30.0
aGau,0.0
bGau,3.0
NsigmaR,50.0
e1,10.0
e0MeV,-2.22
c0Method,scattering length
base0,base1
base2,base1
baseL,base2
basePion,base1
x,0.014899006023455291,0.03527939007858579,0.0556597741337163,0.0760401581888468,0.0964205422439773,0.1168009262991078,0.1371813103542383,0.1575616944093688,0.1779420784644993,0.19832246251962982,0.2187028465747603,0.2390832306298908,0.2594636146850213,0.2798439987401518,0.3002243827952823,0.32060476685041284,0.3409851509055433,0.3613655349606738,0.38174591901580435,0.40212630307093483,0.4225066871260653,0.44288707118119586,0.46326745523632634,0.4836478392914568,0.5040282233465874,0.5244086074017178,0.5447889914568483,0.5651693755119789,0.5855497595671093,0.6059301436222398,0.6263105276773704,0.6466909117325008,0.6670712957876314,0.6874516798427619,0.7078320638978923,0.7282124479530229,0.7485928320081534,0.7689732160632838,0.7893536001184144,0.8097339841735449,0.8301143682286753,0.8504947522838059,0.8708751363389364,0.8912555203940669,0.9116359044491974,0.9320162885043279,0.9523966725594584,0.9727770566145889,0.9931574406697194,1.0135378247248499
y,1123.9676745548918,999.5319502636514,935.0043541451171,913.7394115150116,909.0745356809258,909.3773753517119,907.3141199071742,897.2030504473321,872.4336669321282,826.9916739361129,755.5715706422934,655.1676170029061,535.3716506258435,421.6699459694516,319.2107255880368,234.07425182329567,174.77702631060066,143.0639574484954,93.8022185362423,72.62185412246369,67.62266534918396,48.46279588409804,49.17946886871121,27.709167177118452,24.391808923956166,18.548878067678302,21.940822184532735,13.64452727660016,21.29247976204183,20.760233789291558,16.651712929093875,7.222379163191853,8.009999038592358,8.14951398757303,8.060953005868491,4.123074344011014,3.770395432335733,4.293917905719116,4.037358402820019,2.8603773089290825,2.273273190416312,2.4220117285125036,5.939152748851867,2.008259723004727,1.8502020573646747,5.254960512869194,1.4270887929851872,2.3326327884434828,1.7420430139366325,1.0095209795787161
funcName,PionLO caphi0
poType,pion
sigmaIMeVPion,0.5
sigmaIMeVChi,0.5
lMin,0.0
lMax,0.0
qChar,2.19
mambdaMeV,1600.0
nGauPion,2000.0
nGauChi,2500.0
bGauR,2500.0
bGauRPion,15000.0
fileName,varQCharTemp.csv
writeMethod,w
fileNameCaphi,varQSigmaISeeConverge_1600.csv
writeMethodCaphi,a
checkOpt,on
sigmaRMeshMax,200.0
nMax,10.0
aGauR,0.0
checkN,30.0
aGau,0.0
bGau,3.0
NsigmaR,50.0
e1,10.0
e0MeV,-2.22
c0Method,scattering length
base0,base1
base2,base1
baseL,base2
basePion,base1
x,0.014392237111092866,0.03478296338892464,0.05517368966675642,0.0755644159445882,0.09595514222241996,0.11634586850025175,0.13673659477808353,0.1571273210559153,0.17751804733374707,0.19790877361157885,0.21829949988941064,0.2386902261672424,0.2590809524450742,0.27947167872290596,0.29986240500073774,0.3202531312785695,0.3406438575564013,0.3610345838342331,0.3814253101120649,0.40181603638989666,0.42220676266772844,0.44259748894556017,0.46298821522339195,0.48337894150122374,0.5037696677790555,0.5241603940568872,0.544551120334719,0.5649418466125508,0.5853325728903825,0.6057232991682143,0.6261140254460461,0.6465047517238779,0.6668954780017097,0.6872862042795415,0.7076769305573732,0.728067656835205,0.7484583831130368,0.7688491093908686,0.7892398356687004,0.8096305619465322,0.8300212882243639,0.8504120145021956,0.8708027407800274,0.8911934670578592,0.911584193335691,0.9319749196135227,0.9523656458913545,0.9727563721691863,0.9931470984470181,1.0135378247248499
y,2181.671125773997,1573.3089493541847,1276.547796657412,1089.791448335772,953.3567734235919,842.8305119731222,745.5802440657155,653.91275289163,562.5384160987384,468.3775131346151,371.5769198752208,277.45875567697306,195.48744678035933,132.79467557067196,89.38230927587307,60.85191078564697,42.47727880532328,30.65976245058027,22.316040337041684,16.94069387696372,13.219408821662563,10.248951723957026,8.669678741126283,6.731118524070512,5.841376241306732,4.727218918671904,4.118551568876084,3.6072149094399544,3.5452155119901825,3.12740449495197,2.8251456097491823,2.166045444390283,1.8008430781782743,1.9966936545838343,1.5579389322541968,1.2825770543009696,1.3185767943885478,1.3603487557514415,1.2771535953944677,1.0768717134719767,0.864252202423712,0.769850762594483,0.9141467061700292,0.8397092977368659,0.6254049351919096,0.9323267831909554,0.5459459745358121,0.7801598307870707,0.512241045130832,0.4832149039956905
funcName,PionNLO caphi0
poType,pion
sigmaIMeVPion,0.5
sigmaIMeVChi,0.5
lMin,0.0
lMax,0.0
qChar,2.19
mambdaMeV,1600.0
nGauPion,2000.0
nGauChi,2500.0
bGauR,2500.0
bGauRPion,15000.0
fileName,varQCharTemp.csv
writeMethod,w
fileNameCaphi,varQSigmaISeeConverge_1600.csv
writeMethodCaphi,a
checkOpt,on
sigmaRMeshMax,200.0
nMax,10.0
aGauR,0.0
checkN,30.0
aGau,0.0
bGau,3.0
NsigmaR,50.0
e1,10.0
e0MeV,-2.22
c0Method,scattering length
base0,base1
base2,base1
baseL,base2
basePion,base1
x,0.014392237111092866,0.03478296338892464,0.05517368966675642,0.0755644159445882,0.09595514222241996,0.11634586850025175,0.13673659477808353,0.1571273210559153,0.17751804733374707,0.19790877361157885,0.21829949988941064,0.2386902261672424,0.2590809524450742,0.27947167872290596,0.29986240500073774,0.3202531312785695,0.3406438575564013,0.3610345838342331,0.3814253101120649,0.40181603638989666,0.42220676266772844,0.44259748894556017,0.46298821522339195,0.48337894150122374,0.5037696677790555,0.5241603940568872,0.544551120334719,0.5649418466125508,0.5853325728903825,0.6057232991682143,0.6261140254460461,0.6465047517238779,0.6668954780017097,0.6872862042795415,0.7076769305573732,0.728067656835205,0.7484583831130368,0.7688491093908686,0.7892398356687004,0.8096305619465322,0.8300212882243639,0.8504120145021956,0.8708027407800274,0.8911934670578592,0.911584193335691,0.9319749196135227,0.9523656458913545,0.9727563721691863,0.9931470984470181,1.0135378247248499
y,971.7137500166523,807.5481911814836,750.0178553786656,731.0460018897764,726.5352524936382,726.3448362917718,724.5857663216716,716.2793076435461,696.6808192888741,660.6170109457689,604.0325707869644,526.0586340387966,432.70073423973025,337.13592942380353,254.38893481500696,188.89740685800479,140.83009325273952,109.74715275948489,80.42793338542644,62.09865776515348,54.325866801294204,41.96652667913222,37.41937515963295,25.454393112991205,21.23218213362714,17.24784801061206,18.520224478407048,12.44591274469941,14.748366474839795,14.236812953736626,11.545171055483847,6.8324097833901565,7.3418300533688035,6.734564858989923,6.983693227505871,3.991903516941888,3.6797410247929756,4.000042080810288,3.7517669669834595,2.8339421997845218,2.2307202499354153,2.3313881110079144,4.63096275538981,2.0543430810815395,1.7832270099912537,3.786175370969972,1.3889648652463442,2.2705271564301808,1.627757487718347,1.0017836912918578
