funcName,chiral
checkN,30.0
qChar,2.236
nMax,10
omegaMax,2.5338445618121246
e1,10
base0,base2
poType,chiral
elo,-0.011232973831466904
enlo,0.0
eShift,-0.011232973831466904
mambdaMeV,400.0
sigmaIMeV,5.0
x,0.033299888653561954,0.05415601495295107,0.07501214125234017,0.09586826755172927,0.1167243938511184,0.1375805201505075,0.1584366464498966,0.1792927727492857,0.2001488990486748,0.22100502534806393,0.24186115164745306,0.26271727794684213,0.28357340424623123,0.30442953054562033,0.32528565684500943,0.34614178314439853,0.36699790944378763,0.38785403574317673,0.4087101620425658,0.429566288341955,0.4504224146413441,0.4712785409407332,0.49213466724012234,0.5129907935395114,0.5338469198389005,0.5547030461382896,0.5755591724376787,0.5964152987370678,0.6172714250364569,0.638127551335846,0.6589836776352351,0.6798398039346243,0.7006959302340133,0.7215520565334025,0.7424081828327915,0.7632643091321807,0.7841204354315697,0.8049765617309589,0.8258326880303479,0.8466888143297371,0.8675449406291262,0.8884010669285153,0.9092571932279044,0.9301133195272935,0.9509694458266826,0.9718255721260717,0.992681698425461,1.0135378247248499
y,0.0030269744755291347,0.04935419472658775,0.1245441612856237,0.25021386362179204,0.38967351332745664,0.5539110481610463,0.8490728919005539,1.3456840906186989,1.9894190664913567,2.624856631196867,3.085486003014528,3.2735430035305146,3.186526157161456,2.8943164539881496,2.4953286687011387,2.078247678318595,1.7018101508674583,1.3921278418038143,1.1506613004604116,0.9654499620864424,0.8206793529585212,0.7025991293880983,0.6019007943671287,0.5136524931291332,0.43603660205791606,0.36884317840171826,0.3122594602198007,0.2661449849291092,0.22975873567115235,0.20180296536076064,0.1806319332778901,0.1645032015733447,0.15179390585854202,0.14114612922668718,0.13153599252253032,0.12227893351397656,0.11299104089113174,0.10352660409695268,0.09390844925464933,0.08426260355131028,0.07476392753385071,0.0655953804333749,0.05692079992950941,0.04886941912587601,0.0415295857259791,0.03494902289623421,0.029139231021957247,0.024082078953454013
funcName,zPot
checkN,30.0
qChar,2.236
nMax,10
omegaMax,2.5338445618121246
e1,10
base0,base2
poType,zPot
elo,-0.011232973831466904
enlo,0.0
eShift,-0.011232973831466904
mambdaMeV,400.0
sigmaIMeV,2.0
x,0.027336563044007382,0.047882422662358266,0.06842828228070916,0.08897414189906004,0.10952000151741093,0.13006586113576182,0.1506117207541127,0.1711575803724636,0.1917034399908145,0.21224929960916536,0.23279515922751626,0.2533410188458672,0.27388687846421805,0.2944327380825689,0.31497859770091985,0.3355244573192707,0.3560703169376216,0.3766161765559725,0.3971620361743234,0.41770789579267426,0.4382537554110252,0.45879961502937605,0.4793454746477269,0.49989133426607785,0.5204371938844287,0.5409830535027795,0.5615289131211304,0.5820747727394813,0.6026206323578323,0.6231664919761831,0.643712351594534,0.6642582112128849,0.6848040708312357,0.7053499304495866,0.7258957900679375,0.7464416496862885,0.7669875093046393,0.7875333689229902,0.8080792285413411,0.8286250881596919,0.8491709477780428,0.8697168073963938,0.8902626670147447,0.9108085266330955,0.9313543862514464,0.9519002458697973,0.9724461054881481,0.9929919651064991,1.0135378247248499
y,0.0008019529046905107,0.05416619899677898,0.1125597032632496,0.17948360904336363,0.3418696747915692,0.5430763399205458,0.7868692586999616,1.1539221639352835,1.683488658882594,2.3009848764509475,2.8536055933515723,3.1997099103509585,3.2749354196321945,3.102862851318849,2.764027346355006,2.3532825458287867,1.9478907636707614,1.5939436367070685,1.3078872617204824,1.085852972144125,0.9142841249401664,0.7780873186699042,0.6651646499394969,0.5678377628712352,0.4823216005677373,0.40737502131771275,0.3429154445706788,0.2889986791363123,0.2452668209466401,0.2107927158964703,0.18418119628845475,0.16378823270342208,0.14795383391733963,0.13518752822687397,0.12428225824868294,0.11435795649106562,0.10484985296586691,0.09546125165656949,0.0860993571017016,0.07680862799793217,0.06771118191202502,0.05895924718479864,0.050701156112817794,0.043060038287129024,0.03612307999489191,0.02993872311221267,0.024519222652378277,0.019846336406157836,0.015878407724200863
funcName,zPot
checkN,30.0
qChar,2.236
nMax,10
omegaMax,2.5338445618121246
e1,10
base0,base2
poType,zPot
elo,-0.011232973831466904
enlo,0.0
eShift,-0.011232973831466904
mambdaMeV,400.0
sigmaIMeV,2.0
x,0.027336563044007382,0.047882422662358266,0.06842828228070916,0.08897414189906004,0.10952000151741093,0.13006586113576182,0.1506117207541127,0.1711575803724636,0.1917034399908145,0.21224929960916536,0.23279515922751626,0.2533410188458672,0.27388687846421805,0.2944327380825689,0.31497859770091985,0.3355244573192707,0.3560703169376216,0.3766161765559725,0.3971620361743234,0.41770789579267426,0.4382537554110252,0.45879961502937605,0.4793454746477269,0.49989133426607785,0.5204371938844287,0.5409830535027795,0.5615289131211304,0.5820747727394813,0.6026206323578323,0.6231664919761831,0.643712351594534,0.6642582112128849,0.6848040708312357,0.7053499304495866,0.7258957900679375,0.7464416496862885,0.7669875093046393,0.7875333689229902,0.8080792285413411,0.8286250881596919,0.8491709477780428,0.8697168073963938,0.8902626670147447,0.9108085266330955,0.9313543862514464,0.9519002458697973,0.9724461054881481,0.9929919651064991,1.0135378247248499
y,0.0015916144509267101,0.10667321573796286,0.19614759916936672,0.19163643437544256,0.23723650317092418,0.2912696387374135,0.34059992144949053,0.39518247498972625,0.4524984253132339,0.5012800939196113,0.5313856318366916,0.5380534105797269,0.5220332463610461,0.48798819174363595,0.44243181426007494,0.39189002113437565,0.3416650853848937,0.29529485087983076,0.25458025676421125,0.21995389142280813,0.19096865403539826,0.16675003314510456,0.1463321017211504,0.12885899870247497,0.11367133557110609,0.10031273884096892,0.08849235671594319,0.07803174241416533,0.06881456700807609,0.060748473488263455,0.05374159556021041,0.047692113090679555,0.042487298052679145,0.038008156623836914,0.03413633562000207,0.03076091029345593,0.0277836536262544,0.02512220955803343,0.022711177861123977,0.02050146711491528,0.018458425772011164,0.016559275747101698,0.014790302853415926,0.013144148411728215,0.011617428402749905,0.01020880042970631,0.008917514430263566,0.007742423353513522,0.006681393244097328
funcName,chiral
checkN,30.0
qChar,2.19
nMax,10
omegaMax,2.5338445618121246
e1,1
base0,base2
poType,chiral
elo,-0.011232973831466904
enlo,0.0
eShift,-0.011232973831466904
nGau,20
mambdaMeV,400.0
sigmaIMeV,0.5
x,0.03478296338892464,0.05517368966675642,0.0755644159445882,0.09595514222241996,0.11634586850025175,0.13673659477808353,0.1571273210559153,0.17751804733374707,0.19790877361157885,0.21829949988941064,0.2386902261672424,0.2590809524450742,0.27947167872290596,0.29986240500073774,0.3202531312785695,0.3406438575564013,0.3610345838342331,0.3814253101120649,0.40181603638989666,0.42220676266772844,0.44259748894556017,0.46298821522339195,0.48337894150122374,0.5037696677790555,0.5241603940568872,0.544551120334719,0.5649418466125508,0.5853325728903825,0.6057232991682143,0.6261140254460461,0.6465047517238779,0.6668954780017097,0.6872862042795415,0.7076769305573732,0.728067656835205,0.7484583831130368,0.7688491093908686,0.7892398356687004,0.8096305619465322,0.8300212882243639,0.8504120145021956,0.8708027407800274,0.8911934670578592,0.911584193335691,0.9319749196135227,0.9523656458913545,0.9727563721691863,0.9931470984470181,1.0135378247248499
y,0.3268144580696628,0.3710371358642135,0.34970302359855054,0.3394587109688132,0.3296267725415305,0.31869421313953694,0.3135094726178096,0.30829440022604615,0.2934098685447424,0.26511500533243293,0.22662979878046485,0.1844515095427255,0.14465544903126926,0.11103836218318008,0.08493417211268017,0.06589502617058951,0.05255506884503269,0.04331729022764419,0.036763098264323446,0.03182264591711359,0.02778898568528798,0.02425384701117339,0.021019448527734075,0.01801677996389628,0.015242988432842053,0.012719766679103767,0.010469450285398335,0.008503889013459193,0.0068214036360832245,0.0054081568930729185,0.004241419206619908,0.0032931982699694294,0.002533431541676047,0.001932421117480208,0.0014624723343401955,0.0010988395253794638,0.0008201355879936295,0.0006083647515267626,0.00044871606443527335,0.0003292246336331193,0.0002403773699175146,0.00017471407721843192,0.0001264545229866172,9.116748762755836e-05,6.548787248524931e-05,4.688170373510758e-05,3.3455306272927075e-05,2.3803197716516813e-05,1.6888715840469103e-05
