\relax 
\citation{stie}
\citation{stie}
\@writefile{toc}{\contentsline {section}{\numberline {1}General Theoretical Formulation}{1}\protected@file@percent }
\newlabel{cond}{{1}{1}}
\newlabel{new27}{{1}{1}}
\citation{stie}
\citation{lorentz}
\citation{3body}
\newlabel{new28}{{2}{2}}
\newlabel{caphiphi}{{4}{2}}
\newlabel{tbpot}{{1}{2}}
\@writefile{lot}{\contentsline {table}{\numberline {1}{\ignorespaces Different potentials and wave functions distinguish Pionless and Chiral interaction }}{2}\protected@file@percent }
\@writefile{lof}{\contentsline {figure}{\numberline {1}{\ignorespaces Pionless has only S wave.}}{2}\protected@file@percent }
\newlabel{waves}{{1}{2}}
\citation{lorentz}
\citation{lorentz}
\newlabel{stdeq}{{7}{3}}
\@writefile{toc}{\contentsline {section}{\numberline {2}Potential}{3}\protected@file@percent }
\@writefile{lof}{\contentsline {figure}{\numberline {2}{\ignorespaces Potentials. Three numbers in each entry represents $(L, j, l)$ respectivly. Total spin S is fixed to 1. There are totally about 50 channels if one counts $L$ from 0 to 10. Each channel has its own $R_{\gamma }$. None-trivial potentials are sparsely distributed thus have minor effect to the total response function.}}{3}\protected@file@percent }
\newlabel{pots}{{2}{3}}
\@writefile{lof}{\contentsline {figure}{\numberline {3}{\ignorespaces zPot is a null test: it has same wave function with Chiral interaction, but all potentials are turned off to 0. zPot still have good response function. Therefore the effect of potential is minor. $L = 0$ means $\DOTSB \sum@ \slimits@ _{\{\gamma | L = 0\} } R_{\gamma }$, and $L > 0$ means $\DOTSB \sum@ \slimits@ _{\{\gamma | 10 > L > 0\} } R_{\gamma }$. Black dots are collected from \cite  {lorentz}.}}{4}\protected@file@percent }
\newlabel{pot10P}{{3}{4}}
\@writefile{toc}{\contentsline {section}{\numberline {3}Wave Function}{4}\protected@file@percent }
\newlabel{trans}{{9}{4}}
\newlabel{estres}{{15}{5}}
\@writefile{lof}{\contentsline {figure}{\numberline {4}{\ignorespaces $\alpha _{\gamma }$'s values in different channels. The channels are list in the order from the top left to the right bottom of FIG. 2\hbox {}, i.e. \{(0,1,0), (0,1,2), (1,0,1), (1,1,1), ..., (8,9,8), (8,9,19)\}. $\alpha _{\gamma }$ can be approximated as a periodic function.}}{5}\protected@file@percent }
\newlabel{alpha}{{4}{5}}
\bibcite{stie}{1}
\bibcite{lorentz}{2}
\bibcite{3body}{3}
\@writefile{lof}{\contentsline {figure}{\numberline {5}{\ignorespaces Solid line is the numerical result of some other $\{C_u, C_{\omega }\}$. Dash lines are the theoretical results from equation (15\hbox {}), based on the result of $\{C_u, C_{\omega }\} = \{1, 1\}$ (Chiral)}}{6}\protected@file@percent }
\newlabel{cpare}{{5}{6}}
\@writefile{toc}{\contentsline {section}{\numberline {4}Conclusion}{6}\protected@file@percent }
\@writefile{toc}{\contentsline {section}{\numberline {5}Appendix}{6}\protected@file@percent }
\@writefile{lot}{\contentsline {table}{\numberline {2}{\ignorespaces Typical $\alpha _{\gamma }$ and $\delta _{\gamma }$ values in one period (totally ten channels)}}{6}\protected@file@percent }
