funcName,PionLO caphi0
poType,unitaryPion
kappa0,0.1
sigmaIMeVPion,2.0
sigmaIMeVChi,3.0
lMin,0.0
lMax,10.0
qChar,2.236
mambdaMeV,400.0
nGauPion,400.0
nGauChi,1500.0
bGauR,2500.0
bGauRPion,600.0
fileName,resTemp.csv
writeMethod,w
fileNameCaphi,caphiTemp.csv
writeMethodCaphi,w
checkOpt,on
sigmaRMeshMax,200.0
nMax,10.0
aGauR,0.0
eloMeV,-100.0
checkN,30.0
aGau,0.0
bGau,3.0
NsigmaR,50.0
e1,20.0
e0Inversion,-2.22
c0Method,scattering length
base0,base2
base2,base2
baseL,base2
basePion,base1
elo,-0.0020795408516001215
enlo,-0.006292632489468124
x,0.006790703425656493,0.027336563044007382,0.047882422662358266,0.06842828228070916,0.08897414189906004,0.10952000151741093,0.13006586113576182,0.1506117207541127,0.1711575803724636,0.1917034399908145,0.21224929960916536,0.23279515922751626,0.2533410188458672,0.27388687846421805,0.2944327380825689,0.31497859770091985,0.3355244573192707,0.3560703169376216,0.3766161765559725,0.3971620361743234,0.41770789579267426,0.4382537554110252,0.45879961502937605,0.4793454746477269,0.49989133426607785,0.5204371938844287,0.5409830535027795,0.5615289131211304,0.5820747727394813,0.6026206323578323,0.6231664919761831,0.643712351594534,0.6642582112128849,0.6848040708312357,0.7053499304495866,0.7258957900679375,0.7464416496862885,0.7669875093046393,0.7875333689229902,0.8080792285413411,0.8286250881596919,0.8491709477780428,0.8697168073963938,0.8902626670147447,0.9108085266330955,0.9313543862514464,0.9519002458697973,0.9724461054881481,0.9929919651064991,1.0135378247248499
y,214.79857213601488,125.71121613153895,102.20133118643649,92.55948067688723,88.19126044419382,86.58321263624725,86.71280789215129,88.0501963081345,90.19769398981833,92.72147419608768,93.29386662368958,84.1685911405088,66.82506917703935,49.335446126247504,35.68136522032294,26.02744880873772,19.353689399243287,14.75237610307424,11.602979237094944,9.335080727462731,7.465997035293922,6.189052023665598,5.4240451281698565,4.588980819065776,3.8564301768204863,3.3228873589651498,2.9761585793994256,2.7774710643290277,2.519808418922168,1.9683985400187658,1.5758152532176466,1.6940177374195045,1.6756258189087228,1.115730945119057,1.3832801098809668,1.0504447734797566,0.9378206674648955,1.0352684308128068,0.7336321090743633,0.9058894569221093,0.6393114226750806,0.6723004926320951,0.6556794630007399,0.4651637541105936,0.850502518774765,0.3822355299358365,0.524043162854745,0.4929822118636974,0.30346942212415556,0.5450048864474941
funcName,PionLO caphiL
poType,unitaryPion
kappa0,0.1
sigmaIMeVPion,2.0
sigmaIMeVChi,3.0
lMin,0.0
lMax,10.0
qChar,2.236
mambdaMeV,400.0
nGauPion,400.0
nGauChi,1500.0
bGauR,2500.0
bGauRPion,600.0
fileName,resTemp.csv
writeMethod,w
fileNameCaphi,caphiTemp.csv
writeMethodCaphi,w
checkOpt,on
sigmaRMeshMax,200.0
nMax,10.0
aGauR,0.0
eloMeV,-100.0
checkN,30.0
aGau,0.0
bGau,3.0
NsigmaR,50.0
e1,20.0
e0Inversion,-2.22
c0Method,scattering length
base0,base2
base2,base2
baseL,base2
basePion,base1
elo,-0.0020795408516001215
enlo,-0.006292632489468124
x,0.006790703425656493,0.027336563044007382,0.047882422662358266,0.06842828228070916,0.08897414189906004,0.10952000151741093,0.13006586113576182,0.1506117207541127,0.1711575803724636,0.1917034399908145,0.21224929960916536,0.23279515922751626,0.2533410188458672,0.27388687846421805,0.2944327380825689,0.31497859770091985,0.3355244573192707,0.3560703169376216,0.3766161765559725,0.3971620361743234,0.41770789579267426,0.4382537554110252,0.45879961502937605,0.4793454746477269,0.49989133426607785,0.5204371938844287,0.5409830535027795,0.5615289131211304,0.5820747727394813,0.6026206323578323,0.6231664919761831,0.643712351594534,0.6642582112128849,0.6848040708312357,0.7053499304495866,0.7258957900679375,0.7464416496862885,0.7669875093046393,0.7875333689229902,0.8080792285413411,0.8286250881596919,0.8491709477780428,0.8697168073963938,0.8902626670147447,0.9108085266330955,0.9313543862514464,0.9519002458697973,0.9724461054881481,0.9929919651064991,1.0135378247248499
y,14.309032566498528,20.01243700260177,29.434047088294776,43.87809715110047,65.56846737580214,98.15557463385653,147.7186126570879,224.66122167194266,347.38992606078983,550.3572267158364,909.3811311293936,1337.3766581623458,1509.4839532066646,1367.4052258391098,1091.08727273682,822.4239436395269,609.2926207920784,453.45291663009465,342.27672683918325,258.8886017174535,206.9749876441085,159.32736287573067,128.91812430936977,109.61170623243912,93.2221963124837,79.33510168399576,67.83739838192487,56.65279947671072,44.46039666635236,35.578608080938515,34.58617739237822,36.44160439344358,24.54510593503282,22.076618539323707,26.579700880313624,15.346366368893353,21.07872899031752,12.796414546268778,15.908382576823652,10.41122107301634,13.8336873011297,7.871675575707849,13.881436323107941,6.235533234009249,10.643335109645907,6.482757342089353,5.147917221620738,10.022269668636818,4.120154212288675,4.611626028511004
funcName,PionNLO caphi0
poType,unitaryPion
kappa0,0.1
sigmaIMeVPion,2.0
sigmaIMeVChi,3.0
lMin,0.0
lMax,10.0
qChar,2.236
mambdaMeV,400.0
nGauPion,400.0
nGauChi,1500.0
bGauR,2500.0
bGauRPion,600.0
fileName,resTemp.csv
writeMethod,w
fileNameCaphi,caphiTemp.csv
writeMethodCaphi,w
checkOpt,on
sigmaRMeshMax,200.0
nMax,10.0
aGauR,0.0
eloMeV,-100.0
checkN,30.0
aGau,0.0
bGau,3.0
NsigmaR,50.0
e1,20.0
e0Inversion,-2.22
c0Method,scattering length
base0,base2
base2,base2
baseL,base2
basePion,base1
elo,-0.0020795408516001215
enlo,-0.006292632489468124
x,0.006790703425656493,0.027336563044007382,0.047882422662358266,0.06842828228070916,0.08897414189906004,0.10952000151741093,0.13006586113576182,0.1506117207541127,0.1711575803724636,0.1917034399908145,0.21224929960916536,0.23279515922751626,0.2533410188458672,0.27388687846421805,0.2944327380825689,0.31497859770091985,0.3355244573192707,0.3560703169376216,0.3766161765559725,0.3971620361743234,0.41770789579267426,0.4382537554110252,0.45879961502937605,0.4793454746477269,0.49989133426607785,0.5204371938844287,0.5409830535027795,0.5615289131211304,0.5820747727394813,0.6026206323578323,0.6231664919761831,0.643712351594534,0.6642582112128849,0.6848040708312357,0.7053499304495866,0.7258957900679375,0.7464416496862885,0.7669875093046393,0.7875333689229902,0.8080792285413411,0.8286250881596919,0.8491709477780428,0.8697168073963938,0.8902626670147447,0.9108085266330955,0.9313543862514464,0.9519002458697973,0.9724461054881481,0.9929919651064991,1.0135378247248499
y,462.0223635323439,240.02830400963427,191.56990383498044,171.48767352640937,161.32379248821212,155.87524222903514,152.86877979214242,150.82962854814593,148.22542820890476,142.14680339137,127.95860128237346,113.87093340487792,99.14066390996653,81.4883575157491,64.01348307094801,49.573538691923275,38.20630828388086,29.857268935906113,23.993827728140282,19.14016493689532,15.740562466200547,12.672606060569091,11.284995649193124,9.83166732065865,8.347146380619103,7.221115929918232,6.491639623027558,5.988768407613932,5.136012980379784,3.864401415712921,3.269638381750015,3.7542598688304176,3.2836779063260906,2.270515608792964,3.081846321332349,2.01199090363411,2.0484727576897455,1.9554984760396172,1.5675919903603948,1.7000182389772416,1.3752149258984405,1.2603489023589738,1.4617555496695314,0.9010711232243154,1.8584523851717811,0.7770094030430879,0.9675800482429795,1.1037533079160882,0.5968742340048628,1.0024980137192347
funcName,PionNLO caphiL
poType,unitaryPion
kappa0,0.1
sigmaIMeVPion,2.0
sigmaIMeVChi,3.0
lMin,0.0
lMax,10.0
qChar,2.236
mambdaMeV,400.0
nGauPion,400.0
nGauChi,1500.0
bGauR,2500.0
bGauRPion,600.0
fileName,resTemp.csv
writeMethod,w
fileNameCaphi,caphiTemp.csv
writeMethodCaphi,w
checkOpt,on
sigmaRMeshMax,200.0
nMax,10.0
aGauR,0.0
eloMeV,-100.0
checkN,30.0
aGau,0.0
bGau,3.0
NsigmaR,50.0
e1,20.0
e0Inversion,-2.22
c0Method,scattering length
base0,base2
base2,base2
baseL,base2
basePion,base1
elo,-0.0020795408516001215
enlo,-0.006292632489468124
x,0.006790703425656493,0.027336563044007382,0.047882422662358266,0.06842828228070916,0.08897414189906004,0.10952000151741093,0.13006586113576182,0.1506117207541127,0.1711575803724636,0.1917034399908145,0.21224929960916536,0.23279515922751626,0.2533410188458672,0.27388687846421805,0.2944327380825689,0.31497859770091985,0.3355244573192707,0.3560703169376216,0.3766161765559725,0.3971620361743234,0.41770789579267426,0.4382537554110252,0.45879961502937605,0.4793454746477269,0.49989133426607785,0.5204371938844287,0.5409830535027795,0.5615289131211304,0.5820747727394813,0.6026206323578323,0.6231664919761831,0.643712351594534,0.6642582112128849,0.6848040708312357,0.7053499304495866,0.7258957900679375,0.7464416496862885,0.7669875093046393,0.7875333689229902,0.8080792285413411,0.8286250881596919,0.8491709477780428,0.8697168073963938,0.8902626670147447,0.9108085266330955,0.9313543862514464,0.9519002458697973,0.9724461054881481,0.9929919651064991,1.0135378247248499
y,17.236834353366884,26.12650907217151,41.685956855449106,65.8700187700064,101.9719948720415,155.06593829968213,232.74807705273255,345.9039864297224,507.91445898909626,727.6106846129155,856.0975543720506,854.269084819302,996.3975408371996,1160.6020163900207,1167.9437805460134,1042.1627013772916,872.1184562647868,706.3131995899582,561.7132467129891,443.9829743370833,368.22110570847826,291.87943226078187,232.56106124507386,200.09960909530292,174.594529941862,150.68438860309124,127.99617114193649,103.96722086529064,80.75546268845181,68.22163283782267,71.26575566556482,70.92663781293228,44.24972942950844,45.30998747934659,50.378421319075514,28.78229842640001,44.42218339440412,22.843653158556045,34.05267744143638,18.34134012679988,29.74009303793708,14.045323445972464,28.995745419137055,11.605690769636457,18.637175582966766,13.239458920740626,8.826616147268098,21.00225467909965,7.727120894795898,7.710291185404926
