funcName,chiral
checkN,30.0
qChar,2.19
nMax,10
omegaMax,2.5338445618121246
e1,1
base0,base2
poType,chiral
mambdaMeV,400.0
sigmaIMeV,0.5
x,0.03478296338892464,0.05517368966675642,0.0755644159445882,0.09595514222241996,0.11634586850025175,0.13673659477808353,0.1571273210559153,0.17751804733374707,0.19790877361157885,0.21829949988941064,0.2386902261672424,0.2590809524450742,0.27947167872290596,0.29986240500073774,0.3202531312785695,0.3406438575564013,0.3610345838342331,0.3814253101120649,0.40181603638989666,0.42220676266772844,0.44259748894556017,0.46298821522339195,0.48337894150122374,0.5037696677790555,0.5241603940568872,0.544551120334719,0.5649418466125508,0.5853325728903825,0.6057232991682143,0.6261140254460461,0.6465047517238779,0.6668954780017097,0.6872862042795415,0.7076769305573732,0.728067656835205,0.7484583831130368,0.7688491093908686,0.7892398356687004,0.8096305619465322,0.8300212882243639,0.8504120145021956,0.8708027407800274,0.8911934670578592,0.911584193335691,0.9319749196135227,0.9523656458913545,0.9727563721691863,0.9931470984470181,1.0135378247248499
y,0.3439130981059845,0.35155264533876923,0.6646336783119247,0.7293497889335868,0.7028696779109358,0.8600161986420196,1.3032705047818929,1.944605343516652,2.612855443079506,3.152402929879866,3.4712969408382226,3.546795956096305,3.4083091310166247,3.1139017140041636,2.7295712912412258,2.3149419609206907,1.9156550070896305,1.5611252085717535,1.2658511271408905,1.0325999065775595,0.856182289637446,0.7269817963552528,0.6337942715124271,0.5658272068453777,0.5138982198144773,0.47097443716353216,0.43223213450413,0.39481154328778945,0.35741419446774964,0.3198534528967184,0.282632098983879,0.24658903927594011,0.2126326549809656,0.1815611833238559,0.15396002285569635,0.13016060880721636,0.11024406150584246,0.0940738419118301,0.08134406754555448,0.07163313770640752,0.06445533492014806,0.05930577270114494,0.055696277706902574,0.05318147554759118,0.05137551903049111,0.0499606241773361,0.04868895081991127,0.04737947141447908,0.04591139676667746
funcName,chiral
checkN,30.0
qChar,2.19
nMax,10
omegaMax,2.5338445618121246
e1,1
base0,base2
poType,chiral
mambdaMeV,400.0
sigmaIMeV,0.5
x,0.03478296338892464,0.05517368966675642,0.0755644159445882,0.09595514222241996,0.11634586850025175,0.13673659477808353,0.1571273210559153,0.17751804733374707,0.19790877361157885,0.21829949988941064,0.2386902261672424,0.2590809524450742,0.27947167872290596,0.29986240500073774,0.3202531312785695,0.3406438575564013,0.3610345838342331,0.3814253101120649,0.40181603638989666,0.42220676266772844,0.44259748894556017,0.46298821522339195,0.48337894150122374,0.5037696677790555,0.5241603940568872,0.544551120334719,0.5649418466125508,0.5853325728903825,0.6057232991682143,0.6261140254460461,0.6465047517238779,0.6668954780017097,0.6872862042795415,0.7076769305573732,0.728067656835205,0.7484583831130368,0.7688491093908686,0.7892398356687004,0.8096305619465322,0.8300212882243639,0.8504120145021956,0.8708027407800274,0.8911934670578592,0.911584193335691,0.9319749196135227,0.9523656458913545,0.9727563721691863,0.9931470984470181,1.0135378247248499
y,0.42218624798487314,0.3962795828107336,0.510083467875575,0.6773780145186545,0.7794861963060822,0.9503190919372074,1.3236509401686867,1.8819252351272284,2.494263239797935,3.0110702525911934,3.3306923432761892,3.4200949928074427,3.303260949125706,3.0366150335721667,2.6853057891177228,2.3068324499237307,1.943071745494602,1.6189136050848727,1.3448670366252051,1.121290224678304,0.9426369845511395,0.8008679972285423,0.6877532904393572,0.5961471506085613,0.520481068511421,0.45675438199661766,0.40226400170406906,0.3552478230034264,0.31454858749059406,0.27934981905200373,0.24899733224416976,0.2228975450603229,0.20047383019898832,0.18116030243099773,0.16441517827286026,0.1497404945175963,0.13669981888040142,0.12492970056403707,0.11414362773690181,0.1041291740082962,0.09474000463454975,0.08588472191151324,0.07751440128495626,0.06961030815078012,0.062172839794766864,0.05521230515884562,0.048741791559544015,0.04277209444458331,0.037308504735855695
