funcName,chiral
checkN,30.0
qChar,2.236
nMax,10
omegaMax,2.5338445618121246
e1,10
base0,base2
poType,chiral
elo,-0.011232973831466904
enlo,0.0
eShift,-0.011232973831466904
mambdaMeV,600.0
sigmaIMeV,3.0
x,0.022372296147395873,0.0430215779927595,0.06367085983812312,0.08432014168348675,0.10496942352885039,0.12561870537421402,0.14626798721957765,0.16691726906494128,0.1875665509103049,0.20821583275566855,0.22886511460103218,0.24951439644639578,0.2701636782917594,0.29081296013712304,0.3114622419824867,0.3321115238278503,0.35276080567321394,0.37341008751857757,0.3940593693639412,0.41470865120930483,0.43535793305466847,0.4560072149000321,0.47665649674539573,0.4973057785907593,0.5179550604361229,0.5386043422814866,0.5592536241268502,0.5799029059722138,0.6005521878175775,0.6212014696629411,0.6418507515083047,0.6625000333536684,0.683149315199032,0.7037985970443956,0.7244478788897593,0.7450971607351229,0.7657464425804865,0.7863957244258502,0.8070450062712138,0.8276942881165774,0.848343569961941,0.8689928518073047,0.8896421336526683,0.9102914154980319,0.9309406973433956,0.9515899791887592,0.9722392610341228,0.9928885428794864,1.0135378247248499
y,0.0005345673944147055,0.32821434812134925,0.844793548026687,0.5723284472608249,0.7656800195776658,1.3851364591353341,2.0407645531426937,2.7843399393447323,3.845046049502301,5.2278200509138255,6.63495253953915,7.673038724273108,8.08728319067261,7.85562097397281,7.139821064602296,6.174403413467783,5.1692239426944635,4.259803350420405,3.5029188216063383,2.8982875112215556,2.416883448751195,2.0237133181697566,1.6907759734317338,1.401202583289355,1.147791051428003,0.9292089857618764,0.7461749668795703,0.598778229979614,0.48520033455669087,0.4015836920007993,0.3425995461807292,0.30228708360989764,0.27485432961050893,0.2552708613455167,0.23959833518792228,0.2250814760432208,0.2100607850605228,0.19377805272426696,0.17613786242649915,0.15747212009916217,0.13833692451275365,0.1193556747891517,0.10111086159596566,0.0840797049282056,0.0686050767737979,0.0548920551558135,0.043021060082237376,0.03297003470451289,0.024639977013100167
funcName,chiral
checkN,30.0
qChar,2.236
nMax,10
omegaMax,2.5338445618121246
e1,1
base0,base2
poType,chiral
elo,-0.011232973831466904
enlo,0.0
eShift,-0.011232973831466904
nGau,20
mambdaMeV,600.0
sigmaIMeV,3.0
x,0.022372296147395873,0.0430215779927595,0.06367085983812312,0.08432014168348675,0.10496942352885039,0.12561870537421402,0.14626798721957765,0.16691726906494128,0.1875665509103049,0.20821583275566855,0.22886511460103218,0.24951439644639578,0.2701636782917594,0.29081296013712304,0.3114622419824867,0.3321115238278503,0.35276080567321394,0.37341008751857757,0.3940593693639412,0.41470865120930483,0.43535793305466847,0.4560072149000321,0.47665649674539573,0.4973057785907593,0.5179550604361229,0.5386043422814866,0.5592536241268502,0.5799029059722138,0.6005521878175775,0.6212014696629411,0.6418507515083047,0.6625000333536684,0.683149315199032,0.7037985970443956,0.7244478788897593,0.7450971607351229,0.7657464425804865,0.7863957244258502,0.8070450062712138,0.8276942881165774,0.848343569961941,0.8689928518073047,0.8896421336526683,0.9102914154980319,0.9309406973433956,0.9515899791887592,0.9722392610341228,0.9928885428794864,1.0135378247248499
y,0.14358785693619908,0.24106548964710625,0.19921867983438615,0.21775825344162936,0.4146593285670074,0.6586460806689634,0.9100868219414137,1.240631285254828,1.7335228841223465,2.375237160966128,3.0328424314417575,3.5320045830111124,3.753177925662056,3.6764824448147935,3.367319477512161,2.9313692387044963,2.4700217557861697,2.0533423942465108,1.7131095720933585,1.45000421294888,1.2468459879813683,1.0814042833179256,0.9352509812232512,0.7977781948285702,0.6662247013671949,0.5432987979347488,0.43399738896283213,0.3428161487366077,0.27199706775467625,0.22095718304128298,0.18668738534034407,0.16473144172116258,0.15033113023503739,0.13940550570338636,0.12916621238939624,0.11830941074446788,0.10683621292537517,0.09562198995073938,0.08587909928006557,0.07864566647820898,0.07439792320568538,0.07283870239032872,0.07287121332189028,0.07273270204992506,0.07024070490397212,0.06309568323722313,0.04918592606249412,0.02685051141495464,-0.00492971296590702
funcName,chiral
checkN,30.0
qChar,2.236
nMax,10
omegaMax,2.5338445618121246
e1,20.0
base0,base2
poType,chiral
elo,-0.011232973831466904
enlo,0.0
eShift,-0.011232973831466904
mambdaMeV,600.0
sigmaIMeV,3.0
x,0.022372296147395873,0.0430215779927595,0.06367085983812312,0.08432014168348675,0.10496942352885039,0.12561870537421402,0.14626798721957765,0.16691726906494128,0.1875665509103049,0.20821583275566855,0.22886511460103218,0.24951439644639578,0.2701636782917594,0.29081296013712304,0.3114622419824867,0.3321115238278503,0.35276080567321394,0.37341008751857757,0.3940593693639412,0.41470865120930483,0.43535793305466847,0.4560072149000321,0.47665649674539573,0.4973057785907593,0.5179550604361229,0.5386043422814866,0.5592536241268502,0.5799029059722138,0.6005521878175775,0.6212014696629411,0.6418507515083047,0.6625000333536684,0.683149315199032,0.7037985970443956,0.7244478788897593,0.7450971607351229,0.7657464425804865,0.7863957244258502,0.8070450062712138,0.8276942881165774,0.848343569961941,0.8689928518073047,0.8896421336526683,0.9102914154980319,0.9309406973433956,0.9515899791887592,0.9722392610341228,0.9928885428794864,1.0135378247248499
y,0.00015049684343306993,0.09296202395580992,0.27116414970591624,0.4617351384363463,1.0110106297038124,1.4829556191359607,1.8750713889813886,2.557457110735966,3.7004820223240045,5.170386078871035,6.619978702823255,7.675539653000044,8.108976781667199,7.902200882360232,7.205438765510702,6.244712993166088,5.233559314160491,4.3195197298757595,3.570306381748613,2.98855162590516,2.53916406503758,2.17601598025397,1.860477339330324,1.5698494116724888,1.297444169383013,1.0476683408082252,0.829487940592171,0.6507636718658315,0.5147696721322232,0.4191505576229669,0.3568436143595281,0.31814192408484016,0.29304373239491727,0.27321674046926847,0.25318827589766296,0.23065763056589894,0.20605173558077902,0.1815804154921932,0.16009173470802654,0.143999309563401,0.1344787307895545,0.13103690971289852,0.1314688442380295,0.13214604958562445,0.12853685561982664,0.1158414035330605,0.0896292953457772,0.046388793249160745,-0.01607404304734475
funcName,chiral
checkN,30.0
qChar,2.236
nMax,10
omegaMax,2.5338445618121246
e1,20.0
base0,base2
poType,chiral
elo,-0.011232973831466904
enlo,0.0
eShift,-0.011232973831466904
mambdaMeV,600.0
sigmaIMeV,3.0
x,0.022372296147395873,0.0430215779927595,0.06367085983812312,0.08432014168348675,0.10496942352885039,0.12561870537421402,0.14626798721957765,0.16691726906494128,0.1875665509103049,0.20821583275566855,0.22886511460103218,0.24951439644639578,0.2701636782917594,0.29081296013712304,0.3114622419824867,0.3321115238278503,0.35276080567321394,0.37341008751857757,0.3940593693639412,0.41470865120930483,0.43535793305466847,0.4560072149000321,0.47665649674539573,0.4973057785907593,0.5179550604361229,0.5386043422814866,0.5592536241268502,0.5799029059722138,0.6005521878175775,0.6212014696629411,0.6418507515083047,0.6625000333536684,0.683149315199032,0.7037985970443956,0.7244478788897593,0.7450971607351229,0.7657464425804865,0.7863957244258502,0.8070450062712138,0.8276942881165774,0.848343569961941,0.8689928518073047,0.8896421336526683,0.9102914154980319,0.9309406973433956,0.9515899791887592,0.9722392610341228,0.9928885428794864,1.0135378247248499
y,6.688748597103193e-05,0.041316455091942636,0.12051739987137788,0.20521561709667924,0.4493380576796636,0.659091386312322,0.8333650617801366,1.1366476047675713,1.6446586765770403,2.2979493683733967,2.9422127567979612,3.411350956879874,3.603989680735491,3.512089281046156,3.202417229114542,2.7754279969620677,2.326026361848747,1.919786546611269,1.586802836332743,1.3282451670692157,1.1285173622393643,0.967118213446728,0.8268788174806081,0.6977108496325206,0.5766418530592012,0.46563037369241134,0.36866130692956617,0.2892282986066848,0.22878652094733742,0.18628913672111483,0.1585971619375162,0.14139641070447873,0.130241658842417,0.12142966243108969,0.11252812262149336,0.1025145024739964,0.09157854914718852,0.08070240688549403,0.07115188209243882,0.0639996931392022,0.05976832479524073,0.05823862653894244,0.05843059743901542,0.058731577593518346,0.05712749138648493,0.05148506823675355,0.03983524237560805,0.020617241443560586,-0.007144019132980326
funcName,chiral
checkN,30.0
qChar,2.236
nMax,10
omegaMax,2.5338445618121246
e1,20.0
base0,base2
poType,chiral
elo,-0.011232973831466904
enlo,0.0
eShift,-0.011232973831466904
mambdaMeV,600.0
sigmaIMeV,3.0
x,0.022372296147395873,0.0430215779927595,0.06367085983812312,0.08432014168348675,0.10496942352885039,0.12561870537421402,0.14626798721957765,0.16691726906494128,0.1875665509103049,0.20821583275566855,0.22886511460103218,0.24951439644639578,0.2701636782917594,0.29081296013712304,0.3114622419824867,0.3321115238278503,0.35276080567321394,0.37341008751857757,0.3940593693639412,0.41470865120930483,0.43535793305466847,0.4560072149000321,0.47665649674539573,0.4973057785907593,0.5179550604361229,0.5386043422814866,0.5592536241268502,0.5799029059722138,0.6005521878175775,0.6212014696629411,0.6418507515083047,0.6625000333536684,0.683149315199032,0.7037985970443956,0.7244478788897593,0.7450971607351229,0.7657464425804865,0.7863957244258502,0.8070450062712138,0.8276942881165774,0.848343569961941,0.8689928518073047,0.8896421336526683,0.9102914154980319,0.9309406973433956,0.9515899791887592,0.9722392610341228,0.9928885428794864,1.0135378247248499
y,0.0001369536503307004,0.08423280412032051,0.22809645668428397,0.26218741301460924,0.5069844329228286,0.7747000495788431,0.9983631121984103,1.322955536075398,1.849023062604556,2.5419873051939184,3.247825060473664,3.781352118938705,4.019886279715755,3.944436213940872,3.6238296869325883,3.1690904039748538,2.6875642907877557,2.2540378849796077,1.902425689540819,1.6327836969643115,1.425431859187694,1.2551102164659742,1.1010114050814654,0.9514522740153033,0.8039758730922111,0.6626269138256732,0.5342308969830706,0.4250770013188496,0.3387820759046738,0.27552941644860196,0.23245758218062396,0.20475867051650148,0.18700897779512568,0.17434297438591184,0.1632314170965335,0.1517821745394412,0.13961088646642994,0.1274096187653438,0.1163729378549392,0.1076309992456692,0.10180247729752842,0.09873141825599013,0.09742396495510053,0.09616198228985742,0.09274522999684569,0.08480252798731844,0.07011337202757997,0.04689127230681403,0.013994872606521797
