\relax 
\citation{lorentz}
\@writefile{toc}{\contentsline {section}{\numberline {1}Method}{1}\protected@file@percent }
\newlabel{lit}{{1}{1}}
\newlabel{osReq}{{4}{1}}
\bibcite{lorentz}{1}
\@writefile{toc}{\contentsline {section}{\numberline {2}Conclusion}{2}\protected@file@percent }
