%!PS-Adobe-3.0 EPSF-3.0
%%Title: /home/ian/homoR.eps
%%Creator: matplotlib version 3.1.1, http://matplotlib.org/
%%CreationDate: Mon Aug 17 12:09:26 2020
%%Orientation: portrait
%%BoundingBox: 75.6 223.20000000000002 536.4 568.8
%%EndComments
%%BeginProlog
/mpldict 9 dict def
mpldict begin
/m { moveto } bind def
/l { lineto } bind def
/r { rlineto } bind def
/c { curveto } bind def
/cl { closepath } bind def
/box {
m
1 index 0 r
0 exch r
neg 0 r
cl
} bind def
/clipbox {
box
clip
newpath
} bind def
%!PS-Adobe-3.0 Resource-Font
%%Title: DejaVu Sans
%%Copyright: Copyright (c) 2003 by Bitstream, Inc. All Rights Reserved. Copyright (c) 2006 by Tavmjong Bah. All Rights Reserved. DejaVu changes are in public domain 
%%Creator: Converted from TrueType to type 3 by PPR
25 dict begin
/_d{bind def}bind def
/_m{moveto}_d
/_l{lineto}_d
/_cl{closepath eofill}_d
/_c{curveto}_d
/_sc{7 -1 roll{setcachedevice}{pop pop pop pop pop pop}ifelse}_d
/_e{exec}_d
/FontName /DejaVuSans def
/PaintType 0 def
/FontMatrix[.001 0 0 .001 0 0]def
/FontBBox[-1021 -463 1793 1232]def
/FontType 3 def
/Encoding [ /space /parenleft /parenright /plus /period /zero /one /two /four /five /six /seven /eight /H /e /g /i /l /m /n /o /s /t /u /minus ] def
/FontInfo 10 dict dup begin
/FamilyName (DejaVu Sans) def
/FullName (DejaVu Sans) def
/Notice (Copyright (c) 2003 by Bitstream, Inc. All Rights Reserved. Copyright (c) 2006 by Tavmjong Bah. All Rights Reserved. DejaVu changes are in public domain ) def
/Weight (Book) def
/Version (Version 2.35) def
/ItalicAngle 0.0 def
/isFixedPitch false def
/UnderlinePosition -130 def
/UnderlineThickness 90 def
end readonly def
/CharStrings 26 dict dup begin
/.notdef 0 def
/space{318 0 0 0 0 0 _sc
}_d
/parenleft{390 0 86 -131 310 759 _sc
310 759 _m
266 683 234 609 213 536 _c
191 463 181 389 181 314 _c
181 238 191 164 213 91 _c
234 17 266 -56 310 -131 _c
232 -131 _l
183 -54 146 20 122 94 _c
98 168 86 241 86 314 _c
86 386 98 459 122 533 _c
146 607 182 682 232 759 _c
310 759 _l
_cl}_d
/parenright{390 0 80 -131 304 759 _sc
80 759 _m
158 759 _l
206 682 243 607 267 533 _c
291 459 304 386 304 314 _c
304 241 291 168 267 94 _c
243 20 206 -54 158 -131 _c
80 -131 _l
123 -56 155 17 177 91 _c
198 164 209 238 209 314 _c
209 389 198 463 177 536 _c
155 609 123 683 80 759 _c
_cl}_d
/plus{838 0 106 0 732 627 _sc
460 627 _m
460 355 _l
732 355 _l
732 272 _l
460 272 _l
460 0 _l
378 0 _l
378 272 _l
106 272 _l
106 355 _l
378 355 _l
378 627 _l
460 627 _l
_cl}_d
/period{318 0 107 0 210 124 _sc
107 124 _m
210 124 _l
210 0 _l
107 0 _l
107 124 _l
_cl}_d
/zero{636 0 66 -13 570 742 _sc
318 664 _m
267 664 229 639 203 589 _c
177 539 165 464 165 364 _c
165 264 177 189 203 139 _c
229 89 267 64 318 64 _c
369 64 407 89 433 139 _c
458 189 471 264 471 364 _c
471 464 458 539 433 589 _c
407 639 369 664 318 664 _c
318 742 _m
399 742 461 709 505 645 _c
548 580 570 486 570 364 _c
570 241 548 147 505 83 _c
461 19 399 -13 318 -13 _c
236 -13 173 19 130 83 _c
87 147 66 241 66 364 _c
66 486 87 580 130 645 _c
173 709 236 742 318 742 _c
_cl}_d
/one{636 0 110 0 544 729 _sc
124 83 _m
285 83 _l
285 639 _l
110 604 _l
110 694 _l
284 729 _l
383 729 _l
383 83 _l
544 83 _l
544 0 _l
124 0 _l
124 83 _l
_cl}_d
/two{{636 0 73 0 536 742 _sc
192 83 _m
536 83 _l
536 0 _l
73 0 _l
73 83 _l
110 121 161 173 226 239 _c
290 304 331 346 348 365 _c
380 400 402 430 414 455 _c
426 479 433 504 433 528 _c
433 566 419 598 392 622 _c
365 646 330 659 286 659 _c
255 659 222 653 188 643 _c
154 632 117 616 78 594 _c
78 694 _l
118 710 155 722 189 730 _c
223 738 255 742 284 742 _c
}_e{359 742 419 723 464 685 _c
509 647 532 597 532 534 _c
532 504 526 475 515 449 _c
504 422 484 390 454 354 _c
446 344 420 317 376 272 _c
332 227 271 164 192 83 _c
_cl}_e}_d
/four{636 0 49 0 580 729 _sc
378 643 _m
129 254 _l
378 254 _l
378 643 _l
352 729 _m
476 729 _l
476 254 _l
580 254 _l
580 172 _l
476 172 _l
476 0 _l
378 0 _l
378 172 _l
49 172 _l
49 267 _l
352 729 _l
_cl}_d
/five{{636 0 77 -13 549 729 _sc
108 729 _m
495 729 _l
495 646 _l
198 646 _l
198 467 _l
212 472 227 476 241 478 _c
255 480 270 482 284 482 _c
365 482 429 459 477 415 _c
525 370 549 310 549 234 _c
549 155 524 94 475 51 _c
426 8 357 -13 269 -13 _c
238 -13 207 -10 175 -6 _c
143 -1 111 6 77 17 _c
77 116 _l
106 100 136 88 168 80 _c
199 72 232 69 267 69 _c
}_e{323 69 368 83 401 113 _c
433 143 450 183 450 234 _c
450 284 433 324 401 354 _c
368 384 323 399 267 399 _c
241 399 214 396 188 390 _c
162 384 135 375 108 363 _c
108 729 _l
_cl}_e}_d
/six{{636 0 70 -13 573 742 _sc
330 404 _m
286 404 251 388 225 358 _c
199 328 186 286 186 234 _c
186 181 199 139 225 109 _c
251 79 286 64 330 64 _c
374 64 409 79 435 109 _c
461 139 474 181 474 234 _c
474 286 461 328 435 358 _c
409 388 374 404 330 404 _c
526 713 _m
526 623 _l
501 635 476 644 451 650 _c
425 656 400 659 376 659 _c
310 659 260 637 226 593 _c
}_e{192 549 172 482 168 394 _c
187 422 211 444 240 459 _c
269 474 301 482 336 482 _c
409 482 467 459 509 415 _c
551 371 573 310 573 234 _c
573 159 550 99 506 54 _c
462 9 403 -13 330 -13 _c
246 -13 181 19 137 83 _c
92 147 70 241 70 364 _c
70 479 97 571 152 639 _c
206 707 280 742 372 742 _c
396 742 421 739 447 735 _c
472 730 498 723 526 713 _c
_cl}_e}_d
/seven{636 0 82 0 551 729 _sc
82 729 _m
551 729 _l
551 687 _l
286 0 _l
183 0 _l
432 646 _l
82 646 _l
82 729 _l
_cl}_d
/eight{{636 0 68 -13 568 742 _sc
318 346 _m
271 346 234 333 207 308 _c
180 283 167 249 167 205 _c
167 161 180 126 207 101 _c
234 76 271 64 318 64 _c
364 64 401 76 428 102 _c
455 127 469 161 469 205 _c
469 249 455 283 429 308 _c
402 333 365 346 318 346 _c
219 388 _m
177 398 144 418 120 447 _c
96 476 85 511 85 553 _c
85 611 105 657 147 691 _c
188 725 245 742 318 742 _c
}_e{390 742 447 725 489 691 _c
530 657 551 611 551 553 _c
551 511 539 476 515 447 _c
491 418 459 398 417 388 _c
464 377 501 355 528 323 _c
554 291 568 251 568 205 _c
568 134 546 80 503 43 _c
459 5 398 -13 318 -13 _c
237 -13 175 5 132 43 _c
89 80 68 134 68 205 _c
68 251 81 291 108 323 _c
134 355 171 377 219 388 _c
183 544 _m
183 506 194 476 218 455 _c
}_e{242 434 275 424 318 424 _c
360 424 393 434 417 455 _c
441 476 453 506 453 544 _c
453 582 441 611 417 632 _c
393 653 360 664 318 664 _c
275 664 242 653 218 632 _c
194 611 183 582 183 544 _c
_cl}_e}_d
/H{752 0 98 0 654 729 _sc
98 729 _m
197 729 _l
197 430 _l
555 430 _l
555 729 _l
654 729 _l
654 0 _l
555 0 _l
555 347 _l
197 347 _l
197 0 _l
98 0 _l
98 729 _l
_cl}_d
/e{{615 0 55 -13 562 560 _sc
562 296 _m
562 252 _l
149 252 _l
153 190 171 142 205 110 _c
238 78 284 62 344 62 _c
378 62 412 66 444 74 _c
476 82 509 95 541 113 _c
541 28 _l
509 14 476 3 442 -3 _c
408 -9 373 -13 339 -13 _c
251 -13 182 12 131 62 _c
80 112 55 181 55 268 _c
55 357 79 428 127 481 _c
175 533 241 560 323 560 _c
397 560 455 536 498 489 _c
}_e{540 441 562 377 562 296 _c
472 322 _m
471 371 457 410 431 440 _c
404 469 368 484 324 484 _c
274 484 234 469 204 441 _c
174 413 156 373 152 322 _c
472 322 _l
_cl}_e}_d
/g{{635 0 55 -207 544 560 _sc
454 280 _m
454 344 440 395 414 431 _c
387 467 349 485 301 485 _c
253 485 215 467 188 431 _c
161 395 148 344 148 280 _c
148 215 161 165 188 129 _c
215 93 253 75 301 75 _c
349 75 387 93 414 129 _c
440 165 454 215 454 280 _c
544 68 _m
544 -24 523 -93 482 -139 _c
440 -184 377 -207 292 -207 _c
260 -207 231 -204 203 -200 _c
175 -195 147 -188 121 -178 _c
}_e{121 -91 _l
147 -105 173 -115 199 -122 _c
225 -129 251 -133 278 -133 _c
336 -133 380 -117 410 -87 _c
439 -56 454 -10 454 52 _c
454 96 _l
435 64 411 40 382 24 _c
353 8 319 0 279 0 _c
211 0 157 25 116 76 _c
75 127 55 195 55 280 _c
55 364 75 432 116 483 _c
157 534 211 560 279 560 _c
319 560 353 552 382 536 _c
411 520 435 496 454 464 _c
454 547 _l
544 547 _l
}_e{544 68 _l
_cl}_e}_d
/i{278 0 94 0 184 760 _sc
94 547 _m
184 547 _l
184 0 _l
94 0 _l
94 547 _l
94 760 _m
184 760 _l
184 646 _l
94 646 _l
94 760 _l
_cl}_d
/l{278 0 94 0 184 760 _sc
94 760 _m
184 760 _l
184 0 _l
94 0 _l
94 760 _l
_cl}_d
/m{{974 0 91 0 889 560 _sc
520 442 _m
542 482 569 511 600 531 _c
631 550 668 560 711 560 _c
767 560 811 540 842 500 _c
873 460 889 403 889 330 _c
889 0 _l
799 0 _l
799 327 _l
799 379 789 418 771 444 _c
752 469 724 482 686 482 _c
639 482 602 466 575 435 _c
548 404 535 362 535 309 _c
535 0 _l
445 0 _l
445 327 _l
445 379 435 418 417 444 _c
398 469 369 482 331 482 _c
}_e{285 482 248 466 221 435 _c
194 404 181 362 181 309 _c
181 0 _l
91 0 _l
91 547 _l
181 547 _l
181 462 _l
201 495 226 520 255 536 _c
283 552 317 560 357 560 _c
397 560 430 550 458 530 _c
486 510 506 480 520 442 _c
_cl}_e}_d
/n{634 0 91 0 549 560 _sc
549 330 _m
549 0 _l
459 0 _l
459 327 _l
459 379 448 417 428 443 _c
408 469 378 482 338 482 _c
289 482 251 466 223 435 _c
195 404 181 362 181 309 _c
181 0 _l
91 0 _l
91 547 _l
181 547 _l
181 462 _l
202 494 227 519 257 535 _c
286 551 320 560 358 560 _c
420 560 468 540 500 501 _c
532 462 549 405 549 330 _c
_cl}_d
/o{612 0 55 -13 557 560 _sc
306 484 _m
258 484 220 465 192 427 _c
164 389 150 338 150 273 _c
150 207 163 156 191 118 _c
219 80 257 62 306 62 _c
354 62 392 80 420 118 _c
448 156 462 207 462 273 _c
462 337 448 389 420 427 _c
392 465 354 484 306 484 _c
306 560 _m
384 560 445 534 490 484 _c
534 433 557 363 557 273 _c
557 183 534 113 490 63 _c
445 12 384 -13 306 -13 _c
227 -13 165 12 121 63 _c
77 113 55 183 55 273 _c
55 363 77 433 121 484 _c
165 534 227 560 306 560 _c
_cl}_d
/s{{521 0 54 -13 472 560 _sc
443 531 _m
443 446 _l
417 458 391 468 364 475 _c
336 481 308 485 279 485 _c
234 485 200 478 178 464 _c
156 450 145 430 145 403 _c
145 382 153 366 169 354 _c
185 342 217 330 265 320 _c
296 313 _l
360 299 405 279 432 255 _c
458 230 472 195 472 151 _c
472 100 452 60 412 31 _c
372 1 316 -13 246 -13 _c
216 -13 186 -10 154 -5 _c
}_e{122 0 89 8 54 20 _c
54 113 _l
87 95 120 82 152 74 _c
184 65 216 61 248 61 _c
290 61 323 68 346 82 _c
368 96 380 117 380 144 _c
380 168 371 187 355 200 _c
339 213 303 226 247 238 _c
216 245 _l
160 257 119 275 95 299 _c
70 323 58 356 58 399 _c
58 450 76 490 112 518 _c
148 546 200 560 268 560 _c
301 560 332 557 362 552 _c
391 547 418 540 443 531 _c
}_e{_cl}_e}_d
/t{392 0 27 0 368 702 _sc
183 702 _m
183 547 _l
368 547 _l
368 477 _l
183 477 _l
183 180 _l
183 135 189 106 201 94 _c
213 81 238 75 276 75 _c
368 75 _l
368 0 _l
276 0 _l
206 0 158 13 132 39 _c
106 65 93 112 93 180 _c
93 477 _l
27 477 _l
27 547 _l
93 547 _l
93 702 _l
183 702 _l
_cl}_d
/u{634 0 85 -13 543 560 _sc
85 216 _m
85 547 _l
175 547 _l
175 219 _l
175 167 185 129 205 103 _c
225 77 255 64 296 64 _c
344 64 383 79 411 110 _c
439 141 453 183 453 237 _c
453 547 _l
543 547 _l
543 0 _l
453 0 _l
453 84 _l
431 50 405 26 377 10 _c
348 -5 315 -13 277 -13 _c
214 -13 166 6 134 45 _c
101 83 85 140 85 216 _c
311 560 _m
311 560 _l
_cl}_d
/minus{838 0 106 272 732 355 _sc
106 355 _m
732 355 _l
732 272 _l
106 272 _l
106 355 _l
_cl}_d
end readonly def

/BuildGlyph
 {exch begin
 CharStrings exch
 2 copy known not{pop /.notdef}if
 true 3 1 roll get exec
 end}_d

/BuildChar {
 1 index /Encoding get exch get
 1 index /BuildGlyph get exec
}_d

FontName currentdict end definefont pop
%!PS-Adobe-3.0 Resource-Font
%%Title: DejaVu Sans Oblique
%%Copyright: Copyright (c) 2003 by Bitstream, Inc. All Rights Reserved. Copyright (c) 2006 by Tavmjong Bah. All Rights Reserved. DejaVu changes are in public domain 
%%Creator: Converted from TrueType to type 3 by PPR
25 dict begin
/_d{bind def}bind def
/_m{moveto}_d
/_l{lineto}_d
/_cl{closepath eofill}_d
/_c{curveto}_d
/_sc{7 -1 roll{setcachedevice}{pop pop pop pop pop pop}ifelse}_d
/_e{exec}_d
/FontName /DejaVuSans-Oblique def
/PaintType 0 def
/FontMatrix[.001 0 0 .001 0 0]def
/FontBBox[-1016 -350 1659 1068]def
/FontType 3 def
/Encoding [ /I /R /sigma /omega ] def
/FontInfo 10 dict dup begin
/FamilyName (DejaVu Sans) def
/FullName (DejaVu Sans Oblique) def
/Notice (Copyright (c) 2003 by Bitstream, Inc. All Rights Reserved. Copyright (c) 2006 by Tavmjong Bah. All Rights Reserved. DejaVu changes are in public domain ) def
/Weight (Oblique) def
/Version (Version 2.35) def
/ItalicAngle -11.0 def
/isFixedPitch false def
/UnderlinePosition -130 def
/UnderlineThickness 90 def
end readonly def
/CharStrings 5 dict dup begin
/.notdef 0 def
/I{295 0 27 0 268 729 _sc
169 729 _m
268 729 _l
126 0 _l
27 0 _l
169 729 _l
_cl}_d
/R{{695 0 27 0 600 729 _sc
252 648 _m
202 389 _l
329 389 _l
379 389 419 402 450 430 _c
480 458 496 494 496 538 _c
496 573 485 600 465 619 _c
444 638 414 648 376 648 _c
252 648 _l
433 350 _m
453 345 471 333 485 314 _c
499 294 515 256 533 199 _c
595 0 _l
491 0 _l
434 187 _l
419 235 402 267 383 283 _c
363 299 334 308 295 308 _c
186 308 _l
126 0 _l
27 0 _l
169 729 _l
}_e{391 729 _l
458 729 510 713 546 683 _c
582 653 600 609 600 552 _c
600 501 584 457 554 420 _c
523 382 483 359 433 350 _c
_cl}_e}_d
/sigma{{634 0 57 -13 659 547 _sc
347 476 _m
297 476 255 458 222 422 _c
186 384 163 335 151 273 _c
138 207 142 156 163 118 _c
183 80 218 62 267 62 _c
314 62 355 81 391 119 _c
426 156 450 207 463 273 _c
474 332 470 382 450 422 _c
431 458 397 476 347 476 _c
361 547 _m
659 547 _l
642 457 _l
541 457 _l
566 406 572 345 559 273 _c
541 183 505 113 451 63 _c
396 12 329 -13 251 -13 _c
}_e{173 -13 116 12 82 63 _c
47 113 39 183 57 273 _c
74 363 110 433 164 484 _c
209 526 275 547 361 547 _c
_cl}_e}_d
/omega{{837 0 68 -13 771 547 _sc
214 -13 _m
78 -13 30 83 68 276 _c
82 352 125 443 196 547 _c
293 547 _l
225 443 184 351 170 273 _c
142 132 164 62 237 62 _c
304 62 354 149 387 325 _c
470 325 _l
434 149 450 61 518 62 _c
590 62 640 133 668 273 _c
682 351 677 443 651 547 _c
748 547 _l
778 443 785 352 771 276 _c
733 82 647 -13 512 -13 _c
423 -13 383 35 391 132 _c
}_e{359 35 300 -13 214 -13 _c
_cl}_e}_d
end readonly def

/BuildGlyph
 {exch begin
 CharStrings exch
 2 copy known not{pop /.notdef}if
 true 3 1 roll get exec
 end}_d

/BuildChar {
 1 index /Encoding get exch get
 1 index /BuildGlyph get exec
}_d

FontName currentdict end definefont pop
end
%%EndProlog
mpldict begin
75.6 223.2 translate
460.8 345.6 0 0 clipbox
gsave
0 0 m
460.8 0 l
460.8 345.6 l
0 345.6 l
cl
1.000 setgray
fill
grestore
gsave
57.6 38.016 m
414.72 38.016 l
414.72 304.128 l
57.6 304.128 l
cl
1.000 setgray
fill
grestore
0.800 setlinewidth
1 setlinejoin
0 setlinecap
[] 0 setdash
0.000 setgray
gsave
/o {
gsave
newpath
translate
0.8 setlinewidth
1 setlinejoin
0 setlinecap
0 0 m
0 -3.5 l

gsave
0.000 setgray
fill
grestore
stroke
grestore
} bind def
73.8327 38.016 o
grestore
/DejaVuSans findfont
10.000 scalefont
setfont
gsave
70.653040 23.422250 translate
0.000000 rotate
0.000000 0.000000 m /zero glyphshow
grestore
gsave
/o {
gsave
newpath
translate
0.8 setlinewidth
1 setlinejoin
0 setlinecap
0 0 m
0 -3.5 l

gsave
0.000 setgray
fill
grestore
stroke
grestore
} bind def
114.415 38.016 o
grestore
gsave
108.055170 23.422250 translate
0.000000 rotate
0.000000 0.000000 m /two glyphshow
6.362305 0.000000 m /five glyphshow
grestore
gsave
/o {
gsave
newpath
translate
0.8 setlinewidth
1 setlinejoin
0 setlinecap
0 0 m
0 -3.5 l

gsave
0.000 setgray
fill
grestore
stroke
grestore
} bind def
154.996 38.016 o
grestore
gsave
148.636989 23.422250 translate
0.000000 rotate
0.000000 0.000000 m /five glyphshow
6.362305 0.000000 m /zero glyphshow
grestore
gsave
/o {
gsave
newpath
translate
0.8 setlinewidth
1 setlinejoin
0 setlinecap
0 0 m
0 -3.5 l

gsave
0.000 setgray
fill
grestore
stroke
grestore
} bind def
195.578 38.016 o
grestore
gsave
189.218807 23.422250 translate
0.000000 rotate
0.000000 0.000000 m /seven glyphshow
6.362305 0.000000 m /five glyphshow
grestore
gsave
/o {
gsave
newpath
translate
0.8 setlinewidth
1 setlinejoin
0 setlinecap
0 0 m
0 -3.5 l

gsave
0.000 setgray
fill
grestore
stroke
grestore
} bind def
236.16 38.016 o
grestore
gsave
226.620937 23.422250 translate
0.000000 rotate
0.000000 0.000000 m /one glyphshow
6.362305 0.000000 m /zero glyphshow
12.724609 0.000000 m /zero glyphshow
grestore
gsave
/o {
gsave
newpath
translate
0.8 setlinewidth
1 setlinejoin
0 setlinecap
0 0 m
0 -3.5 l

gsave
0.000 setgray
fill
grestore
stroke
grestore
} bind def
276.742 38.016 o
grestore
gsave
267.202756 23.422250 translate
0.000000 rotate
0.000000 0.000000 m /one glyphshow
6.362305 0.000000 m /two glyphshow
12.724609 0.000000 m /five glyphshow
grestore
gsave
/o {
gsave
newpath
translate
0.8 setlinewidth
1 setlinejoin
0 setlinecap
0 0 m
0 -3.5 l

gsave
0.000 setgray
fill
grestore
stroke
grestore
} bind def
317.324 38.016 o
grestore
gsave
307.784574 23.422250 translate
0.000000 rotate
0.000000 0.000000 m /one glyphshow
6.362305 0.000000 m /five glyphshow
12.724609 0.000000 m /zero glyphshow
grestore
gsave
/o {
gsave
newpath
translate
0.8 setlinewidth
1 setlinejoin
0 setlinecap
0 0 m
0 -3.5 l

gsave
0.000 setgray
fill
grestore
stroke
grestore
} bind def
357.905 38.016 o
grestore
gsave
348.366392 23.422250 translate
0.000000 rotate
0.000000 0.000000 m /one glyphshow
6.362305 0.000000 m /seven glyphshow
12.724609 0.000000 m /five glyphshow
grestore
gsave
/o {
gsave
newpath
translate
0.8 setlinewidth
1 setlinejoin
0 setlinecap
0 0 m
0 -3.5 l

gsave
0.000 setgray
fill
grestore
stroke
grestore
} bind def
398.487 38.016 o
grestore
gsave
388.948210 23.422250 translate
0.000000 rotate
0.000000 0.000000 m /two glyphshow
6.362305 0.000000 m /zero glyphshow
12.724609 0.000000 m /zero glyphshow
grestore
gsave
/o {
gsave
newpath
translate
0.8 setlinewidth
1 setlinejoin
0 setlinecap
0 0 m
-3.5 0 l

gsave
0.000 setgray
fill
grestore
stroke
grestore
} bind def
57.6 68.6471 o
grestore
gsave
28.334375 64.850206 translate
0.000000 rotate
0.000000 0.000000 m /zero glyphshow
6.362305 0.000000 m /period glyphshow
9.541016 0.000000 m /zero glyphshow
15.903320 0.000000 m /zero glyphshow
grestore
gsave
/o {
gsave
newpath
translate
0.8 setlinewidth
1 setlinejoin
0 setlinecap
0 0 m
-3.5 0 l

gsave
0.000 setgray
fill
grestore
stroke
grestore
} bind def
57.6 105.878 o
grestore
gsave
28.334375 102.081026 translate
0.000000 rotate
0.000000 0.000000 m /zero glyphshow
6.362305 0.000000 m /period glyphshow
9.541016 0.000000 m /zero glyphshow
15.903320 0.000000 m /two glyphshow
grestore
gsave
/o {
gsave
newpath
translate
0.8 setlinewidth
1 setlinejoin
0 setlinecap
0 0 m
-3.5 0 l

gsave
0.000 setgray
fill
grestore
stroke
grestore
} bind def
57.6 143.109 o
grestore
gsave
28.334375 139.311846 translate
0.000000 rotate
0.000000 0.000000 m /zero glyphshow
6.362305 0.000000 m /period glyphshow
9.541016 0.000000 m /zero glyphshow
15.903320 0.000000 m /four glyphshow
grestore
gsave
/o {
gsave
newpath
translate
0.8 setlinewidth
1 setlinejoin
0 setlinecap
0 0 m
-3.5 0 l

gsave
0.000 setgray
fill
grestore
stroke
grestore
} bind def
57.6 180.34 o
grestore
gsave
28.334375 176.542666 translate
0.000000 rotate
0.000000 0.000000 m /zero glyphshow
6.362305 0.000000 m /period glyphshow
9.541016 0.000000 m /zero glyphshow
15.903320 0.000000 m /six glyphshow
grestore
gsave
/o {
gsave
newpath
translate
0.8 setlinewidth
1 setlinejoin
0 setlinecap
0 0 m
-3.5 0 l

gsave
0.000 setgray
fill
grestore
stroke
grestore
} bind def
57.6 217.57 o
grestore
gsave
28.334375 213.773485 translate
0.000000 rotate
0.000000 0.000000 m /zero glyphshow
6.362305 0.000000 m /period glyphshow
9.541016 0.000000 m /zero glyphshow
15.903320 0.000000 m /eight glyphshow
grestore
gsave
/o {
gsave
newpath
translate
0.8 setlinewidth
1 setlinejoin
0 setlinecap
0 0 m
-3.5 0 l

gsave
0.000 setgray
fill
grestore
stroke
grestore
} bind def
57.6 254.801 o
grestore
gsave
28.334375 251.004305 translate
0.000000 rotate
0.000000 0.000000 m /zero glyphshow
6.362305 0.000000 m /period glyphshow
9.541016 0.000000 m /one glyphshow
15.903320 0.000000 m /zero glyphshow
grestore
gsave
/o {
gsave
newpath
translate
0.8 setlinewidth
1 setlinejoin
0 setlinecap
0 0 m
-3.5 0 l

gsave
0.000 setgray
fill
grestore
stroke
grestore
} bind def
57.6 292.032 o
grestore
gsave
28.334375 288.235125 translate
0.000000 rotate
0.000000 0.000000 m /zero glyphshow
6.362305 0.000000 m /period glyphshow
9.541016 0.000000 m /one glyphshow
15.903320 0.000000 m /two glyphshow
grestore
1.500 setlinewidth
2 setlinecap
0.122 0.467 0.706 setrgbcolor
gsave
357.1 266.1 57.6 38.02 clipbox
73.832727 69.389027 m
77.112066 69.452573 l
80.391405 69.524635 l
83.670744 69.606801 l
86.950083 69.701051 l
90.229421 69.809869 l
93.50876 69.936413 l
96.788099 70.084744 l
100.067438 70.260151 l
103.346777 70.469626 l
106.626116 70.722564 l
109.905455 71.031823 l
113.184793 71.415367 l
116.464132 71.898892 l
119.743471 72.520163 l
123.02281 73.336448 l
126.302149 74.43783 l
129.581488 75.97229 l
132.860826 78.195873 l
136.140165 81.580268 l
139.419504 87.063148 l
142.698843 96.685672 l
145.978182 115.344145 l
149.257521 155.235519 l
152.53686 233.448165 l
155.816198 269.78438 l
159.095537 189.707955 l
162.374876 131.40731 l
165.654215 104.371854 l
168.933554 91.152028 l
172.212893 83.969854 l
175.492231 79.699885 l
178.77157 76.975418 l
182.050909 75.138313 l
185.330248 73.844027 l
188.609587 72.899284 l
191.888926 72.189305 l
195.168264 71.642621 l
198.447603 71.212924 l
201.726942 70.869175 l
205.006281 70.589955 l
208.28562 70.360109 l
211.564959 70.168673 l
214.844298 70.007558 l
218.123636 69.870696 l
221.402975 69.753459 l
224.682314 69.652274 l
227.961653 69.564342 l
231.240992 69.487448 l
234.520331 69.419822 l
237.799669 69.360034 l
241.079008 69.306918 l
244.358347 69.259519 l
247.637686 69.217046 l
250.917025 69.178838 l
254.196364 69.144345 l
257.475702 69.1131 l
260.755041 69.084708 l
264.03438 69.058832 l
267.313719 69.035183 l
270.593058 69.013514 l
273.872397 68.99361 l
277.151736 68.975283 l
280.431074 68.958372 l
283.710413 68.942734 l
286.989752 68.928246 l
290.269091 68.914796 l
293.54843 68.902289 l
296.827769 68.890637 l
300.107107 68.879766 l
303.386446 68.869606 l
306.665785 68.860097 l
309.945124 68.851185 l
313.224463 68.84282 l
316.503802 68.834959 l
319.78314 68.827562 l
323.062479 68.820594 l
326.341818 68.814021 l
329.621157 68.807815 l
332.900496 68.801948 l
336.179835 68.796397 l
339.459174 68.791138 l
342.738512 68.786153 l
346.017851 68.781422 l
349.29719 68.776929 l
352.576529 68.772657 l
355.855868 68.768592 l
359.135207 68.764722 l
362.414545 68.761033 l
365.693884 68.757516 l
368.973223 68.754158 l
372.252562 68.750952 l
375.531901 68.747887 l
378.81124 68.744956 l
382.090579 68.742151 l
385.369917 68.739465 l
388.649256 68.736891 l
391.928595 68.734423 l
395.207934 68.732056 l
398.487273 68.729783 l
stroke
grestore
1.000 0.498 0.055 setrgbcolor
gsave
357.1 266.1 57.6 38.02 clipbox
106.626116 83.612461 m
109.905455 86.566726 l
113.184793 87.189803 l
116.464132 85.400635 l
119.743471 81.431977 l
123.02281 75.800117 l
126.302149 69.23771 l
129.581488 62.598467 l
132.860826 56.746095 l
136.140165 52.441937 l
139.419504 50.245926 l
142.698843 50.443743 l
145.978182 53.009654 l
149.257521 57.609857 l
152.53686 63.645906 l
155.816198 70.332563 l
159.095537 76.799954 l
162.374876 82.206728 l
165.654215 85.849511 l
168.933554 87.25441 l
172.212893 86.238659 l
175.492231 82.934398 l
178.77157 77.771483 l
182.050909 71.421564 l
185.330248 64.710709 l
188.609587 58.511941 l
191.888926 53.631666 l
195.168264 50.704764 l
198.447603 50.112 l
201.726942 51.930487 l
stroke
grestore
0 setlinecap
[5.55 2.4] 0 setdash
1.000 0.000 0.000 setrgbcolor
gsave
357.1 266.1 57.6 38.02 clipbox
73.832727 68.647081 m
77.112066 68.647081 l
80.391405 68.647081 l
83.670744 68.647081 l
86.950083 68.647081 l
90.229421 68.647081 l
93.50876 68.647081 l
96.788099 68.647081 l
100.067438 68.647081 l
103.346777 68.647081 l
106.626116 68.647081 l
109.905455 68.647081 l
113.184793 68.647081 l
116.464132 68.647081 l
119.743471 68.647081 l
123.02281 68.647081 l
126.302149 68.647081 l
129.581488 68.647081 l
132.860826 68.647081 l
136.140165 68.647081 l
139.419504 68.647081 l
142.698843 68.647081 l
145.978182 68.647081 l
149.257521 68.647081 l
152.53686 68.647081 l
155.816198 68.647081 l
159.095537 68.647081 l
162.374876 68.647081 l
165.654215 68.647081 l
168.933554 68.647081 l
172.212893 68.647081 l
175.492231 68.647081 l
178.77157 68.647081 l
182.050909 68.647081 l
185.330248 68.647081 l
188.609587 68.647081 l
191.888926 68.647081 l
195.168264 68.647081 l
198.447603 68.647081 l
201.726942 68.647081 l
205.006281 68.647081 l
208.28562 68.647081 l
211.564959 68.647081 l
214.844298 68.647081 l
218.123636 68.647081 l
221.402975 68.647081 l
224.682314 68.647081 l
227.961653 68.647081 l
231.240992 68.647081 l
234.520331 68.647081 l
237.799669 68.647081 l
241.079008 68.647081 l
244.358347 68.647081 l
247.637686 68.647081 l
250.917025 68.647081 l
254.196364 68.647081 l
257.475702 68.647081 l
260.755041 68.647081 l
264.03438 68.647081 l
267.313719 68.647081 l
270.593058 68.647081 l
273.872397 68.647081 l
277.151736 68.647081 l
280.431074 68.647081 l
283.710413 68.647081 l
286.989752 68.647081 l
290.269091 68.647081 l
293.54843 68.647081 l
296.827769 68.647081 l
300.107107 68.647081 l
303.386446 68.647081 l
306.665785 68.647081 l
309.945124 68.647081 l
313.224463 68.647081 l
316.503802 68.647081 l
319.78314 68.647081 l
323.062479 68.647081 l
326.341818 68.647081 l
329.621157 68.647081 l
332.900496 68.647081 l
336.179835 68.647081 l
339.459174 68.647081 l
342.738512 68.647081 l
346.017851 68.647081 l
349.29719 68.647081 l
352.576529 68.647081 l
355.855868 68.647081 l
359.135207 68.647081 l
362.414545 68.647081 l
365.693884 68.647081 l
368.973223 68.647081 l
372.252562 68.647081 l
375.531901 68.647081 l
378.81124 68.647081 l
382.090579 68.647081 l
385.369917 68.647081 l
388.649256 68.647081 l
391.928595 68.647081 l
395.207934 68.647081 l
398.487273 68.647081 l
stroke
grestore
0.173 0.627 0.173 setrgbcolor
gsave
357.1 266.1 57.6 38.02 clipbox
154.996364 68.647081 m
154.996364 70.903494 l
154.996364 73.159908 l
154.996364 75.416321 l
154.996364 77.672734 l
154.996364 79.929148 l
154.996364 82.185561 l
154.996364 84.441974 l
154.996364 86.698388 l
154.996364 88.954801 l
154.996364 91.211214 l
154.996364 93.467628 l
154.996364 95.724041 l
154.996364 97.980454 l
154.996364 100.236868 l
154.996364 102.493281 l
154.996364 104.749694 l
154.996364 107.006108 l
154.996364 109.262521 l
154.996364 111.518934 l
154.996364 113.775348 l
154.996364 116.031761 l
154.996364 118.288174 l
154.996364 120.544588 l
154.996364 122.801001 l
154.996364 125.057414 l
154.996364 127.313828 l
154.996364 129.570241 l
154.996364 131.826654 l
154.996364 134.083067 l
154.996364 136.339481 l
154.996364 138.595894 l
154.996364 140.852307 l
154.996364 143.108721 l
154.996364 145.365134 l
154.996364 147.621547 l
154.996364 149.877961 l
154.996364 152.134374 l
154.996364 154.390787 l
154.996364 156.647201 l
154.996364 158.903614 l
154.996364 161.160027 l
154.996364 163.416441 l
154.996364 165.672854 l
154.996364 167.929267 l
154.996364 170.185681 l
154.996364 172.442094 l
154.996364 174.698507 l
154.996364 176.954921 l
154.996364 179.211334 l
154.996364 181.467747 l
154.996364 183.724161 l
154.996364 185.980574 l
154.996364 188.236987 l
154.996364 190.493401 l
154.996364 192.749814 l
154.996364 195.006227 l
154.996364 197.26264 l
154.996364 199.519054 l
154.996364 201.775467 l
154.996364 204.03188 l
154.996364 206.288294 l
154.996364 208.544707 l
154.996364 210.80112 l
154.996364 213.057534 l
154.996364 215.313947 l
154.996364 217.57036 l
154.996364 219.826774 l
154.996364 222.083187 l
154.996364 224.3396 l
154.996364 226.596014 l
154.996364 228.852427 l
154.996364 231.10884 l
154.996364 233.365254 l
154.996364 235.621667 l
154.996364 237.87808 l
154.996364 240.134494 l
154.996364 242.390907 l
154.996364 244.64732 l
154.996364 246.903734 l
154.996364 249.160147 l
154.996364 251.41656 l
154.996364 253.672974 l
154.996364 255.929387 l
154.996364 258.1858 l
154.996364 260.442213 l
154.996364 262.698627 l
154.996364 264.95504 l
154.996364 267.211453 l
154.996364 269.467867 l
154.996364 271.72428 l
154.996364 273.980693 l
154.996364 276.237107 l
154.996364 278.49352 l
154.996364 280.749933 l
154.996364 283.006347 l
154.996364 285.26276 l
154.996364 287.519173 l
154.996364 289.775587 l
154.996364 292.032 l
stroke
grestore
0.800 setlinewidth
0 setlinejoin
2 setlinecap
[] 0 setdash
0.000 setgray
gsave
57.6 38.016 m
57.6 304.128 l
stroke
grestore
gsave
414.72 38.016 m
414.72 304.128 l
stroke
grestore
gsave
57.6 38.016 m
414.72 38.016 l
stroke
grestore
gsave
57.6 304.128 m
414.72 304.128 l
stroke
grestore
1.000 setlinewidth
0 setlinecap
0.800 setgray
gsave
266.845 259.456125 m
407.72 259.456125 l
409.053333 259.456125 409.72 260.122792 409.72 261.456125 c
409.72 297.128 l
409.72 298.461333 409.053333 299.128 407.72 299.128 c
266.845 299.128 l
265.511667 299.128 264.845 298.461333 264.845 297.128 c
264.845 261.456125 l
264.845 260.122792 265.511667 259.456125 266.845 259.456125 c
cl
gsave
1.000 setgray
fill
grestore
stroke
grestore
1.500 setlinewidth
1 setlinejoin
2 setlinecap
[] 0 setdash
0.122 0.467 0.706 setrgbcolor
gsave
268.845 288.628 m
288.845 288.628 l
stroke
grestore
0.000 setgray
gsave
296.845000 285.128000 translate
0.000000 rotate
/DejaVuSans findfont
7.0 scalefont
setfont
22.000000 4.892188 moveto
/one glyphshow

0.000000 2.392188 47.975863 0.625000 rectfill
0.000000 -4.549219 moveto
/parenleft glyphshow

/DejaVuSans-Oblique findfont
7.0 scalefont
setfont
2.730957 -4.549219 moveto
/omega glyphshow

/DejaVuSans findfont
7.0 scalefont
setfont
9.956543 -4.549219 moveto
/minus glyphshow

/DejaVuSans-Oblique findfont
7.0 scalefont
setfont
17.185547 -4.549219 moveto
/sigma glyphshow

/DejaVuSans-Oblique findfont
4.8999999999999995 scalefont
setfont
21.622070 -5.697656 moveto
/R glyphshow

/DejaVuSans findfont
7.0 scalefont
setfont
25.218115 -4.549219 moveto
/parenright glyphshow

/DejaVuSans findfont
4.8999999999999995 scalefont
setfont
28.016064 -1.869531 moveto
/two glyphshow

/DejaVuSans findfont
7.0 scalefont
setfont
32.688770 -4.549219 moveto
/plus glyphshow

/DejaVuSans-Oblique findfont
7.0 scalefont
setfont
39.917773 -4.549219 moveto
/sigma glyphshow

/DejaVuSans findfont
4.8999999999999995 scalefont
setfont
44.666927 -1.869531 moveto
/two glyphshow

/DejaVuSans-Oblique findfont
4.8999999999999995 scalefont
setfont
44.354297 -6.463281 moveto
/I glyphshow


grestore
1.000 0.498 0.055 setrgbcolor
gsave
268.845 269.03425 m
288.845 269.03425 l
stroke
grestore
0.000 setgray
gsave
296.845000 265.534250 translate
0.000000 rotate
0.000000 0.000000 m /H glyphshow
7.519531 0.000000 m /o glyphshow
13.637695 0.000000 m /m glyphshow
23.378906 0.000000 m /o glyphshow
29.497070 0.000000 m /g glyphshow
35.844727 0.000000 m /e glyphshow
41.997070 0.000000 m /n glyphshow
48.334961 0.000000 m /o glyphshow
54.453125 0.000000 m /u glyphshow
60.791016 0.000000 m /s glyphshow
66.000977 0.000000 m /space glyphshow
69.179688 0.000000 m /s glyphshow
74.389648 0.000000 m /o glyphshow
80.507812 0.000000 m /l glyphshow
83.286133 0.000000 m /u glyphshow
89.624023 0.000000 m /t glyphshow
93.544922 0.000000 m /i glyphshow
96.323242 0.000000 m /o glyphshow
102.441406 0.000000 m /n glyphshow
grestore

end
showpage
