%!PS-Adobe-3.0 EPSF-3.0
%%Title: /home/ian/normResult.eps
%%Creator: matplotlib version 3.1.1, http://matplotlib.org/
%%CreationDate: Mon Aug 17 11:26:18 2020
%%Orientation: portrait
%%BoundingBox: 75.6 223.20000000000002 536.4 568.8
%%EndComments
%%BeginProlog
/mpldict 9 dict def
mpldict begin
/m { moveto } bind def
/l { lineto } bind def
/r { rlineto } bind def
/c { curveto } bind def
/cl { closepath } bind def
/box {
m
1 index 0 r
0 exch r
neg 0 r
cl
} bind def
/clipbox {
box
clip
newpath
} bind def
%!PS-Adobe-3.0 Resource-Font
%%Title: DejaVu Sans
%%Copyright: Copyright (c) 2003 by Bitstream, Inc. All Rights Reserved. Copyright (c) 2006 by Tavmjong Bah. All Rights Reserved. DejaVu changes are in public domain 
%%Creator: Converted from TrueType to type 3 by PPR
25 dict begin
/_d{bind def}bind def
/_m{moveto}_d
/_l{lineto}_d
/_cl{closepath eofill}_d
/_c{curveto}_d
/_sc{7 -1 roll{setcachedevice}{pop pop pop pop pop pop}ifelse}_d
/_e{exec}_d
/FontName /DejaVuSans def
/PaintType 0 def
/FontMatrix[.001 0 0 .001 0 0]def
/FontBBox[-1021 -463 1793 1232]def
/FontType 3 def
/Encoding [ /space /parenleft /parenright /period /slash /zero /one /two /four /five /six /seven /eight /semicolon /M /O /R /V /a /b /c /d /e /f /g /i /l /n /o /p /r /s /t /u /v /Phi /minus ] def
/FontInfo 10 dict dup begin
/FamilyName (DejaVu Sans) def
/FullName (DejaVu Sans) def
/Notice (Copyright (c) 2003 by Bitstream, Inc. All Rights Reserved. Copyright (c) 2006 by Tavmjong Bah. All Rights Reserved. DejaVu changes are in public domain ) def
/Weight (Book) def
/Version (Version 2.35) def
/ItalicAngle 0.0 def
/isFixedPitch false def
/UnderlinePosition -130 def
/UnderlineThickness 90 def
end readonly def
/CharStrings 38 dict dup begin
/.notdef 0 def
/space{318 0 0 0 0 0 _sc
}_d
/parenleft{390 0 86 -131 310 759 _sc
310 759 _m
266 683 234 609 213 536 _c
191 463 181 389 181 314 _c
181 238 191 164 213 91 _c
234 17 266 -56 310 -131 _c
232 -131 _l
183 -54 146 20 122 94 _c
98 168 86 241 86 314 _c
86 386 98 459 122 533 _c
146 607 182 682 232 759 _c
310 759 _l
_cl}_d
/parenright{390 0 80 -131 304 759 _sc
80 759 _m
158 759 _l
206 682 243 607 267 533 _c
291 459 304 386 304 314 _c
304 241 291 168 267 94 _c
243 20 206 -54 158 -131 _c
80 -131 _l
123 -56 155 17 177 91 _c
198 164 209 238 209 314 _c
209 389 198 463 177 536 _c
155 609 123 683 80 759 _c
_cl}_d
/period{318 0 107 0 210 124 _sc
107 124 _m
210 124 _l
210 0 _l
107 0 _l
107 124 _l
_cl}_d
/slash{337 0 0 -92 337 729 _sc
254 729 _m
337 729 _l
83 -92 _l
0 -92 _l
254 729 _l
_cl}_d
/zero{636 0 66 -13 570 742 _sc
318 664 _m
267 664 229 639 203 589 _c
177 539 165 464 165 364 _c
165 264 177 189 203 139 _c
229 89 267 64 318 64 _c
369 64 407 89 433 139 _c
458 189 471 264 471 364 _c
471 464 458 539 433 589 _c
407 639 369 664 318 664 _c
318 742 _m
399 742 461 709 505 645 _c
548 580 570 486 570 364 _c
570 241 548 147 505 83 _c
461 19 399 -13 318 -13 _c
236 -13 173 19 130 83 _c
87 147 66 241 66 364 _c
66 486 87 580 130 645 _c
173 709 236 742 318 742 _c
_cl}_d
/one{636 0 110 0 544 729 _sc
124 83 _m
285 83 _l
285 639 _l
110 604 _l
110 694 _l
284 729 _l
383 729 _l
383 83 _l
544 83 _l
544 0 _l
124 0 _l
124 83 _l
_cl}_d
/two{{636 0 73 0 536 742 _sc
192 83 _m
536 83 _l
536 0 _l
73 0 _l
73 83 _l
110 121 161 173 226 239 _c
290 304 331 346 348 365 _c
380 400 402 430 414 455 _c
426 479 433 504 433 528 _c
433 566 419 598 392 622 _c
365 646 330 659 286 659 _c
255 659 222 653 188 643 _c
154 632 117 616 78 594 _c
78 694 _l
118 710 155 722 189 730 _c
223 738 255 742 284 742 _c
}_e{359 742 419 723 464 685 _c
509 647 532 597 532 534 _c
532 504 526 475 515 449 _c
504 422 484 390 454 354 _c
446 344 420 317 376 272 _c
332 227 271 164 192 83 _c
_cl}_e}_d
/four{636 0 49 0 580 729 _sc
378 643 _m
129 254 _l
378 254 _l
378 643 _l
352 729 _m
476 729 _l
476 254 _l
580 254 _l
580 172 _l
476 172 _l
476 0 _l
378 0 _l
378 172 _l
49 172 _l
49 267 _l
352 729 _l
_cl}_d
/five{{636 0 77 -13 549 729 _sc
108 729 _m
495 729 _l
495 646 _l
198 646 _l
198 467 _l
212 472 227 476 241 478 _c
255 480 270 482 284 482 _c
365 482 429 459 477 415 _c
525 370 549 310 549 234 _c
549 155 524 94 475 51 _c
426 8 357 -13 269 -13 _c
238 -13 207 -10 175 -6 _c
143 -1 111 6 77 17 _c
77 116 _l
106 100 136 88 168 80 _c
199 72 232 69 267 69 _c
}_e{323 69 368 83 401 113 _c
433 143 450 183 450 234 _c
450 284 433 324 401 354 _c
368 384 323 399 267 399 _c
241 399 214 396 188 390 _c
162 384 135 375 108 363 _c
108 729 _l
_cl}_e}_d
/six{{636 0 70 -13 573 742 _sc
330 404 _m
286 404 251 388 225 358 _c
199 328 186 286 186 234 _c
186 181 199 139 225 109 _c
251 79 286 64 330 64 _c
374 64 409 79 435 109 _c
461 139 474 181 474 234 _c
474 286 461 328 435 358 _c
409 388 374 404 330 404 _c
526 713 _m
526 623 _l
501 635 476 644 451 650 _c
425 656 400 659 376 659 _c
310 659 260 637 226 593 _c
}_e{192 549 172 482 168 394 _c
187 422 211 444 240 459 _c
269 474 301 482 336 482 _c
409 482 467 459 509 415 _c
551 371 573 310 573 234 _c
573 159 550 99 506 54 _c
462 9 403 -13 330 -13 _c
246 -13 181 19 137 83 _c
92 147 70 241 70 364 _c
70 479 97 571 152 639 _c
206 707 280 742 372 742 _c
396 742 421 739 447 735 _c
472 730 498 723 526 713 _c
_cl}_e}_d
/seven{636 0 82 0 551 729 _sc
82 729 _m
551 729 _l
551 687 _l
286 0 _l
183 0 _l
432 646 _l
82 646 _l
82 729 _l
_cl}_d
/eight{{636 0 68 -13 568 742 _sc
318 346 _m
271 346 234 333 207 308 _c
180 283 167 249 167 205 _c
167 161 180 126 207 101 _c
234 76 271 64 318 64 _c
364 64 401 76 428 102 _c
455 127 469 161 469 205 _c
469 249 455 283 429 308 _c
402 333 365 346 318 346 _c
219 388 _m
177 398 144 418 120 447 _c
96 476 85 511 85 553 _c
85 611 105 657 147 691 _c
188 725 245 742 318 742 _c
}_e{390 742 447 725 489 691 _c
530 657 551 611 551 553 _c
551 511 539 476 515 447 _c
491 418 459 398 417 388 _c
464 377 501 355 528 323 _c
554 291 568 251 568 205 _c
568 134 546 80 503 43 _c
459 5 398 -13 318 -13 _c
237 -13 175 5 132 43 _c
89 80 68 134 68 205 _c
68 251 81 291 108 323 _c
134 355 171 377 219 388 _c
183 544 _m
183 506 194 476 218 455 _c
}_e{242 434 275 424 318 424 _c
360 424 393 434 417 455 _c
441 476 453 506 453 544 _c
453 582 441 611 417 632 _c
393 653 360 664 318 664 _c
275 664 242 653 218 632 _c
194 611 183 582 183 544 _c
_cl}_e}_d
/semicolon{337 0 77 -115 220 517 _sc
117 517 _m
220 517 _l
220 393 _l
117 393 _l
117 517 _l
117 124 _m
220 124 _l
220 40 _l
140 -115 _l
77 -115 _l
117 40 _l
117 124 _l
_cl}_d
/M{863 0 98 0 765 729 _sc
98 729 _m
245 729 _l
431 233 _l
618 729 _l
765 729 _l
765 0 _l
669 0 _l
669 640 _l
481 140 _l
382 140 _l
194 640 _l
194 0 _l
98 0 _l
98 729 _l
_cl}_d
/O{787 0 56 -13 731 742 _sc
394 662 _m
322 662 265 635 223 582 _c
181 528 160 456 160 364 _c
160 272 181 199 223 146 _c
265 92 322 66 394 66 _c
465 66 522 92 564 146 _c
606 199 627 272 627 364 _c
627 456 606 528 564 582 _c
522 635 465 662 394 662 _c
394 742 _m
496 742 577 707 639 639 _c
700 571 731 479 731 364 _c
731 248 700 157 639 89 _c
577 21 496 -13 394 -13 _c
291 -13 209 21 148 89 _c
86 157 56 248 56 364 _c
56 479 86 571 148 639 _c
209 707 291 742 394 742 _c
_cl}_d
/R{{695 0 98 0 666 729 _sc
444 342 _m
465 334 486 319 506 296 _c
526 272 546 240 566 199 _c
666 0 _l
560 0 _l
467 187 _l
443 235 419 268 397 284 _c
374 300 343 308 304 308 _c
197 308 _l
197 0 _l
98 0 _l
98 729 _l
321 729 _l
404 729 466 711 507 677 _c
548 642 569 589 569 519 _c
569 473 558 434 537 404 _c
515 374 484 353 444 342 _c
197 648 _m
197 389 _l
321 389 _l
}_e{368 389 404 400 428 422 _c
452 444 465 476 465 519 _c
465 561 452 593 428 615 _c
404 637 368 648 321 648 _c
197 648 _l
_cl}_e}_d
/V{684 0 8 0 676 729 _sc
286 0 _m
8 729 _l
111 729 _l
342 115 _l
573 729 _l
676 729 _l
398 0 _l
286 0 _l
_cl}_d
/a{{613 0 60 -13 522 560 _sc
343 275 _m
270 275 220 266 192 250 _c
164 233 150 205 150 165 _c
150 133 160 107 181 89 _c
202 70 231 61 267 61 _c
317 61 357 78 387 114 _c
417 149 432 196 432 255 _c
432 275 _l
343 275 _l
522 312 _m
522 0 _l
432 0 _l
432 83 _l
411 49 385 25 355 10 _c
325 -5 287 -13 243 -13 _c
187 -13 142 2 109 33 _c
76 64 60 106 60 159 _c
}_e{60 220 80 266 122 298 _c
163 329 224 345 306 345 _c
432 345 _l
432 354 _l
432 395 418 427 391 450 _c
364 472 326 484 277 484 _c
245 484 215 480 185 472 _c
155 464 127 453 100 439 _c
100 522 _l
132 534 164 544 195 550 _c
226 556 256 560 286 560 _c
365 560 424 539 463 498 _c
502 457 522 395 522 312 _c
_cl}_e}_d
/b{{635 0 91 -13 580 760 _sc
487 273 _m
487 339 473 390 446 428 _c
418 466 381 485 334 485 _c
286 485 249 466 222 428 _c
194 390 181 339 181 273 _c
181 207 194 155 222 117 _c
249 79 286 61 334 61 _c
381 61 418 79 446 117 _c
473 155 487 207 487 273 _c
181 464 _m
199 496 223 520 252 536 _c
281 552 316 560 356 560 _c
422 560 476 533 518 481 _c
559 428 580 359 580 273 _c
}_e{580 187 559 117 518 65 _c
476 13 422 -13 356 -13 _c
316 -13 281 -5 252 10 _c
223 25 199 49 181 82 _c
181 0 _l
91 0 _l
91 760 _l
181 760 _l
181 464 _l
_cl}_e}_d
/c{{550 0 55 -13 488 560 _sc
488 526 _m
488 442 _l
462 456 437 466 411 473 _c
385 480 360 484 334 484 _c
276 484 230 465 198 428 _c
166 391 150 339 150 273 _c
150 206 166 154 198 117 _c
230 80 276 62 334 62 _c
360 62 385 65 411 72 _c
437 79 462 90 488 104 _c
488 21 _l
462 9 436 0 410 -5 _c
383 -10 354 -13 324 -13 _c
242 -13 176 12 128 64 _c
}_e{79 115 55 185 55 273 _c
55 362 79 432 128 483 _c
177 534 244 560 330 560 _c
358 560 385 557 411 551 _c
437 545 463 537 488 526 _c
_cl}_e}_d
/d{{635 0 55 -13 544 760 _sc
454 464 _m
454 760 _l
544 760 _l
544 0 _l
454 0 _l
454 82 _l
435 49 411 25 382 10 _c
353 -5 319 -13 279 -13 _c
213 -13 159 13 117 65 _c
75 117 55 187 55 273 _c
55 359 75 428 117 481 _c
159 533 213 560 279 560 _c
319 560 353 552 382 536 _c
411 520 435 496 454 464 _c
148 273 _m
148 207 161 155 188 117 _c
215 79 253 61 301 61 _c
}_e{348 61 385 79 413 117 _c
440 155 454 207 454 273 _c
454 339 440 390 413 428 _c
385 466 348 485 301 485 _c
253 485 215 466 188 428 _c
161 390 148 339 148 273 _c
_cl}_e}_d
/e{{615 0 55 -13 562 560 _sc
562 296 _m
562 252 _l
149 252 _l
153 190 171 142 205 110 _c
238 78 284 62 344 62 _c
378 62 412 66 444 74 _c
476 82 509 95 541 113 _c
541 28 _l
509 14 476 3 442 -3 _c
408 -9 373 -13 339 -13 _c
251 -13 182 12 131 62 _c
80 112 55 181 55 268 _c
55 357 79 428 127 481 _c
175 533 241 560 323 560 _c
397 560 455 536 498 489 _c
}_e{540 441 562 377 562 296 _c
472 322 _m
471 371 457 410 431 440 _c
404 469 368 484 324 484 _c
274 484 234 469 204 441 _c
174 413 156 373 152 322 _c
472 322 _l
_cl}_e}_d
/f{352 0 23 0 371 760 _sc
371 760 _m
371 685 _l
285 685 _l
253 685 230 678 218 665 _c
205 652 199 629 199 595 _c
199 547 _l
347 547 _l
347 477 _l
199 477 _l
199 0 _l
109 0 _l
109 477 _l
23 477 _l
23 547 _l
109 547 _l
109 585 _l
109 645 123 690 151 718 _c
179 746 224 760 286 760 _c
371 760 _l
_cl}_d
/g{{635 0 55 -207 544 560 _sc
454 280 _m
454 344 440 395 414 431 _c
387 467 349 485 301 485 _c
253 485 215 467 188 431 _c
161 395 148 344 148 280 _c
148 215 161 165 188 129 _c
215 93 253 75 301 75 _c
349 75 387 93 414 129 _c
440 165 454 215 454 280 _c
544 68 _m
544 -24 523 -93 482 -139 _c
440 -184 377 -207 292 -207 _c
260 -207 231 -204 203 -200 _c
175 -195 147 -188 121 -178 _c
}_e{121 -91 _l
147 -105 173 -115 199 -122 _c
225 -129 251 -133 278 -133 _c
336 -133 380 -117 410 -87 _c
439 -56 454 -10 454 52 _c
454 96 _l
435 64 411 40 382 24 _c
353 8 319 0 279 0 _c
211 0 157 25 116 76 _c
75 127 55 195 55 280 _c
55 364 75 432 116 483 _c
157 534 211 560 279 560 _c
319 560 353 552 382 536 _c
411 520 435 496 454 464 _c
454 547 _l
544 547 _l
}_e{544 68 _l
_cl}_e}_d
/i{278 0 94 0 184 760 _sc
94 547 _m
184 547 _l
184 0 _l
94 0 _l
94 547 _l
94 760 _m
184 760 _l
184 646 _l
94 646 _l
94 760 _l
_cl}_d
/l{278 0 94 0 184 760 _sc
94 760 _m
184 760 _l
184 0 _l
94 0 _l
94 760 _l
_cl}_d
/n{634 0 91 0 549 560 _sc
549 330 _m
549 0 _l
459 0 _l
459 327 _l
459 379 448 417 428 443 _c
408 469 378 482 338 482 _c
289 482 251 466 223 435 _c
195 404 181 362 181 309 _c
181 0 _l
91 0 _l
91 547 _l
181 547 _l
181 462 _l
202 494 227 519 257 535 _c
286 551 320 560 358 560 _c
420 560 468 540 500 501 _c
532 462 549 405 549 330 _c
_cl}_d
/o{612 0 55 -13 557 560 _sc
306 484 _m
258 484 220 465 192 427 _c
164 389 150 338 150 273 _c
150 207 163 156 191 118 _c
219 80 257 62 306 62 _c
354 62 392 80 420 118 _c
448 156 462 207 462 273 _c
462 337 448 389 420 427 _c
392 465 354 484 306 484 _c
306 560 _m
384 560 445 534 490 484 _c
534 433 557 363 557 273 _c
557 183 534 113 490 63 _c
445 12 384 -13 306 -13 _c
227 -13 165 12 121 63 _c
77 113 55 183 55 273 _c
55 363 77 433 121 484 _c
165 534 227 560 306 560 _c
_cl}_d
/p{{635 0 91 -207 580 560 _sc
181 82 _m
181 -207 _l
91 -207 _l
91 547 _l
181 547 _l
181 464 _l
199 496 223 520 252 536 _c
281 552 316 560 356 560 _c
422 560 476 533 518 481 _c
559 428 580 359 580 273 _c
580 187 559 117 518 65 _c
476 13 422 -13 356 -13 _c
316 -13 281 -5 252 10 _c
223 25 199 49 181 82 _c
487 273 _m
487 339 473 390 446 428 _c
418 466 381 485 334 485 _c
}_e{286 485 249 466 222 428 _c
194 390 181 339 181 273 _c
181 207 194 155 222 117 _c
249 79 286 61 334 61 _c
381 61 418 79 446 117 _c
473 155 487 207 487 273 _c
_cl}_e}_d
/r{411 0 91 0 411 560 _sc
411 463 _m
401 469 390 473 378 476 _c
366 478 353 480 339 480 _c
288 480 249 463 222 430 _c
194 397 181 350 181 288 _c
181 0 _l
91 0 _l
91 547 _l
181 547 _l
181 462 _l
199 495 224 520 254 536 _c
284 552 321 560 365 560 _c
371 560 378 559 386 559 _c
393 558 401 557 411 555 _c
411 463 _l
_cl}_d
/s{{521 0 54 -13 472 560 _sc
443 531 _m
443 446 _l
417 458 391 468 364 475 _c
336 481 308 485 279 485 _c
234 485 200 478 178 464 _c
156 450 145 430 145 403 _c
145 382 153 366 169 354 _c
185 342 217 330 265 320 _c
296 313 _l
360 299 405 279 432 255 _c
458 230 472 195 472 151 _c
472 100 452 60 412 31 _c
372 1 316 -13 246 -13 _c
216 -13 186 -10 154 -5 _c
}_e{122 0 89 8 54 20 _c
54 113 _l
87 95 120 82 152 74 _c
184 65 216 61 248 61 _c
290 61 323 68 346 82 _c
368 96 380 117 380 144 _c
380 168 371 187 355 200 _c
339 213 303 226 247 238 _c
216 245 _l
160 257 119 275 95 299 _c
70 323 58 356 58 399 _c
58 450 76 490 112 518 _c
148 546 200 560 268 560 _c
301 560 332 557 362 552 _c
391 547 418 540 443 531 _c
}_e{_cl}_e}_d
/t{392 0 27 0 368 702 _sc
183 702 _m
183 547 _l
368 547 _l
368 477 _l
183 477 _l
183 180 _l
183 135 189 106 201 94 _c
213 81 238 75 276 75 _c
368 75 _l
368 0 _l
276 0 _l
206 0 158 13 132 39 _c
106 65 93 112 93 180 _c
93 477 _l
27 477 _l
27 547 _l
93 547 _l
93 702 _l
183 702 _l
_cl}_d
/u{634 0 85 -13 543 560 _sc
85 216 _m
85 547 _l
175 547 _l
175 219 _l
175 167 185 129 205 103 _c
225 77 255 64 296 64 _c
344 64 383 79 411 110 _c
439 141 453 183 453 237 _c
453 547 _l
543 547 _l
543 0 _l
453 0 _l
453 84 _l
431 50 405 26 377 10 _c
348 -5 315 -13 277 -13 _c
214 -13 166 6 134 45 _c
101 83 85 140 85 216 _c
311 560 _m
311 560 _l
_cl}_d
/v{592 0 30 0 562 547 _sc
30 547 _m
125 547 _l
296 88 _l
467 547 _l
562 547 _l
357 0 _l
235 0 _l
30 547 _l
_cl}_d
/Phi{{787 0 56 0 731 729 _sc
345 569 _m
295 562 255 545 224 517 _c
181 479 160 428 160 364 _c
160 300 181 249 224 211 _c
255 183 295 165 345 159 _c
345 569 _l
443 159 _m
492 165 532 183 564 211 _c
606 249 627 300 627 364 _c
627 428 606 479 564 517 _c
532 545 492 562 443 569 _c
443 159 _l
345 77 _m
265 84 200 109 148 153 _c
86 205 56 275 56 364 _c
56 452 86 522 148 575 _c
}_e{199 619 265 644 345 651 _c
345 729 _l
443 729 _l
443 651 _l
523 643 588 618 639 575 _c
700 522 731 452 731 364 _c
731 276 700 205 639 153 _c
588 109 523 84 443 77 _c
443 0 _l
345 0 _l
345 77 _l
_cl}_e}_d
/minus{838 0 106 272 732 355 _sc
106 355 _m
732 355 _l
732 272 _l
106 272 _l
106 355 _l
_cl}_d
end readonly def

/BuildGlyph
 {exch begin
 CharStrings exch
 2 copy known not{pop /.notdef}if
 true 3 1 roll get exec
 end}_d

/BuildChar {
 1 index /Encoding get exch get
 1 index /BuildGlyph get exec
}_d

FontName currentdict end definefont pop
%!PS-Adobe-3.0 Resource-Font
%%Title: DejaVu Sans Oblique
%%Copyright: Copyright (c) 2003 by Bitstream, Inc. All Rights Reserved. Copyright (c) 2006 by Tavmjong Bah. All Rights Reserved. DejaVu changes are in public domain 
%%Creator: Converted from TrueType to type 3 by PPR
25 dict begin
/_d{bind def}bind def
/_m{moveto}_d
/_l{lineto}_d
/_cl{closepath eofill}_d
/_c{curveto}_d
/_sc{7 -1 roll{setcachedevice}{pop pop pop pop pop pop}ifelse}_d
/_e{exec}_d
/FontName /DejaVuSans-Oblique def
/PaintType 0 def
/FontMatrix[.001 0 0 .001 0 0]def
/FontBBox[-1016 -350 1659 1068]def
/FontType 3 def
/Encoding [ /R /sigma /omega ] def
/FontInfo 10 dict dup begin
/FamilyName (DejaVu Sans) def
/FullName (DejaVu Sans Oblique) def
/Notice (Copyright (c) 2003 by Bitstream, Inc. All Rights Reserved. Copyright (c) 2006 by Tavmjong Bah. All Rights Reserved. DejaVu changes are in public domain ) def
/Weight (Oblique) def
/Version (Version 2.35) def
/ItalicAngle -11.0 def
/isFixedPitch false def
/UnderlinePosition -130 def
/UnderlineThickness 90 def
end readonly def
/CharStrings 4 dict dup begin
/.notdef 0 def
/R{{695 0 27 0 600 729 _sc
252 648 _m
202 389 _l
329 389 _l
379 389 419 402 450 430 _c
480 458 496 494 496 538 _c
496 573 485 600 465 619 _c
444 638 414 648 376 648 _c
252 648 _l
433 350 _m
453 345 471 333 485 314 _c
499 294 515 256 533 199 _c
595 0 _l
491 0 _l
434 187 _l
419 235 402 267 383 283 _c
363 299 334 308 295 308 _c
186 308 _l
126 0 _l
27 0 _l
169 729 _l
}_e{391 729 _l
458 729 510 713 546 683 _c
582 653 600 609 600 552 _c
600 501 584 457 554 420 _c
523 382 483 359 433 350 _c
_cl}_e}_d
/sigma{{634 0 57 -13 659 547 _sc
347 476 _m
297 476 255 458 222 422 _c
186 384 163 335 151 273 _c
138 207 142 156 163 118 _c
183 80 218 62 267 62 _c
314 62 355 81 391 119 _c
426 156 450 207 463 273 _c
474 332 470 382 450 422 _c
431 458 397 476 347 476 _c
361 547 _m
659 547 _l
642 457 _l
541 457 _l
566 406 572 345 559 273 _c
541 183 505 113 451 63 _c
396 12 329 -13 251 -13 _c
}_e{173 -13 116 12 82 63 _c
47 113 39 183 57 273 _c
74 363 110 433 164 484 _c
209 526 275 547 361 547 _c
_cl}_e}_d
/omega{{837 0 68 -13 771 547 _sc
214 -13 _m
78 -13 30 83 68 276 _c
82 352 125 443 196 547 _c
293 547 _l
225 443 184 351 170 273 _c
142 132 164 62 237 62 _c
304 62 354 149 387 325 _c
470 325 _l
434 149 450 61 518 62 _c
590 62 640 133 668 273 _c
682 351 677 443 651 547 _c
748 547 _l
778 443 785 352 771 276 _c
733 82 647 -13 512 -13 _c
423 -13 383 35 391 132 _c
}_e{359 35 300 -13 214 -13 _c
_cl}_e}_d
end readonly def

/BuildGlyph
 {exch begin
 CharStrings exch
 2 copy known not{pop /.notdef}if
 true 3 1 roll get exec
 end}_d

/BuildChar {
 1 index /Encoding get exch get
 1 index /BuildGlyph get exec
}_d

FontName currentdict end definefont pop
end
%%EndProlog
mpldict begin
75.6 223.2 translate
460.8 345.6 0 0 clipbox
gsave
0 0 m
460.8 0 l
460.8 345.6 l
0 345.6 l
cl
1.000 setgray
fill
grestore
gsave
57.6 171.072 m
414.72 171.072 l
414.72 304.128 l
57.6 304.128 l
cl
1.000 setgray
fill
grestore
0.800 setlinewidth
1 setlinejoin
2 setlinecap
[] 0 setdash
0.690 setgray
gsave
357.1 133.1 57.6 171.1 clipbox
69.156226 171.072 m
69.156226 304.128 l
stroke
grestore
0 setlinecap
0.000 setgray
gsave
/o {
gsave
newpath
translate
0.8 setlinewidth
1 setlinejoin
0 setlinecap
0 0 m
0 -3.5 l

gsave
0.000 setgray
fill
grestore
stroke
grestore
} bind def
69.1562 171.072 o
grestore
/DejaVuSans findfont
10.000 scalefont
setfont
gsave
65.976539 156.478250 translate
0.000000 rotate
0.000000 0.000000 m /zero glyphshow
grestore
2 setlinecap
0.690 setgray
gsave
357.1 133.1 57.6 171.1 clipbox
110.322607 171.072 m
110.322607 304.128 l
stroke
grestore
0 setlinecap
0.000 setgray
gsave
/o {
gsave
newpath
translate
0.8 setlinewidth
1 setlinejoin
0 setlinecap
0 0 m
0 -3.5 l

gsave
0.000 setgray
fill
grestore
stroke
grestore
} bind def
110.323 171.072 o
grestore
gsave
103.963232 156.478250 translate
0.000000 rotate
0.000000 0.000000 m /two glyphshow
6.362305 0.000000 m /five glyphshow
grestore
2 setlinecap
0.690 setgray
gsave
357.1 133.1 57.6 171.1 clipbox
151.488988 171.072 m
151.488988 304.128 l
stroke
grestore
0 setlinecap
0.000 setgray
gsave
/o {
gsave
newpath
translate
0.8 setlinewidth
1 setlinejoin
0 setlinecap
0 0 m
0 -3.5 l

gsave
0.000 setgray
fill
grestore
stroke
grestore
} bind def
151.489 171.072 o
grestore
gsave
145.129613 156.478250 translate
0.000000 rotate
0.000000 0.000000 m /five glyphshow
6.362305 0.000000 m /zero glyphshow
grestore
2 setlinecap
0.690 setgray
gsave
357.1 133.1 57.6 171.1 clipbox
192.655369 171.072 m
192.655369 304.128 l
stroke
grestore
0 setlinecap
0.000 setgray
gsave
/o {
gsave
newpath
translate
0.8 setlinewidth
1 setlinejoin
0 setlinecap
0 0 m
0 -3.5 l

gsave
0.000 setgray
fill
grestore
stroke
grestore
} bind def
192.655 171.072 o
grestore
gsave
186.295994 156.478250 translate
0.000000 rotate
0.000000 0.000000 m /seven glyphshow
6.362305 0.000000 m /five glyphshow
grestore
2 setlinecap
0.690 setgray
gsave
357.1 133.1 57.6 171.1 clipbox
233.82175 171.072 m
233.82175 304.128 l
stroke
grestore
0 setlinecap
0.000 setgray
gsave
/o {
gsave
newpath
translate
0.8 setlinewidth
1 setlinejoin
0 setlinecap
0 0 m
0 -3.5 l

gsave
0.000 setgray
fill
grestore
stroke
grestore
} bind def
233.822 171.072 o
grestore
gsave
224.282687 156.478250 translate
0.000000 rotate
0.000000 0.000000 m /one glyphshow
6.362305 0.000000 m /zero glyphshow
12.724609 0.000000 m /zero glyphshow
grestore
2 setlinecap
0.690 setgray
gsave
357.1 133.1 57.6 171.1 clipbox
274.98813 171.072 m
274.98813 304.128 l
stroke
grestore
0 setlinecap
0.000 setgray
gsave
/o {
gsave
newpath
translate
0.8 setlinewidth
1 setlinejoin
0 setlinecap
0 0 m
0 -3.5 l

gsave
0.000 setgray
fill
grestore
stroke
grestore
} bind def
274.988 171.072 o
grestore
gsave
265.449068 156.478250 translate
0.000000 rotate
0.000000 0.000000 m /one glyphshow
6.362305 0.000000 m /two glyphshow
12.724609 0.000000 m /five glyphshow
grestore
2 setlinecap
0.690 setgray
gsave
357.1 133.1 57.6 171.1 clipbox
316.154511 171.072 m
316.154511 304.128 l
stroke
grestore
0 setlinecap
0.000 setgray
gsave
/o {
gsave
newpath
translate
0.8 setlinewidth
1 setlinejoin
0 setlinecap
0 0 m
0 -3.5 l

gsave
0.000 setgray
fill
grestore
stroke
grestore
} bind def
316.155 171.072 o
grestore
gsave
306.615449 156.478250 translate
0.000000 rotate
0.000000 0.000000 m /one glyphshow
6.362305 0.000000 m /five glyphshow
12.724609 0.000000 m /zero glyphshow
grestore
2 setlinecap
0.690 setgray
gsave
357.1 133.1 57.6 171.1 clipbox
357.320892 171.072 m
357.320892 304.128 l
stroke
grestore
0 setlinecap
0.000 setgray
gsave
/o {
gsave
newpath
translate
0.8 setlinewidth
1 setlinejoin
0 setlinecap
0 0 m
0 -3.5 l

gsave
0.000 setgray
fill
grestore
stroke
grestore
} bind def
357.321 171.072 o
grestore
gsave
347.781829 156.478250 translate
0.000000 rotate
0.000000 0.000000 m /one glyphshow
6.362305 0.000000 m /seven glyphshow
12.724609 0.000000 m /five glyphshow
grestore
2 setlinecap
0.690 setgray
gsave
357.1 133.1 57.6 171.1 clipbox
398.487273 171.072 m
398.487273 304.128 l
stroke
grestore
0 setlinecap
0.000 setgray
gsave
/o {
gsave
newpath
translate
0.8 setlinewidth
1 setlinejoin
0 setlinecap
0 0 m
0 -3.5 l

gsave
0.000 setgray
fill
grestore
stroke
grestore
} bind def
398.487 171.072 o
grestore
gsave
388.948210 156.478250 translate
0.000000 rotate
0.000000 0.000000 m /two glyphshow
6.362305 0.000000 m /zero glyphshow
12.724609 0.000000 m /zero glyphshow
grestore
2 setlinecap
0.690 setgray
gsave
357.1 133.1 57.6 171.1 clipbox
57.6 176.155493 m
414.72 176.155493 l
stroke
grestore
0 setlinecap
0.000 setgray
gsave
/o {
gsave
newpath
translate
0.8 setlinewidth
1 setlinejoin
0 setlinecap
0 0 m
-3.5 0 l

gsave
0.000 setgray
fill
grestore
stroke
grestore
} bind def
57.6 176.155 o
grestore
gsave
28.334375 172.358618 translate
0.000000 rotate
0.000000 0.000000 m /zero glyphshow
6.362305 0.000000 m /period glyphshow
9.541016 0.000000 m /zero glyphshow
15.903320 0.000000 m /zero glyphshow
grestore
2 setlinecap
0.690 setgray
gsave
357.1 133.1 57.6 171.1 clipbox
57.6 198.680733 m
414.72 198.680733 l
stroke
grestore
0 setlinecap
0.000 setgray
gsave
/o {
gsave
newpath
translate
0.8 setlinewidth
1 setlinejoin
0 setlinecap
0 0 m
-3.5 0 l

gsave
0.000 setgray
fill
grestore
stroke
grestore
} bind def
57.6 198.681 o
grestore
gsave
28.334375 194.883858 translate
0.000000 rotate
0.000000 0.000000 m /zero glyphshow
6.362305 0.000000 m /period glyphshow
9.541016 0.000000 m /zero glyphshow
15.903320 0.000000 m /two glyphshow
grestore
2 setlinecap
0.690 setgray
gsave
357.1 133.1 57.6 171.1 clipbox
57.6 221.205972 m
414.72 221.205972 l
stroke
grestore
0 setlinecap
0.000 setgray
gsave
/o {
gsave
newpath
translate
0.8 setlinewidth
1 setlinejoin
0 setlinecap
0 0 m
-3.5 0 l

gsave
0.000 setgray
fill
grestore
stroke
grestore
} bind def
57.6 221.206 o
grestore
gsave
28.334375 217.409097 translate
0.000000 rotate
0.000000 0.000000 m /zero glyphshow
6.362305 0.000000 m /period glyphshow
9.541016 0.000000 m /zero glyphshow
15.903320 0.000000 m /four glyphshow
grestore
2 setlinecap
0.690 setgray
gsave
357.1 133.1 57.6 171.1 clipbox
57.6 243.731211 m
414.72 243.731211 l
stroke
grestore
0 setlinecap
0.000 setgray
gsave
/o {
gsave
newpath
translate
0.8 setlinewidth
1 setlinejoin
0 setlinecap
0 0 m
-3.5 0 l

gsave
0.000 setgray
fill
grestore
stroke
grestore
} bind def
57.6 243.731 o
grestore
gsave
28.334375 239.934336 translate
0.000000 rotate
0.000000 0.000000 m /zero glyphshow
6.362305 0.000000 m /period glyphshow
9.541016 0.000000 m /zero glyphshow
15.903320 0.000000 m /six glyphshow
grestore
2 setlinecap
0.690 setgray
gsave
357.1 133.1 57.6 171.1 clipbox
57.6 266.25645 m
414.72 266.25645 l
stroke
grestore
0 setlinecap
0.000 setgray
gsave
/o {
gsave
newpath
translate
0.8 setlinewidth
1 setlinejoin
0 setlinecap
0 0 m
-3.5 0 l

gsave
0.000 setgray
fill
grestore
stroke
grestore
} bind def
57.6 266.256 o
grestore
gsave
28.334375 262.459575 translate
0.000000 rotate
0.000000 0.000000 m /zero glyphshow
6.362305 0.000000 m /period glyphshow
9.541016 0.000000 m /zero glyphshow
15.903320 0.000000 m /eight glyphshow
grestore
2 setlinecap
0.690 setgray
gsave
357.1 133.1 57.6 171.1 clipbox
57.6 288.78169 m
414.72 288.78169 l
stroke
grestore
0 setlinecap
0.000 setgray
gsave
/o {
gsave
newpath
translate
0.8 setlinewidth
1 setlinejoin
0 setlinecap
0 0 m
-3.5 0 l

gsave
0.000 setgray
fill
grestore
stroke
grestore
} bind def
57.6 288.782 o
grestore
gsave
28.334375 284.984815 translate
0.000000 rotate
0.000000 0.000000 m /zero glyphshow
6.362305 0.000000 m /period glyphshow
9.541016 0.000000 m /one glyphshow
15.903320 0.000000 m /zero glyphshow
grestore
gsave
22.256250 212.600000 translate
90.000000 rotate
/DejaVuSans findfont
10.0 scalefont
setfont
0.000000 0.976562 moveto
/Phi glyphshow

7.871094 0.976562 moveto
/space glyphshow

11.049805 0.976562 moveto
/slash glyphshow

14.418945 0.976562 moveto
/space glyphshow

17.597656 0.976562 moveto
/M glyphshow

26.225586 0.976562 moveto
/e glyphshow

32.377930 0.976562 moveto
/V glyphshow

/DejaVuSans findfont
7.0 scalefont
setfont
39.314453 4.804688 moveto
/minus glyphshow

45.179688 4.804688 moveto
/two glyphshow


grestore
1.500 setlinewidth
2 setlinecap
0.122 0.467 0.706 setrgbcolor
gsave
357.1 133.1 57.6 171.1 clipbox
73.832727 192.008697 m
81.155762 192.125345 l
86.851456 192.736459 l
88.478797 193.239992 l
94.174491 195.310438 l
100.683855 199.349387 l
107.193219 205.404779 l
113.702584 213.971535 l
120.211948 225.626299 l
126.721312 240.680095 l
132.417006 256.204054 l
138.92637 274.322505 l
140.553712 278.586516 l
146.249405 291.038795 l
147.063076 292.380525 l
152.75877 297.662868 l
153.57244 298.08 l
160.081805 294.528123 l
166.591169 284.051148 l
177.982556 259.662457 l
180.423568 254.486988 l
186.932932 241.853236 l
193.442297 231.096027 l
199.951661 222.15566 l
206.461025 214.877459 l
215.411401 207.283636 l
220.293424 203.465874 l
225.989118 199.942443 l
227.616459 199.349722 l
234.125824 197.159324 l
239.821517 194.838291 l
246.330882 191.169128 l
253.653917 189.437491 l
259.34961 187.646382 l
265.858975 187.411232 l
269.113657 186.378656 l
272.368339 185.301642 l
273.99568 185.345669 l
279.691374 185.752144 l
286.200738 184.977203 l
293.523773 182.709344 l
299.219467 181.495898 l
305.728831 183.699306 l
312.238195 180.354107 l
313.865537 180.357092 l
319.56123 180.698635 l
325.256924 181.9554 l
326.884265 181.96761 l
335.834641 181.411978 l
339.902994 181.151327 l
345.598688 181.039632 l
352.921722 179.589818 l
358.617416 178.028367 l
361.872098 177.90371 l
365.126781 177.808176 l
366.754122 178.231886 l
371.636145 179.742395 l
372.449815 179.673582 l
378.145509 177.511351 l
378.95918 177.402656 l
385.468544 178.574112 l
391.977908 177.12 l
398.487273 178.914719 l
398.487273 178.914719 l
stroke
grestore
1.000 0.498 0.055 setrgbcolor
gsave
357.1 133.1 57.6 171.1 clipbox
73.832727 192.000735 m
81.155762 192.120931 l
86.851456 192.730489 l
89.292468 193.516993 l
93.36082 194.919984 l
94.988161 195.810118 l
100.683855 199.34873 l
107.193219 205.397275 l
113.702584 213.974352 l
120.211948 225.624369 l
126.721312 240.682819 l
132.417006 256.204294 l
138.92637 274.320055 l
140.553712 278.58297 l
146.249405 291.040951 l
147.063076 292.381123 l
152.75877 297.659958 l
153.57244 298.076408 l
159.268134 295.08233 l
160.081805 294.528609 l
166.591169 284.051008 l
178.796227 257.899092 l
180.423568 254.491539 l
186.932932 241.853274 l
193.442297 231.093863 l
199.951661 222.154102 l
206.461025 214.874354 l
215.411401 207.282938 l
220.293424 203.467007 l
225.989118 199.940567 l
227.616459 199.348511 l
234.125824 197.161472 l
239.821517 194.842055 l
246.330882 191.172721 l
253.653917 189.43758 l
259.34961 187.650159 l
265.858975 187.412037 l
269.113657 186.374998 l
272.368339 185.303959 l
273.99568 185.348825 l
279.691374 185.753822 l
286.200738 184.976652 l
293.523773 182.709804 l
299.219467 181.49785 l
305.728831 183.698604 l
312.238195 180.354321 l
313.865537 180.357137 l
319.56123 180.697296 l
325.256924 181.956593 l
326.884265 181.966976 l
335.834641 181.407384 l
339.902994 181.154086 l
345.598688 181.036423 l
352.921722 179.58848 l
358.617416 178.0284 l
361.872098 177.903071 l
365.126781 177.806119 l
366.754122 178.23098 l
371.636145 179.742235 l
372.449815 179.673596 l
378.145509 177.51042 l
378.95918 177.401919 l
385.468544 178.573471 l
391.977908 177.121701 l
398.487273 178.91444 l
398.487273 178.91444 l
stroke
grestore
0.800 setlinewidth
0 setlinejoin
[] 0 setdash
0.000 setgray
gsave
57.6 171.072 m
57.6 304.128 l
stroke
grestore
gsave
414.72 171.072 m
414.72 304.128 l
stroke
grestore
gsave
57.6 171.072 m
414.72 171.072 l
stroke
grestore
gsave
57.6 304.128 m
414.72 304.128 l
stroke
grestore
/DejaVuSans findfont
21.000 scalefont
setfont
gsave
357.320892 234.003626 translate
0.000000 rotate
0.000000 0.000000 m /parenleft glyphshow
8.192871 0.000000 m /a glyphshow
21.061523 0.000000 m /parenright glyphshow
grestore
1.000 setlinewidth
0 setlinecap
0.800 setgray
gsave
322.298125 265.456125 m
407.72 265.456125 l
409.053333 265.456125 409.72 266.122792 409.72 267.456125 c
409.72 297.128 l
409.72 298.461333 409.053333 299.128 407.72 299.128 c
322.298125 299.128 l
320.964792 299.128 320.298125 298.461333 320.298125 297.128 c
320.298125 267.456125 l
320.298125 266.122792 320.964792 265.456125 322.298125 265.456125 c
cl
gsave
1.000 setgray
fill
grestore
stroke
grestore
1.500 setlinewidth
1 setlinejoin
2 setlinecap
[] 0 setdash
0.122 0.467 0.706 setrgbcolor
gsave
324.298125 291.03425 m
344.298125 291.03425 l
stroke
grestore
0.000 setgray
/DejaVuSans findfont
10.000 scalefont
setfont
gsave
352.298125 287.534250 translate
0.000000 rotate
0.000000 0.000000 m /R glyphshow
6.948242 0.000000 m /e glyphshow
13.100586 0.000000 m /c glyphshow
18.598633 0.000000 m /o glyphshow
24.716797 0.000000 m /v glyphshow
30.634766 0.000000 m /e glyphshow
36.787109 0.000000 m /r glyphshow
40.898438 0.000000 m /e glyphshow
47.050781 0.000000 m /d glyphshow
grestore
1.000 0.498 0.055 setrgbcolor
gsave
324.298125 275.956125 m
344.298125 275.956125 l
stroke
grestore
0.000 setgray
gsave
352.298125 272.456125 translate
0.000000 rotate
/DejaVuSans findfont
10.0 scalefont
setfont
0.000000 0.406250 moveto
/O glyphshow

7.871094 0.406250 moveto
/r glyphshow

11.982422 0.406250 moveto
/i glyphshow

14.760742 0.406250 moveto
/g glyphshow

21.108398 0.406250 moveto
/i glyphshow

23.886719 0.406250 moveto
/n glyphshow

30.224609 0.406250 moveto
/a glyphshow

36.352539 0.406250 moveto
/l glyphshow

39.130859 0.406250 moveto
/space glyphshow

42.309570 0.406250 moveto
/Phi glyphshow


grestore
gsave
57.6 38.016 m
414.72 38.016 l
414.72 171.072 l
57.6 171.072 l
cl
1.000 setgray
fill
grestore
0.800 setlinewidth
0.690 setgray
gsave
357.1 133.1 57.6 38.02 clipbox
69.130112 38.016 m
69.130112 171.072 l
stroke
grestore
0 setlinecap
0.000 setgray
gsave
/o {
gsave
newpath
translate
0.8 setlinewidth
1 setlinejoin
0 setlinecap
0 0 m
0 -3.5 l

gsave
0.000 setgray
fill
grestore
stroke
grestore
} bind def
69.1301 38.016 o
grestore
gsave
65.950424 23.422250 translate
0.000000 rotate
0.000000 0.000000 m /zero glyphshow
grestore
2 setlinecap
0.690 setgray
gsave
357.1 133.1 57.6 38.02 clipbox
110.30293 38.016 m
110.30293 171.072 l
stroke
grestore
0 setlinecap
0.000 setgray
gsave
/o {
gsave
newpath
translate
0.8 setlinewidth
1 setlinejoin
0 setlinecap
0 0 m
0 -3.5 l

gsave
0.000 setgray
fill
grestore
stroke
grestore
} bind def
110.303 38.016 o
grestore
gsave
103.943555 23.422250 translate
0.000000 rotate
0.000000 0.000000 m /two glyphshow
6.362305 0.000000 m /five glyphshow
grestore
2 setlinecap
0.690 setgray
gsave
357.1 133.1 57.6 38.02 clipbox
151.475748 38.016 m
151.475748 171.072 l
stroke
grestore
0 setlinecap
0.000 setgray
gsave
/o {
gsave
newpath
translate
0.8 setlinewidth
1 setlinejoin
0 setlinecap
0 0 m
0 -3.5 l

gsave
0.000 setgray
fill
grestore
stroke
grestore
} bind def
151.476 38.016 o
grestore
gsave
145.116373 23.422250 translate
0.000000 rotate
0.000000 0.000000 m /five glyphshow
6.362305 0.000000 m /zero glyphshow
grestore
2 setlinecap
0.690 setgray
gsave
357.1 133.1 57.6 38.02 clipbox
192.648566 38.016 m
192.648566 171.072 l
stroke
grestore
0 setlinecap
0.000 setgray
gsave
/o {
gsave
newpath
translate
0.8 setlinewidth
1 setlinejoin
0 setlinecap
0 0 m
0 -3.5 l

gsave
0.000 setgray
fill
grestore
stroke
grestore
} bind def
192.649 38.016 o
grestore
gsave
186.289191 23.422250 translate
0.000000 rotate
0.000000 0.000000 m /seven glyphshow
6.362305 0.000000 m /five glyphshow
grestore
2 setlinecap
0.690 setgray
gsave
357.1 133.1 57.6 38.02 clipbox
233.821384 38.016 m
233.821384 171.072 l
stroke
grestore
0 setlinecap
0.000 setgray
gsave
/o {
gsave
newpath
translate
0.8 setlinewidth
1 setlinejoin
0 setlinecap
0 0 m
0 -3.5 l

gsave
0.000 setgray
fill
grestore
stroke
grestore
} bind def
233.821 38.016 o
grestore
gsave
224.282321 23.422250 translate
0.000000 rotate
0.000000 0.000000 m /one glyphshow
6.362305 0.000000 m /zero glyphshow
12.724609 0.000000 m /zero glyphshow
grestore
2 setlinecap
0.690 setgray
gsave
357.1 133.1 57.6 38.02 clipbox
274.994202 38.016 m
274.994202 171.072 l
stroke
grestore
0 setlinecap
0.000 setgray
gsave
/o {
gsave
newpath
translate
0.8 setlinewidth
1 setlinejoin
0 setlinecap
0 0 m
0 -3.5 l

gsave
0.000 setgray
fill
grestore
stroke
grestore
} bind def
274.994 38.016 o
grestore
gsave
265.455139 23.422250 translate
0.000000 rotate
0.000000 0.000000 m /one glyphshow
6.362305 0.000000 m /two glyphshow
12.724609 0.000000 m /five glyphshow
grestore
2 setlinecap
0.690 setgray
gsave
357.1 133.1 57.6 38.02 clipbox
316.16702 38.016 m
316.16702 171.072 l
stroke
grestore
0 setlinecap
0.000 setgray
gsave
/o {
gsave
newpath
translate
0.8 setlinewidth
1 setlinejoin
0 setlinecap
0 0 m
0 -3.5 l

gsave
0.000 setgray
fill
grestore
stroke
grestore
} bind def
316.167 38.016 o
grestore
gsave
306.627958 23.422250 translate
0.000000 rotate
0.000000 0.000000 m /one glyphshow
6.362305 0.000000 m /five glyphshow
12.724609 0.000000 m /zero glyphshow
grestore
2 setlinecap
0.690 setgray
gsave
357.1 133.1 57.6 38.02 clipbox
357.339838 38.016 m
357.339838 171.072 l
stroke
grestore
0 setlinecap
0.000 setgray
gsave
/o {
gsave
newpath
translate
0.8 setlinewidth
1 setlinejoin
0 setlinecap
0 0 m
0 -3.5 l

gsave
0.000 setgray
fill
grestore
stroke
grestore
} bind def
357.34 38.016 o
grestore
gsave
347.800776 23.422250 translate
0.000000 rotate
0.000000 0.000000 m /one glyphshow
6.362305 0.000000 m /seven glyphshow
12.724609 0.000000 m /five glyphshow
grestore
2 setlinecap
0.690 setgray
gsave
357.1 133.1 57.6 38.02 clipbox
398.512656 38.016 m
398.512656 171.072 l
stroke
grestore
0 setlinecap
0.000 setgray
gsave
/o {
gsave
newpath
translate
0.8 setlinewidth
1 setlinejoin
0 setlinecap
0 0 m
0 -3.5 l

gsave
0.000 setgray
fill
grestore
stroke
grestore
} bind def
398.513 38.016 o
grestore
gsave
388.973594 23.422250 translate
0.000000 rotate
0.000000 0.000000 m /two glyphshow
6.362305 0.000000 m /zero glyphshow
12.724609 0.000000 m /zero glyphshow
grestore
gsave
174.160000 9.422250 translate
0.000000 rotate
/DejaVuSans findfont
10.0 scalefont
setfont
0.000000 0.406250 moveto
/parenleft glyphshow

3.901367 0.406250 moveto
/a glyphshow

10.029297 0.406250 moveto
/parenright glyphshow

13.930664 0.406250 moveto
/space glyphshow

/DejaVuSans-Oblique findfont
10.0 scalefont
setfont
17.109375 0.406250 moveto
/sigma glyphshow

/DejaVuSans-Oblique findfont
7.0 scalefont
setfont
23.447266 -1.234375 moveto
/R glyphshow

/DejaVuSans findfont
10.0 scalefont
setfont
28.584473 0.406250 moveto
/space glyphshow

31.763184 0.406250 moveto
/slash glyphshow

35.132324 0.406250 moveto
/space glyphshow

38.311035 0.406250 moveto
/M glyphshow

46.938965 0.406250 moveto
/e glyphshow

53.091309 0.406250 moveto
/V glyphshow

59.932129 0.406250 moveto
/semicolon glyphshow

63.301270 0.406250 moveto
/space glyphshow

66.479980 0.406250 moveto
/parenleft glyphshow

70.381348 0.406250 moveto
/b glyphshow

76.729004 0.406250 moveto
/parenright glyphshow

80.630371 0.406250 moveto
/space glyphshow

/DejaVuSans-Oblique findfont
10.0 scalefont
setfont
83.809082 0.406250 moveto
/omega glyphshow

/DejaVuSans findfont
10.0 scalefont
setfont
92.183105 0.406250 moveto
/space glyphshow

95.361816 0.406250 moveto
/slash glyphshow

98.730957 0.406250 moveto
/space glyphshow

101.909668 0.406250 moveto
/M glyphshow

110.537598 0.406250 moveto
/e glyphshow

116.689941 0.406250 moveto
/V glyphshow


grestore
2 setlinecap
0.690 setgray
gsave
357.1 133.1 57.6 38.02 clipbox
57.6 61.547858 m
414.72 61.547858 l
stroke
grestore
0 setlinecap
0.000 setgray
gsave
/o {
gsave
newpath
translate
0.8 setlinewidth
1 setlinejoin
0 setlinecap
0 0 m
-3.5 0 l

gsave
0.000 setgray
fill
grestore
stroke
grestore
} bind def
57.6 61.5479 o
grestore
gsave
21.975000 57.750983 translate
0.000000 rotate
0.000000 0.000000 m /zero glyphshow
6.362305 0.000000 m /period glyphshow
9.541016 0.000000 m /zero glyphshow
15.903320 0.000000 m /zero glyphshow
22.265625 0.000000 m /zero glyphshow
grestore
2 setlinecap
0.690 setgray
gsave
357.1 133.1 57.6 38.02 clipbox
57.6 87.268952 m
414.72 87.268952 l
stroke
grestore
0 setlinecap
0.000 setgray
gsave
/o {
gsave
newpath
translate
0.8 setlinewidth
1 setlinejoin
0 setlinecap
0 0 m
-3.5 0 l

gsave
0.000 setgray
fill
grestore
stroke
grestore
} bind def
57.6 87.269 o
grestore
gsave
21.975000 83.472077 translate
0.000000 rotate
0.000000 0.000000 m /zero glyphshow
6.362305 0.000000 m /period glyphshow
9.541016 0.000000 m /zero glyphshow
15.903320 0.000000 m /zero glyphshow
22.265625 0.000000 m /five glyphshow
grestore
2 setlinecap
0.690 setgray
gsave
357.1 133.1 57.6 38.02 clipbox
57.6 112.990046 m
414.72 112.990046 l
stroke
grestore
0 setlinecap
0.000 setgray
gsave
/o {
gsave
newpath
translate
0.8 setlinewidth
1 setlinejoin
0 setlinecap
0 0 m
-3.5 0 l

gsave
0.000 setgray
fill
grestore
stroke
grestore
} bind def
57.6 112.99 o
grestore
gsave
21.975000 109.193171 translate
0.000000 rotate
0.000000 0.000000 m /zero glyphshow
6.362305 0.000000 m /period glyphshow
9.541016 0.000000 m /zero glyphshow
15.903320 0.000000 m /one glyphshow
22.265625 0.000000 m /zero glyphshow
grestore
2 setlinecap
0.690 setgray
gsave
357.1 133.1 57.6 38.02 clipbox
57.6 138.711141 m
414.72 138.711141 l
stroke
grestore
0 setlinecap
0.000 setgray
gsave
/o {
gsave
newpath
translate
0.8 setlinewidth
1 setlinejoin
0 setlinecap
0 0 m
-3.5 0 l

gsave
0.000 setgray
fill
grestore
stroke
grestore
} bind def
57.6 138.711 o
grestore
gsave
21.975000 134.914266 translate
0.000000 rotate
0.000000 0.000000 m /zero glyphshow
6.362305 0.000000 m /period glyphshow
9.541016 0.000000 m /zero glyphshow
15.903320 0.000000 m /one glyphshow
22.265625 0.000000 m /five glyphshow
grestore
2 setlinecap
0.690 setgray
gsave
357.1 133.1 57.6 38.02 clipbox
57.6 164.432235 m
414.72 164.432235 l
stroke
grestore
0 setlinecap
0.000 setgray
gsave
/o {
gsave
newpath
translate
0.8 setlinewidth
1 setlinejoin
0 setlinecap
0 0 m
-3.5 0 l

gsave
0.000 setgray
fill
grestore
stroke
grestore
} bind def
57.6 164.432 o
grestore
gsave
21.975000 160.635360 translate
0.000000 rotate
0.000000 0.000000 m /zero glyphshow
6.362305 0.000000 m /period glyphshow
9.541016 0.000000 m /zero glyphshow
15.903320 0.000000 m /two glyphshow
22.265625 0.000000 m /zero glyphshow
grestore
gsave
15.896875 80.044000 translate
90.000000 rotate
/DejaVuSans-Oblique findfont
10.0 scalefont
setfont
0.000000 0.064063 moveto
/R glyphshow

/DejaVuSans findfont
10.0 scalefont
setfont
6.948242 0.064063 moveto
/space glyphshow

10.126953 0.064063 moveto
/slash glyphshow

13.496094 0.064063 moveto
/space glyphshow

16.674805 0.064063 moveto
/M glyphshow

25.302734 0.064063 moveto
/e glyphshow

31.455078 0.064063 moveto
/V glyphshow

/DejaVuSans findfont
7.0 scalefont
setfont
38.391602 3.892188 moveto
/minus glyphshow

44.256836 3.892188 moveto
/one glyphshow


grestore
1.500 setlinewidth
2 setlinecap
0.122 0.467 0.706 setrgbcolor
gsave
357.1 133.1 57.6 38.02 clipbox
73.832727 79.8111 m
74.086562 96.890341 l
74.340397 71.565995 l
74.594231 79.385419 l
74.848066 57.215407 l
75.101901 67.254101 l
75.355735 89.45535 l
75.60957 56.090418 l
75.863405 98.092814 l
76.117239 69.338621 l
76.371074 58.997239 l
76.624909 71.539492 l
76.878743 94.845126 l
77.132578 69.511014 l
77.386413 56.230899 l
77.640247 80.119453 l
77.894082 74.857064 l
78.147917 67.055378 l
78.401751 87.094146 l
78.655586 78.930778 l
78.909421 44.064 l
79.163255 94.041205 l
79.41709 73.783117 l
79.670925 67.701218 l
79.924759 58.372438 l
80.178594 106.631167 l
80.432429 61.381495 l
80.686263 57.96842 l
80.940098 76.274453 l
81.193933 73.88947 l
81.701602 81.329608 l
81.955437 66.954982 l
82.209271 70.983013 l
82.463106 72.649899 l
82.716941 61.606145 l
82.970775 88.22941 l
83.22461 85.188276 l
83.478445 48.418144 l
83.986114 89.493795 l
84.239949 78.619994 l
84.493783 61.089261 l
84.747618 74.853484 l
85.001453 63.844161 l
85.255288 82.553981 l
85.509122 65.791911 l
85.762957 96.222499 l
86.016792 55.568995 l
86.524461 78.218012 l
86.778296 76.989655 l
87.03213 73.667018 l
87.285965 65.55452 l
87.5398 71.321092 l
87.793634 83.284472 l
88.047469 68.035847 l
88.301304 77.476401 l
88.555138 73.593939 l
88.808973 73.127555 l
89.062808 63.231372 l
89.316642 89.741959 l
89.570477 66.213402 l
90.078146 77.410524 l
90.331981 80.675725 l
90.585816 60.198714 l
91.093485 84.492391 l
91.34732 68.489378 l
91.601154 77.510279 l
92.108824 67.764013 l
92.362658 89.953074 l
92.616493 65.539922 l
93.377997 84.902489 l
93.631832 58.857177 l
93.885666 85.903531 l
94.139501 68.366088 l
94.393336 80.000357 l
94.64717 70.281315 l
94.901005 84.486271 l
95.15484 68.86322 l
95.662509 78.904505 l
95.916344 75.913345 l
96.170178 75.054166 l
96.424013 78.822004 l
96.677848 71.198982 l
96.931682 79.233629 l
97.185517 80.162195 l
97.439352 68.568324 l
97.693186 83.728462 l
98.200856 68.070292 l
98.45469 87.6873 l
98.708525 71.267184 l
98.96236 81.594876 l
99.216194 77.656255 l
99.470029 75.919599 l
99.723864 67.640209 l
100.231533 92.244297 l
100.485368 72.349639 l
100.739203 69.424696 l
100.993037 84.438247 l
101.246872 77.237285 l
101.500707 77.043692 l
101.754541 80.085709 l
102.008376 81.061576 l
102.516045 72.77352 l
102.76988 90.836319 l
103.023715 76.441766 l
103.277549 81.539052 l
103.531384 75.165135 l
103.785219 75.134689 l
104.292888 92.162861 l
104.546723 70.176577 l
104.800557 87.90451 l
105.054392 76.924304 l
105.308227 75.48073 l
105.562061 84.476866 l
105.815896 81.960382 l
106.323565 87.450947 l
106.5774 72.239538 l
106.831235 81.761188 l
107.085069 81.298601 l
107.338904 78.903425 l
107.592739 95.747626 l
107.846573 79.950604 l
108.100408 74.642166 l
108.354243 90.803913 l
108.608077 80.763102 l
108.861912 82.150131 l
109.115747 85.9085 l
109.369581 85.934727 l
109.623416 89.360055 l
109.877251 85.742219 l
110.131085 77.781257 l
110.38492 66.054078 l
110.638755 109.596365 l
111.400259 69.84183 l
111.654093 95.944035 l
111.907928 86.44522 l
112.161763 85.06497 l
112.669432 93.423108 l
112.923267 78.582347 l
113.177101 91.133511 l
113.430936 88.341119 l
113.684771 94.766157 l
113.938605 87.109329 l
114.19244 73.643181 l
114.446275 100.083536 l
114.700109 91.212439 l
114.953944 92.757387 l
115.207779 88.951794 l
115.461613 87.573621 l
115.715448 94.261752 l
115.969283 90.322626 l
116.223117 96.397665 l
116.476952 85.835529 l
116.730787 96.589068 l
116.984622 93.392161 l
117.238456 87.612914 l
117.492291 104.155303 l
117.746126 87.535749 l
117.99996 95.434658 l
118.253795 95.017192 l
118.761464 92.642977 l
119.015299 101.226028 l
119.269134 99.826745 l
119.522968 90.111433 l
119.776803 97.865743 l
120.030638 91.949308 l
120.284472 103.386201 l
120.538307 93.607916 l
120.792142 101.120717 l
121.045976 98.648231 l
121.299811 97.65856 l
121.553646 102.326704 l
121.80748 93.098561 l
122.061315 105.134627 l
122.31515 107.03435 l
122.568984 94.77868 l
123.076654 105.336134 l
123.330488 106.243661 l
123.584323 101.014441 l
123.838158 99.321517 l
124.091992 107.238674 l
124.345827 103.169359 l
124.599662 109.013875 l
124.853496 102.793448 l
125.107331 101.78488 l
125.361166 113.561762 l
125.615 101.771427 l
125.868835 112.141003 l
126.12267 102.165998 l
126.376504 109.714442 l
126.630339 110.418778 l
126.884174 104.850343 l
127.138008 111.017003 l
127.391843 110.737385 l
127.645678 107.274938 l
127.899512 114.03048 l
128.153347 112.476762 l
128.407182 111.650594 l
128.661016 109.200157 l
128.914851 115.281246 l
129.168686 115.868636 l
129.42252 112.363265 l
129.676355 115.323668 l
129.93019 108.899491 l
130.184024 123.796027 l
130.437859 118.430323 l
130.691694 107.439965 l
130.945528 121.727349 l
131.199363 125.375773 l
131.453198 105.486494 l
131.707032 124.47148 l
131.960867 121.167914 l
132.214702 119.851849 l
132.468536 124.115956 l
132.722371 115.199692 l
133.230041 124.770093 l
133.483875 125.218488 l
133.73771 120.936333 l
133.991545 127.731981 l
134.245379 118.023836 l
134.499214 127.765674 l
134.753049 124.547092 l
135.006883 128.032372 l
135.260718 123.531548 l
135.514553 126.930713 l
135.768387 131.844542 l
136.022222 123.83446 l
136.276057 126.613238 l
136.529891 135.507432 l
136.783726 123.745197 l
137.037561 135.331918 l
137.291395 125.286606 l
137.54523 132.49965 l
137.799065 134.778431 l
138.052899 134.763245 l
138.306734 129.718602 l
138.560569 131.389166 l
138.814403 130.42217 l
139.068238 142.344353 l
139.322073 134.796759 l
139.575907 132.716003 l
139.829742 133.965903 l
140.083577 142.494369 l
140.337411 136.787075 l
140.591246 139.923453 l
140.845081 132.884034 l
141.098915 139.752758 l
141.35275 137.871119 l
141.606585 140.810599 l
141.860419 141.702462 l
142.114254 137.815542 l
142.368089 143.881838 l
142.621923 135.102004 l
142.875758 143.614338 l
143.129593 139.09431 l
143.383427 148.023967 l
143.637262 141.515502 l
143.891097 143.374283 l
144.144931 139.921542 l
144.398766 142.906869 l
144.652601 149.785569 l
144.906435 140.566813 l
145.16027 147.007933 l
145.414105 146.87879 l
145.921774 142.62116 l
146.175609 154.478513 l
146.429443 146.195117 l
146.683278 144.214542 l
146.937113 150.658602 l
147.190947 154.027431 l
147.444782 144.178866 l
148.206286 151.669408 l
148.460121 148.759081 l
148.713956 150.438884 l
148.96779 144.284949 l
149.221625 153.044236 l
149.729294 147.694054 l
149.983129 151.157432 l
150.236964 151.747574 l
150.490798 148.611523 l
150.744633 153.039106 l
150.998468 144.868724 l
151.252302 154.385368 l
151.506137 153.330112 l
151.759972 150.206317 l
152.013806 153.883883 l
152.267641 147.459966 l
152.521476 153.832128 l
152.77531 150.145572 l
153.029145 149.894076 l
153.28298 165.024 l
153.536814 152.415408 l
154.044484 145.810243 l
154.298318 156.132894 l
154.552153 153.676992 l
154.805988 152.929738 l
155.059822 149.986233 l
155.313657 155.134205 l
155.567492 147.814096 l
155.821326 148.088785 l
156.075161 155.104404 l
156.58283 150.234299 l
156.836665 152.054767 l
157.0905 148.152273 l
157.344334 151.35267 l
157.598169 150.787508 l
157.852004 152.768229 l
158.105838 147.176574 l
158.613508 153.938786 l
158.867342 146.06073 l
159.375012 153.288743 l
159.628846 147.487299 l
160.136516 154.287741 l
160.39035 147.025672 l
160.644185 148.061441 l
160.89802 146.358078 l
161.151854 153.603792 l
161.405689 144.774123 l
161.659524 148.917737 l
161.913358 145.527157 l
162.167193 148.758492 l
162.421028 144.675919 l
162.674862 149.123049 l
162.928697 143.266985 l
163.182532 146.684204 l
163.436366 143.804789 l
163.690201 147.131139 l
163.944036 146.645887 l
164.19787 138.621115 l
164.451705 146.441828 l
164.70554 147.294002 l
164.959375 141.904172 l
165.213209 140.627126 l
165.467044 143.758446 l
165.720879 143.352233 l
165.974713 142.40005 l
166.228548 140.523584 l
166.482383 144.041909 l
166.736217 139.372541 l
166.990052 144.038277 l
167.497721 137.694533 l
167.751556 138.80543 l
168.005391 140.79562 l
168.259225 136.969396 l
168.51306 138.345096 l
168.766895 141.359229 l
169.020729 136.014444 l
169.274564 136.460434 l
169.528399 135.20184 l
169.782233 136.486494 l
170.036068 135.841037 l
170.289903 139.275567 l
170.543737 130.984716 l
170.797572 135.716679 l
171.051407 133.843371 l
171.305241 135.448653 l
171.559076 130.45609 l
171.812911 134.960117 l
172.066745 131.932827 l
172.32058 134.566271 l
172.574415 128.259804 l
172.828249 132.171766 l
173.082084 130.301347 l
173.335919 132.955465 l
173.589753 127.881467 l
173.843588 131.299358 l
174.097423 128.939186 l
174.351257 128.143934 l
174.605092 126.677963 l
174.858927 131.344035 l
175.620431 122.945435 l
175.874265 132.710531 l
176.635769 119.536484 l
176.889604 124.225115 l
177.143439 125.394683 l
177.651108 125.271595 l
177.904943 121.482241 l
178.158777 119.572126 l
178.412612 126.508119 l
178.666447 118.831207 l
178.920281 122.409893 l
179.174116 119.853403 l
179.427951 122.938346 l
179.93562 116.270302 l
180.189455 122.16743 l
180.44329 120.667896 l
180.697124 114.464291 l
180.950959 119.448029 l
181.204794 119.258364 l
181.458628 115.945947 l
181.712463 117.503656 l
181.966298 116.970945 l
182.220132 116.008014 l
182.473967 116.548751 l
182.727802 114.40795 l
182.981636 115.080093 l
183.235471 116.42032 l
183.489306 113.791827 l
183.74314 114.192213 l
183.996975 113.751987 l
184.25081 111.511849 l
184.504644 115.566365 l
184.758479 110.933208 l
185.012314 113.097115 l
185.266148 111.309411 l
185.519983 110.427208 l
185.773818 112.79789 l
186.027652 111.55437 l
186.281487 107.435101 l
186.535322 108.634026 l
186.789156 113.965731 l
187.296826 104.870262 l
187.55066 110.078004 l
187.804495 108.483477 l
188.05833 110.938839 l
188.312164 104.278862 l
188.565999 108.477208 l
188.819834 109.090663 l
189.073668 103.963789 l
189.327503 107.203537 l
189.581338 107.325968 l
189.835172 105.182542 l
190.089007 105.943665 l
190.342842 105.130341 l
190.596676 105.215771 l
190.850511 103.775315 l
191.104346 103.24228 l
191.35818 106.73281 l
191.612015 103.473199 l
191.86585 101.968703 l
192.119684 102.912477 l
192.373519 103.000984 l
192.627354 104.064358 l
192.881188 100.192204 l
193.135023 100.687773 l
193.388858 102.15959 l
193.642692 102.341526 l
193.896527 99.435619 l
194.150362 102.028974 l
194.404196 97.651622 l
194.658031 103.627929 l
195.1657 96.375494 l
195.67337 102.127553 l
195.927204 100.450448 l
196.181039 95.681114 l
196.434874 95.349429 l
196.688709 101.670303 l
196.942543 96.220283 l
197.196378 101.090123 l
197.450213 97.048244 l
197.704047 96.557638 l
197.957882 92.548672 l
198.211717 99.566624 l
198.465551 98.913055 l
198.719386 93.769611 l
198.973221 94.112447 l
199.48089 97.796843 l
199.734725 93.817709 l
199.988559 93.715156 l
200.242394 93.946422 l
200.496229 95.775412 l
201.003898 92.695214 l
201.257733 94.705461 l
201.511567 93.267837 l
201.765402 93.353155 l
202.019237 93.915833 l
202.273071 91.851267 l
202.526906 92.110278 l
202.780741 95.357071 l
203.034575 90.041716 l
203.28841 92.884162 l
203.542245 91.412192 l
203.796079 92.343037 l
204.049914 91.857264 l
204.303749 89.975826 l
204.557583 92.026766 l
204.811418 89.960357 l
205.065253 92.041488 l
205.319087 89.477815 l
205.572922 89.570076 l
205.826757 90.843687 l
206.080591 90.827268 l
206.334426 86.921065 l
206.588261 90.115073 l
206.842095 90.670958 l
207.09593 86.37298 l
207.349765 90.48417 l
207.603599 88.59669 l
207.857434 89.01813 l
208.111269 90.208485 l
208.365103 84.322575 l
208.618938 90.913298 l
208.872773 86.875138 l
209.126607 88.281236 l
209.380442 88.695341 l
209.634277 86.007808 l
209.888111 86.410791 l
210.141946 89.558188 l
210.395781 88.515515 l
210.649615 82.895747 l
210.90345 89.044074 l
211.157285 85.818999 l
211.411119 86.407588 l
211.664954 89.074139 l
211.918789 81.777448 l
212.426458 89.063224 l
212.680293 86.912369 l
212.934128 81.525799 l
213.187962 87.77303 l
213.441797 82.835484 l
213.695632 87.154234 l
213.949466 84.40254 l
214.203301 83.984337 l
214.457136 84.265092 l
214.71097 86.076174 l
214.964805 84.338731 l
215.21864 80.381455 l
215.472474 87.605011 l
215.726309 82.901542 l
215.980144 83.92217 l
216.233978 82.870209 l
216.487813 83.543899 l
216.741648 83.767428 l
216.995482 81.283329 l
217.249317 86.586162 l
217.503152 80.624042 l
217.756986 79.110654 l
218.010821 84.486832 l
218.264656 84.319117 l
218.51849 84.664901 l
218.772325 78.476854 l
219.02616 81.001884 l
219.279994 81.626437 l
219.533829 80.725689 l
220.041498 83.193219 l
220.295333 80.75354 l
220.549168 80.123962 l
220.803002 79.174031 l
221.310672 82.427197 l
221.564506 81.097475 l
221.818341 81.534599 l
222.072176 79.589396 l
222.32601 78.684406 l
222.579845 79.149611 l
222.83368 80.850255 l
223.087514 81.396774 l
223.341349 80.094012 l
223.595184 80.693002 l
224.102853 75.526114 l
224.356688 81.668678 l
224.610522 80.909328 l
224.864357 78.650663 l
225.118192 79.543292 l
225.372026 78.746414 l
225.625861 77.221459 l
225.879696 77.109422 l
226.13353 80.396501 l
226.387365 76.790799 l
226.6412 82.222594 l
226.895034 76.855092 l
227.148869 74.986209 l
227.402704 79.497138 l
227.656538 78.763271 l
227.910373 77.435114 l
228.164208 80.204138 l
228.671877 75.071193 l
228.925712 79.244943 l
229.179547 79.987189 l
229.687216 75.22195 l
229.941051 75.937738 l
230.194885 82.461602 l
230.44872 76.201513 l
230.702555 75.745984 l
230.956389 79.351877 l
231.210224 77.787668 l
231.464059 74.338591 l
231.717893 80.018255 l
231.971728 76.104081 l
232.225563 78.041364 l
232.479397 77.863723 l
232.733232 74.213459 l
232.987067 78.46351 l
233.240901 79.632915 l
233.494736 76.873528 l
233.748571 71.933285 l
234.25624 80.473849 l
234.510075 74.701235 l
234.763909 77.189873 l
235.017744 75.27236 l
235.271579 78.188791 l
235.525413 74.368116 l
235.779248 76.157767 l
236.286917 77.283041 l
236.540752 76.538545 l
236.794587 73.229981 l
237.048421 76.481134 l
237.302256 78.18725 l
237.556091 72.221393 l
237.809925 77.632505 l
238.06376 76.053575 l
238.317595 77.061342 l
238.571429 70.994007 l
238.825264 77.586426 l
239.079099 75.335111 l
239.586768 75.39219 l
239.840603 77.510982 l
240.094437 70.797188 l
240.348272 75.701962 l
240.602107 76.395203 l
240.855941 76.048254 l
241.109776 69.66587 l
241.363611 76.265603 l
241.617445 74.208555 l
241.87128 75.894673 l
242.125115 73.07532 l
242.378949 74.441722 l
242.632784 72.672955 l
242.886619 72.112714 l
243.140453 77.055772 l
243.394288 72.281629 l
243.648123 72.370659 l
243.901957 71.931258 l
244.155792 75.74832 l
244.409627 73.582853 l
244.663462 69.918732 l
244.917296 74.695995 l
245.171131 73.867479 l
245.424966 67.783973 l
245.6788 76.332492 l
245.932635 71.248183 l
246.18647 72.408353 l
246.694139 70.402472 l
246.947974 73.943491 l
247.455643 70.322081 l
247.709478 74.714627 l
247.963312 69.880563 l
248.217147 72.618721 l
248.470982 72.96458 l
248.724816 69.031943 l
248.978651 72.982391 l
249.232486 71.632534 l
249.48632 76.281291 l
249.740155 68.40599 l
249.99399 69.703781 l
250.247824 70.38861 l
250.501659 76.230818 l
250.755494 68.890815 l
251.009328 73.555626 l
251.263163 70.207196 l
251.516998 68.775287 l
251.770832 75.459436 l
252.024667 73.292209 l
252.278502 66.123625 l
252.532336 73.077035 l
252.786171 70.298494 l
253.040006 71.897736 l
253.29384 72.641227 l
254.055344 69.190385 l
254.309179 69.268586 l
254.563014 73.177082 l
255.070683 69.416818 l
255.324518 73.346326 l
255.578352 67.634722 l
256.086022 72.027295 l
256.339856 70.095482 l
256.593691 71.85726 l
256.847526 68.698879 l
257.60903 71.871837 l
257.862864 64.436409 l
258.116699 75.360995 l
258.370534 69.724216 l
258.624368 66.7416 l
258.878203 69.613687 l
259.132038 74.131834 l
259.385872 67.266921 l
259.639707 67.244843 l
259.893542 70.208426 l
260.147377 69.991459 l
260.401211 67.813373 l
260.655046 74.630036 l
260.908881 68.328563 l
261.162715 67.185134 l
261.41655 69.861109 l
261.670385 70.929742 l
261.924219 69.893178 l
262.178054 68.007955 l
262.431889 70.895957 l
262.685723 70.889558 l
263.193393 66.839984 l
263.447227 73.436115 l
263.954897 67.538335 l
264.462566 70.40104 l
264.716401 71.050301 l
264.970235 70.24745 l
265.477905 67.775145 l
265.731739 70.818211 l
265.985574 66.091878 l
266.239409 76.664811 l
266.747078 65.443494 l
267.000913 67.04593 l
267.254747 74.139967 l
267.508582 67.904154 l
267.762417 67.947397 l
268.016251 70.912406 l
268.270086 66.336513 l
268.523921 71.394784 l
268.777755 68.053196 l
269.03159 69.79961 l
269.285425 69.939196 l
269.539259 65.079447 l
269.793094 69.480926 l
270.046929 69.933518 l
270.300763 68.504151 l
270.554598 68.402379 l
270.808433 67.722394 l
271.062267 69.195806 l
271.316102 67.170662 l
271.569937 68.522606 l
271.823771 67.793826 l
272.077606 68.316018 l
272.331441 69.903809 l
272.585275 66.183827 l
272.83911 64.48346 l
273.092945 68.91289 l
273.346779 69.939722 l
273.854449 66.797659 l
274.108283 66.380688 l
274.362118 69.431158 l
274.615953 70.582259 l
274.869787 66.385604 l
275.123622 70.405801 l
275.377457 61.301667 l
275.631291 70.481605 l
275.885126 71.5265 l
276.392796 66.947861 l
276.64663 66.470325 l
276.900465 69.17323 l
277.1543 70.137362 l
277.408134 68.004556 l
277.661969 67.224344 l
277.915804 66.806018 l
278.169638 70.085391 l
278.423473 68.714829 l
278.677308 69.414594 l
278.931142 69.07241 l
279.184977 67.003994 l
279.438812 67.882968 l
279.692646 68.305504 l
279.946481 70.277312 l
280.45415 68.146255 l
280.707985 67.219707 l
280.96182 68.216431 l
281.215654 70.059744 l
281.469489 67.077153 l
281.723324 69.84136 l
281.977158 65.035963 l
282.230993 71.060323 l
282.484828 67.903138 l
282.738662 68.272267 l
282.992497 67.658327 l
283.246332 67.37613 l
283.500166 70.286715 l
284.007836 66.67731 l
284.26167 67.26299 l
284.515505 69.54712 l
285.023174 67.010395 l
285.277009 68.79235 l
285.530844 68.986462 l
285.784678 66.80474 l
286.038513 68.971655 l
286.292348 65.334136 l
286.546182 72.068237 l
286.800017 66.943791 l
287.053852 65.48464 l
287.307686 70.036102 l
287.561521 66.652095 l
287.815356 65.724041 l
288.06919 70.528677 l
288.323025 66.097413 l
288.830694 68.027262 l
289.084529 66.617125 l
289.338364 67.117777 l
289.846033 66.793655 l
290.099868 68.667522 l
290.353702 67.064737 l
290.607537 62.918595 l
290.861372 69.482919 l
291.115206 68.290741 l
291.369041 65.596288 l
291.622876 64.665 l
291.87671 64.297545 l
292.130545 70.759021 l
292.638215 64.752467 l
292.892049 63.785528 l
293.145884 68.41989 l
293.399719 67.266207 l
293.653553 64.890911 l
293.907388 66.182781 l
294.161223 64.630119 l
294.668892 68.074447 l
294.922727 64.030544 l
295.176561 66.380556 l
295.430396 64.17982 l
295.684231 69.469215 l
295.938065 63.215891 l
296.1919 64.647848 l
296.445735 67.773275 l
296.699569 66.121191 l
296.953404 63.156792 l
297.207239 67.536228 l
297.461073 63.99884 l
297.714908 64.327075 l
297.968743 68.106767 l
298.222577 64.601925 l
298.476412 65.259964 l
298.730247 65.002915 l
298.984081 63.520475 l
299.99942 66.904659 l
300.253255 64.472903 l
300.507089 63.416995 l
300.760924 66.543279 l
301.014759 66.353401 l
301.268593 66.487065 l
301.522428 65.358613 l
301.776263 65.335533 l
302.030097 66.448725 l
302.283932 65.863421 l
302.537767 67.131626 l
302.791601 66.963637 l
303.045436 62.85928 l
303.299271 67.712595 l
303.553105 68.412387 l
303.80694 66.01061 l
304.060775 65.588061 l
304.314609 68.213925 l
304.568444 66.247463 l
304.822279 65.69709 l
305.076113 67.384353 l
305.329948 68.276844 l
305.583783 67.55556 l
305.837617 68.162935 l
306.345287 68.015214 l
306.599121 66.255292 l
306.852956 65.52133 l
307.106791 66.416115 l
307.360625 65.549306 l
307.61446 68.553724 l
307.868295 65.736981 l
308.12213 67.903815 l
308.375964 64.205586 l
308.629799 64.035337 l
308.883634 68.601626 l
309.137468 65.044279 l
309.391303 63.990761 l
309.645138 68.031898 l
310.152807 62.584156 l
310.406642 66.633681 l
310.660476 63.747044 l
310.914311 66.520929 l
311.168146 65.558975 l
311.42198 61.917888 l
311.675815 67.427398 l
311.92965 62.283723 l
312.183484 65.588167 l
312.437319 62.167309 l
312.691154 64.542929 l
312.944988 63.330537 l
313.198823 64.251461 l
313.452658 66.476711 l
313.706492 63.810332 l
313.960327 63.686643 l
314.214162 63.934103 l
314.467996 65.975535 l
314.721831 61.294359 l
314.975666 66.443017 l
315.2295 66.398599 l
315.483335 62.517935 l
315.73717 64.026434 l
315.991004 64.355105 l
316.244839 66.327083 l
316.498674 63.169878 l
317.006343 65.067019 l
317.260178 65.332251 l
317.514012 62.79557 l
317.767847 65.662465 l
318.021682 65.049565 l
318.275516 63.820286 l
318.529351 63.447408 l
318.783186 66.931256 l
319.03702 62.554777 l
319.290855 64.854292 l
319.54469 64.799923 l
319.798524 64.188678 l
320.052359 66.734755 l
320.306194 63.138931 l
321.067698 66.676004 l
321.321532 64.087485 l
321.575367 65.005228 l
321.829202 61.940863 l
322.083036 68.300565 l
322.336871 64.476519 l
322.590706 66.573944 l
322.84454 65.880359 l
323.098375 64.064999 l
323.35221 63.639344 l
323.606044 66.206166 l
323.859879 66.43202 l
324.113714 67.337993 l
324.367549 62.853625 l
324.621383 67.396114 l
324.875218 65.056604 l
325.129053 65.030747 l
325.636722 67.40648 l
325.890557 65.211507 l
326.144391 67.171031 l
326.398226 63.780417 l
326.652061 66.527493 l
327.15973 65.067155 l
327.413565 67.167802 l
327.667399 66.531531 l
327.921234 63.604197 l
328.175069 66.624557 l
328.428903 64.915589 l
328.682738 66.350803 l
329.444242 65.435245 l
329.698077 66.113515 l
329.951911 63.862271 l
330.205746 67.069382 l
330.459581 65.704873 l
330.713415 65.37067 l
330.96725 66.304959 l
331.221085 64.595701 l
331.474919 65.917639 l
331.728754 64.991609 l
331.982589 67.149479 l
332.490258 63.413618 l
332.744093 66.990548 l
332.997927 66.887944 l
333.251762 64.209814 l
333.759431 66.526571 l
334.013266 64.499306 l
334.267101 63.861669 l
334.520935 67.66834 l
334.77477 65.435153 l
335.028605 66.59542 l
335.536274 62.794371 l
335.790109 66.99768 l
336.043943 65.560511 l
336.297778 67.106867 l
336.551613 63.725197 l
336.805447 63.413715 l
337.059282 67.124415 l
337.313117 66.804228 l
338.074621 62.355062 l
338.328455 67.591142 l
338.836125 65.129011 l
339.089959 66.812065 l
339.343794 61.481317 l
339.597629 65.961417 l
339.851464 65.604378 l
340.105298 65.544831 l
340.359133 65.005213 l
340.612968 65.229621 l
340.866802 64.714834 l
341.120637 65.468268 l
341.374472 65.533989 l
341.628306 63.632534 l
341.882141 67.566495 l
342.135976 63.217424 l
342.38981 65.645722 l
342.643645 64.420171 l
342.89748 67.05416 l
343.151314 64.276594 l
343.405149 66.436978 l
343.658984 62.7255 l
343.912818 64.001524 l
344.166653 67.761691 l
344.674322 63.389979 l
344.928157 67.270469 l
345.181992 62.597036 l
345.435826 66.100241 l
345.689661 63.721739 l
345.943496 68.611077 l
346.19733 64.230657 l
346.451165 63.957635 l
346.958834 65.55751 l
347.212669 64.074492 l
347.466504 66.121311 l
347.720338 63.499037 l
347.974173 65.89056 l
348.228008 64.01765 l
348.481842 64.245224 l
348.735677 65.942012 l
348.989512 65.564247 l
349.243346 62.220494 l
349.497181 64.490969 l
349.751016 64.777266 l
350.00485 65.632737 l
350.258685 64.272812 l
350.51252 65.101017 l
350.766354 63.103245 l
351.020189 64.107971 l
351.274024 64.462355 l
351.527858 63.099328 l
351.781693 67.968182 l
352.035528 62.03752 l
352.543197 65.26893 l
352.797032 63.095806 l
353.050866 62.949676 l
353.304701 66.203555 l
353.558536 62.97909 l
353.81237 64.796401 l
354.066205 62.644967 l
354.32004 62.87616 l
354.573874 63.713608 l
354.827709 65.178856 l
355.081544 63.389336 l
355.335378 62.459788 l
355.589213 63.774305 l
355.843048 62.883459 l
356.096883 65.025503 l
356.350717 62.59408 l
356.604552 61.329117 l
356.858387 64.771133 l
357.366056 62.213578 l
357.619891 63.572372 l
357.873725 62.299898 l
358.12756 63.725432 l
358.381395 61.644959 l
358.635229 64.02535 l
358.889064 61.276573 l
359.142899 61.922626 l
359.396733 63.542247 l
359.904403 62.172813 l
360.158237 63.850299 l
360.412072 61.154347 l
360.665907 63.260718 l
360.919741 62.973041 l
361.173576 63.161306 l
361.427411 61.253687 l
361.681245 63.149561 l
361.93508 63.820935 l
362.188915 61.383125 l
362.442749 62.148982 l
362.696584 64.952179 l
362.950419 61.167031 l
363.204253 61.699503 l
363.458088 63.702779 l
363.711923 63.22563 l
364.219592 61.027186 l
364.473427 64.190294 l
364.727261 62.061204 l
364.981096 63.495951 l
365.234931 62.924658 l
365.488765 60.090326 l
365.996435 64.045939 l
366.250269 63.466445 l
366.504104 62.26376 l
366.757939 64.556416 l
367.011773 61.02957 l
367.265608 63.586188 l
367.519443 61.90059 l
367.773277 64.215685 l
368.027112 63.437223 l
368.280947 65.646966 l
368.534781 61.399704 l
368.788616 62.272938 l
369.042451 64.325425 l
369.296285 63.417895 l
369.55012 65.192948 l
370.057789 61.39704 l
370.311624 65.700208 l
370.565459 64.696413 l
370.819293 64.665074 l
371.073128 62.709322 l
371.326963 63.42881 l
371.580797 65.204091 l
371.834632 65.225482 l
372.088467 65.546636 l
372.342302 64.885482 l
372.596136 62.985792 l
372.849971 64.555113 l
373.103806 64.65273 l
373.35764 63.64498 l
373.611475 63.40606 l
373.86531 64.199001 l
374.119144 63.889451 l
374.372979 64.344414 l
374.626814 61.739666 l
374.880648 63.500409 l
375.388318 64.375291 l
375.642152 62.342966 l
375.895987 62.909522 l
376.149822 62.479513 l
376.403656 63.890004 l
376.657491 63.065212 l
376.911326 61.563925 l
377.16516 63.425727 l
377.418995 62.272481 l
377.926664 62.745688 l
378.180499 62.442532 l
378.434334 61.163352 l
378.688168 61.582381 l
378.942003 62.406143 l
379.195838 61.515988 l
379.449672 62.741006 l
379.703507 62.972256 l
379.957342 62.480459 l
380.211176 61.508607 l
380.465011 62.697031 l
380.718846 61.635906 l
380.97268 64.285309 l
381.226515 63.388304 l
381.48035 61.914838 l
381.734184 61.18046 l
381.988019 64.53031 l
382.241854 62.256446 l
382.495688 63.601321 l
382.749523 61.33992 l
383.003358 65.072564 l
383.257192 62.115251 l
383.511027 62.341227 l
383.764862 64.33857 l
384.018696 62.541515 l
384.526366 64.010282 l
384.7802 63.561863 l
385.034035 62.776083 l
385.541704 64.337732 l
386.049374 63.081795 l
386.303208 64.080466 l
386.557043 62.030672 l
387.064712 63.436092 l
387.318547 63.577677 l
387.826217 62.021281 l
388.080051 63.779622 l
388.333886 63.024862 l
388.587721 60.808119 l
388.841555 64.82286 l
389.09539 61.793022 l
389.349225 62.197439 l
389.603059 63.417314 l
390.110729 61.34227 l
390.364563 61.918144 l
390.618398 63.661793 l
390.872233 62.721204 l
391.126067 60.912039 l
391.379902 62.385601 l
391.633737 62.524332 l
391.887571 61.115455 l
392.141406 61.754304 l
392.395241 60.970862 l
392.649075 62.831821 l
392.90291 63.21984 l
393.156745 61.542911 l
393.410579 62.295188 l
393.664414 63.565269 l
393.918249 61.595799 l
394.172083 62.76641 l
394.425918 62.753274 l
394.679753 62.025054 l
394.933587 64.273098 l
395.187422 62.798172 l
395.441257 62.794653 l
395.948926 62.154089 l
396.202761 63.891287 l
396.456595 63.843011 l
396.71043 64.444583 l
396.964265 61.809291 l
397.218099 63.694654 l
397.471934 63.272257 l
397.725769 63.512461 l
397.979603 62.867379 l
398.233438 65.692839 l
398.487273 64.862279 l
398.487273 64.862279 l
stroke
grestore
0.800 setlinewidth
0 setlinejoin
[] 0 setdash
0.000 setgray
gsave
57.6 38.016 m
57.6 171.072 l
stroke
grestore
gsave
414.72 38.016 m
414.72 171.072 l
stroke
grestore
gsave
57.6 38.016 m
414.72 38.016 l
stroke
grestore
gsave
57.6 171.072 m
414.72 171.072 l
stroke
grestore
/DejaVuSans findfont
21.000 scalefont
setfont
gsave
357.339838 112.990046 translate
0.000000 rotate
0.000000 0.000000 m /parenleft glyphshow
8.192871 0.000000 m /b glyphshow
21.522949 0.000000 m /parenright glyphshow
grestore
1.000 setlinewidth
0 setlinecap
0.800 setgray
gsave
283.141875 148.400125 m
407.72 148.400125 l
409.053333 148.400125 409.72 149.066792 409.72 150.400125 c
409.72 164.072 l
409.72 165.405333 409.053333 166.072 407.72 166.072 c
283.141875 166.072 l
281.808542 166.072 281.141875 165.405333 281.141875 164.072 c
281.141875 150.400125 l
281.141875 149.066792 281.808542 148.400125 283.141875 148.400125 c
cl
gsave
1.000 setgray
fill
grestore
stroke
grestore
1.500 setlinewidth
1 setlinejoin
2 setlinecap
[] 0 setdash
0.122 0.467 0.706 setrgbcolor
gsave
285.141875 157.97825 m
305.141875 157.97825 l
stroke
grestore
0.000 setgray
/DejaVuSans findfont
10.000 scalefont
setfont
gsave
313.141875 154.478250 translate
0.000000 rotate
0.000000 0.000000 m /R glyphshow
6.948242 0.000000 m /e glyphshow
13.100586 0.000000 m /s glyphshow
18.310547 0.000000 m /p glyphshow
24.658203 0.000000 m /o glyphshow
30.776367 0.000000 m /n glyphshow
37.114258 0.000000 m /s glyphshow
42.324219 0.000000 m /e glyphshow
48.476562 0.000000 m /space glyphshow
51.655273 0.000000 m /f glyphshow
55.175781 0.000000 m /u glyphshow
61.513672 0.000000 m /n glyphshow
67.851562 0.000000 m /c glyphshow
73.349609 0.000000 m /t glyphshow
77.270508 0.000000 m /i glyphshow
80.048828 0.000000 m /o glyphshow
86.166992 0.000000 m /n glyphshow
grestore

end
showpage
